%!PS-Adobe-2.0 EPSF-2.0
%%BoundingBox:  0 0 567 567
%%Title: : FullHVScan, TrkPt>0.6&&ValidHit, 0TLay1HighEtaFix
%%Creator: ROOT Version 6.02/10
%%CreationDate: Tue Jul 21 23:39:48 2015
%%EndComments
%%BeginProlog
80 dict begin
/s {stroke} def /l {lineto} def /m {moveto} def /t {translate} def
/r {rotate} def /rl {roll}  def /R {repeat} def
/d {rlineto} def /rm {rmoveto} def /gr {grestore} def /f {eofill} def
/c {setrgbcolor} def /black {0 setgray} def /sd {setdash} def
/cl {closepath} def /sf {scalefont setfont} def /lw {setlinewidth} def
/box {m dup 0 exch d exch 0 d 0 exch neg d cl} def
/NC{systemdict begin initclip end}def/C{NC box clip newpath}def
/bl {box s} def /bf {gsave box gsave f grestore 1 lw [] 0 sd s grestore} def /Y { 0 exch d} def /X { 0 d} def 
/K {{pop pop 0 moveto} exch kshow} bind def
/ita {/ang 15 def gsave [1 0 ang dup sin exch cos div 1 0 0] concat} def 
/mp {newpath /y exch def /x exch def} def
/side {[w .77 mul w .23 mul] .385 w mul sd w 0 l currentpoint t -144 r} def
/mr {mp x y w2 0 360 arc} def /m24 {mr s} def /m20 {mr f} def
/mb {mp x y w2 add m w2 neg 0 d 0 w neg d w 0 d 0 w d cl} def
/mt {mp x y w2 add m w2 neg w neg d w 0 d cl} def
/m21 {mb f} def /m25 {mb s} def /m22 {mt f} def /m26{mt s} def
/m23 {mp x y w2 sub m w2 w d w neg 0 d cl f} def
/m27 {mp x y w2 add m w3 neg w2 neg d w3 w2 neg d w3 w2 d cl s} def
/m28 {mp x w2 sub y w2 sub w3 add m w3 0 d  0 w3 neg d w3 0 d 0 w3 d w3 0 d  0 w3 d w3 neg 0 d 0 w3 d w3 neg 0 d 0 w3 neg d w3 neg 0 d cl s } def
/m29 {mp gsave x w2 sub y w2 add w3 sub m currentpoint t 4 {side} repeat cl fill gr} def
/m30 {mp gsave x w2 sub y w2 add w3 sub m currentpoint t 4 {side} repeat cl s gr} def
/m31 {mp x y w2 sub m 0 w d x w2 sub y m w 0 d x w2 sub y w2 add m w w neg d x w2 sub y w2 sub m w w d s} def
/m32 {mp x y w2 sub m w2 w d w neg 0 d cl s} def
/m33 {mp x y w2 add m w3 neg w2 neg d w3 w2 neg d w3 w2 d cl f} def
/m34 {mp x w2 sub y w2 sub w3 add m w3 0 d  0 w3 neg d w3 0 d 0 w3 d w3 0 d  0 w3 d w3 neg 0 d 0 w3 d w3 neg 0 d 0 w3 neg d w3 neg 0 d cl f } def
/m2 {mp x y w2 sub m 0 w d x w2 sub y m w 0 d s} def
/m5 {mp x w2 sub y w2 sub m w w d x w2 sub y w2 add m w w neg d s} def
/reEncode {exch findfont dup length dict begin {1 index /FID eq  {pop pop} {def} ifelse } forall /Encoding exch def currentdict end dup /FontName get exch definefont pop } def [/Times-Bold /Times-Italic /Times-BoldItalic /Helvetica /Helvetica-Oblique
 /Helvetica-Bold /Helvetica-BoldOblique /Courier /Courier-Oblique /Courier-Bold /Courier-BoldOblique /Times-Roman /AvantGarde-Book /AvantGarde-BookOblique /AvantGarde-Demi /AvantGarde-DemiOblique /Bookman-Demi /Bookman-DemiItalic /Bookman-Light
 /Bookman-LightItalic /Helvetica-Narrow /Helvetica-Narrow-Bold /Helvetica-Narrow-BoldOblique /Helvetica-Narrow-Oblique /NewCenturySchlbk-Roman /NewCenturySchlbk-Bold /NewCenturySchlbk-BoldItalic /NewCenturySchlbk-Italic /Palatino-Bold
 /Palatino-BoldItalic /Palatino-Italic /Palatino-Roman ] {ISOLatin1Encoding reEncode } forall
%%EndProlog
%%BeginSetup
%%EndSetup
newpath  gsave  .25 .25 scale  gsave  0 0 t black[  ] 0 sd 3 lw 1 1 1 c 2268 2268 0 0 bf black 6 lw 1 1 1 c black 1890 1814 302 227 bl 1890 1814 302 227 bl 1 1 1 c black 1890 1814 302 227 bl 1890 1814 302 227 bl 3 lw 302 227 m 1890 X s[ 4 8] 0 sd 325
 2041 m -1814 Y s 786 2041 m -1814 Y s 1247 2041 m -1814 Y s 1708 2041 m -1814 Y s 2169 2041 m -1814 Y s 325 2041 m -1814 Y s 2169 2041 m -1814 Y s[  ] 0 sd 302 2041 m 1890 X s 302 227 m 1814 Y s[ 4 8] 0 sd 2192 227 m -1890 X s 2192 590 m -1890 X s
 2192 952 m -1890 X s 2192 1315 m -1890 X s 2192 1678 m -1890 X s 2192 2041 m -1890 X s[  ] 0 sd 2192 227 m 1814 Y s 0 0 0.6 c 1 1 1 c 0.8 0 0 c 0 0 0.6 c 395 540 m 7 X s 433 540 m 8 X s 395 533 m 15 Y s 441 533 m 15 Y s 0.8 0 0 c /w 30 def /w2 {w 2
 div} def /w3 {w 3 div} def 418 540 m20 0 0 0.6 c 487 528 m 8 X s 525 528 m 8 X s 487 521 m 15 Y s 533 521 m 15 Y s 0.8 0 0 c 510 528 m20 0 0 0.6 c 579 683 m 8 X s 617 683 m 8 X s 579 675 m 15 Y s 625 675 m 15 Y s 0.8 0 0 c 602 683 m20 0 0 0.6 c 671
 738 m 8 X s 709 738 m 8 X s 671 730 m 15 Y s 717 730 m 15 Y s 0.8 0 0 c 694 738 m20 0 0 0.6 c 763 803 m 8 X s 801 803 m 8 X s 763 796 m 15 Y s 809 796 m 15 Y s 0.8 0 0 c 786 803 m20 0 0 0.6 c 855 910 m 8 X s 894 910 m 8 X s 855 903 m 15 Y s 902 903
 m 15 Y s 0.8 0 0 c 879 910 m20 0 0 0.6 c 948 969 m 8 X s 986 969 m 8 X s 948 962 m 15 Y s 994 962 m 15 Y s 0.8 0 0 c 971 969 m20 0 0 0.6 c 1040 1091 m 8 X s 1078 1091 m 8 X s 1040 1083 m 15 Y s 1086 1083 m 15 Y s 0.8 0 0 c 1063 1091 m20 0 0 0.6 c
 1132 1196 m 8 X s 1170 1196 m 8 X s 1132 1188 m 15 Y s 1178 1188 m 15 Y s 0.8 0 0 c 1155 1196 m20 0 0 0.6 c 1224 1279 m 8 X s 1262 1279 m 8 X s 1224 1271 m 15 Y s 1270 1271 m 15 Y s 0.8 0 0 c 1247 1279 m20 0 0 0.6 c 1455 1391 m 8 X s 1493 1391 m 8 X
 s 1455 1384 m 15 Y s 1501 1384 m 15 Y s 0.8 0 0 c 1478 1391 m20 0 0 0.6 c 1685 1462 m 8 X s 1723 1462 m 8 X s 1685 1455 m 15 Y s 1731 1455 m 15 Y s 0.8 0 0 c 1708 1462 m20 0 0 0.6 c 2146 1535 m 8 X s 2184 1535 m 8 X s 2146 1528 m 15 Y s 2192 1528 m
 15 Y s 0.8 0 0 c 2169 1535 m20 black 302 227 m 1890 X s
 gsave  2268 2268 0 0 C 1405.98 45.3543 t 0 r /Helvetica findfont 113.386 sf 0 0 m (Bias Votage \(V\)) show NC gr  325 283 m -56 Y s 418 255 m -28 Y s 510 255 m -28 Y s 602 255 m -28 Y s 694 255 m -28 Y s 786 283 m -56 Y s 879 255 m -28 Y s 971 255 m
 -28 Y s 1063 255 m -28 Y s 1155 255 m -28 Y s 1247 283 m -56 Y s 1339 255 m -28 Y s 1432 255 m -28 Y s 1524 255 m -28 Y s 1616 255 m -28 Y s 1708 283 m -56 Y s 1800 255 m -28 Y s 1893 255 m -28 Y s 1985 255 m -28 Y s 2077 255 m -28 Y s 2169 283 m
 -56 Y s 325 283 m -56 Y s 2169 283 m -56 Y s
 gsave  2268 2268 0 0 C 306.142 154.961 t 0 r /Helvetica findfont 71.811 sf 0 0 m (0) show NC gr 
 gsave  2268 2268 0 0 C 744.567 154.961 t 0 r /Helvetica findfont 71.811 sf 0 0 m (50) show NC gr 
 gsave  2268 2268 0 0 C 1186.77 154.961 t 0 r /Helvetica findfont 71.811 sf 0 0 m (100) show NC gr 
 gsave  2268 2268 0 0 C 1644.09 154.961 t 0 r /Helvetica findfont 71.811 sf 0 0 m (150) show NC gr 
 gsave  2268 2268 0 0 C 2105.2 154.961 t 0 r /Helvetica findfont 71.811 sf 0 0 m (200) show NC gr  302 2041 m 1890 X s 325 1984 m 57 Y s 418 2013 m 28 Y s 510 2013 m 28 Y s 602 2013 m 28 Y s 694 2013 m 28 Y s 786 1984 m 57 Y s 879 2013 m 28 Y s 971
 2013 m 28 Y s 1063 2013 m 28 Y s 1155 2013 m 28 Y s 1247 1984 m 57 Y s 1339 2013 m 28 Y s 1432 2013 m 28 Y s 1524 2013 m 28 Y s 1616 2013 m 28 Y s 1708 1984 m 57 Y s 1800 2013 m 28 Y s 1893 2013 m 28 Y s 1985 2013 m 28 Y s 2077 2013 m 28 Y s 2169
 1984 m 57 Y s 325 1984 m 57 Y s 2169 1984 m 57 Y s 302 227 m 1814 Y s
 gsave  2268 2268 0 0 C 105.827 56.6929 t 90 r /Helvetica findfont 113.386 sf 0 0 m (Norm. On\255Trk Cluster Charge MPV \(ke\)) show NC gr  357 227 m -55 X s 330 299 m -28 X s 330 372 m -28 X s 330 444 m -28 X s 330 517 m -28 X s 357 590 m -55 X s
 330 662 m -28 X s 330 735 m -28 X s 330 807 m -28 X s 330 880 m -28 X s 357 952 m -55 X s 330 1025 m -28 X s 330 1098 m -28 X s 330 1170 m -28 X s 330 1243 m -28 X s 357 1315 m -55 X s 330 1388 m -28 X s 330 1460 m -28 X s 330 1533 m -28 X s 330
 1606 m -28 X s 357 1678 m -55 X s 330 1751 m -28 X s 330 1823 m -28 X s 330 1896 m -28 X s 330 1968 m -28 X s 357 2041 m -55 X s
 gsave  2268 2268 0 0 C 253.228 200.315 t 0 r /Helvetica findfont 71.811 sf 0 0 m (0) show NC gr 
 gsave  2268 2268 0 0 C 253.228 563.15 t 0 r /Helvetica findfont 71.811 sf 0 0 m (5) show NC gr 
 gsave  2268 2268 0 0 C 211.654 925.984 t 0 r /Helvetica findfont 71.811 sf 0 0 m (10) show NC gr 
 gsave  2268 2268 0 0 C 211.654 1288.82 t 0 r /Helvetica findfont 71.811 sf 0 0 m (15) show NC gr 
 gsave  2268 2268 0 0 C 211.654 1651.65 t 0 r /Helvetica findfont 71.811 sf 0 0 m (20) show NC gr 
 gsave  2268 2268 0 0 C 211.654 2014.49 t 0 r /Helvetica findfont 71.811 sf 0 0 m (25) show NC gr  2192 227 m 1814 Y s 2138 227 m 54 X s 2165 299 m 27 X s 2165 372 m 27 X s 2165 444 m 27 X s 2165 517 m 27 X s 2138 590 m 54 X s 2165 662 m 27 X s 2165
 735 m 27 X s 2165 807 m 27 X s 2165 880 m 27 X s 2138 952 m 54 X s 2165 1025 m 27 X s 2165 1098 m 27 X s 2165 1170 m 27 X s 2165 1243 m 27 X s 2138 1315 m 54 X s 2165 1388 m 27 X s 2165 1460 m 27 X s 2165 1533 m 27 X s 2165 1606 m 27 X s 2138 1678 m
 54 X s 2165 1751 m 27 X s 2165 1823 m 27 X s 2165 1896 m 27 X s 2165 1968 m 27 X s 2138 2041 m 54 X s 0 0 0.6 c 1 1 1 c 0.6 0 0.6 c 0 0 0.6 c 395 589 m 7 X s 433 589 m 8 X s 395 582 m 15 Y s 441 582 m 15 Y s 0.6 0 0.6 c 418 589 m21 0 0 0.6 c 487 763
 m 8 X s 525 763 m 8 X s 487 756 m 15 Y s 533 756 m 15 Y s 0.6 0 0.6 c 510 763 m21 0 0 0.6 c 579 901 m 8 X s 617 901 m 8 X s 579 893 m 15 Y s 625 893 m 15 Y s 0.6 0 0.6 c 602 901 m21 0 0 0.6 c 671 1075 m 8 X s 709 1075 m 8 X s 671 1067 m 16 Y s 717
 1067 m 16 Y s 0.6 0 0.6 c 694 1075 m21 0 0 0.6 c 763 1247 m 8 X s 801 1247 m 8 X s 763 1239 m 16 Y s 809 1239 m 16 Y s 0.6 0 0.6 c 786 1247 m21 0 0 0.6 c 855 1362 m 8 X s 894 1362 m 8 X s 855 1355 m 15 Y s 902 1355 m 15 Y s 0.6 0 0.6 c 879 1362 m21
 0 0 0.6 c 948 1437 m 8 X s 986 1437 m 8 X s 948 1430 m 15 Y s 994 1430 m 15 Y s 0.6 0 0.6 c 971 1437 m21 0 0 0.6 c 1132 1523 m 8 X s 1170 1523 m 8 X s 1132 1516 m 15 Y s 1178 1516 m 15 Y s 0.6 0 0.6 c 1155 1523 m21 0 0 0.6 c 1224 1549 m 8 X s 1262
 1549 m 8 X s 1224 1542 m 15 Y s 1270 1542 m 15 Y s 0.6 0 0.6 c 1247 1549 m21 0 0 0.6 c 1455 1584 m 8 X s 1493 1584 m 8 X s 1455 1576 m 15 Y s 1501 1576 m 15 Y s 0.6 0 0.6 c 1478 1584 m21 0 0 0.6 c 1685 1605 m 8 X s 1723 1605 m 8 X s 1685 1597 m 15 Y
 s 1731 1597 m 15 Y s 0.6 0 0.6 c 1708 1605 m21 0 0 0.6 c 2146 1638 m 8 X s 2184 1638 m 8 X s 2146 1631 m 15 Y s 2192 1631 m 15 Y s 0.6 0 0.6 c 2169 1638 m21 0 0 0.6 c 1 1 1 c 0 0 0.8 c 0 0 0.6 c 395 768 m 7 X s 433 768 m 8 X s 395 760 m 15 Y s 441
 760 m 15 Y s 0 0 0.8 c 418 768 m22 0 0 0.6 c 487 1000 m 8 X s 525 1000 m 8 X s 487 993 m 15 Y s 533 993 m 15 Y s 0 0 0.8 c 510 1000 m22 0 0 0.6 c 579 1224 m 8 X s 617 1224 m 8 X s 579 1217 m 15 Y s 625 1217 m 15 Y s 0 0 0.8 c 602 1224 m22 0 0 0.6 c
 671 1366 m 8 X s 709 1366 m 8 X s 671 1358 m 16 Y s 717 1358 m 16 Y s 0 0 0.8 c 694 1366 m22 0 0 0.6 c 763 1454 m 8 X s 801 1454 m 8 X s 763 1446 m 16 Y s 809 1446 m 16 Y s 0 0 0.8 c 786 1454 m22 0 0 0.6 c 855 1503 m 8 X s 894 1503 m 8 X s 855 1495
 m 15 Y s 902 1495 m 15 Y s 0 0 0.8 c 879 1503 m22 0 0 0.6 c 948 1541 m 8 X s 986 1541 m 8 X s 948 1534 m 15 Y s 994 1534 m 15 Y s 0 0 0.8 c 971 1541 m22 0 0 0.6 c 1040 1567 m 8 X s 1078 1567 m 8 X s 1040 1559 m 15 Y s 1086 1559 m 15 Y s 0 0 0.8 c
 1063 1567 m22 0 0 0.6 c 1132 1588 m 8 X s 1170 1588 m 8 X s 1132 1581 m 15 Y s 1178 1581 m 15 Y s 0 0 0.8 c 1155 1588 m22 0 0 0.6 c 1224 1599 m 8 X s 1262 1599 m 8 X s 1224 1591 m 15 Y s 1270 1591 m 15 Y s 0 0 0.8 c 1247 1599 m22 0 0 0.6 c 1455 1620
 m 8 X s 1493 1620 m 8 X s 1455 1612 m 16 Y s 1501 1612 m 16 Y s 0 0 0.8 c 1478 1620 m22 0 0 0.6 c 1685 1650 m 8 X s 1723 1650 m 8 X s 1685 1643 m 15 Y s 1731 1643 m 15 Y s 0 0 0.8 c 1708 1650 m22 0 0 0.6 c 2146 1651 m 8 X s 2184 1651 m 8 X s 2146
 1643 m 16 Y s 2192 1643 m 16 Y s 0 0 0.8 c 2169 1651 m22 1 1 1 c black
 gsave  2268 2268 0 0 C 1526.93 2086.3 t 0 r /Helvetica findfont 98.2677 sf 0 0 m (=13 TeV \(50ns\)) show NC gr 
 gsave  2268 2268 0 0 C 1477.8 2086.3 t 0 r /Helvetica findfont 98.2677 sf 0 0 m (s) show NC gr  6 lw 1444 2143 m 11 -60 d s 0 lw 1455 2083 m 11 83 d s 1466 2166 m 61 X s
 gsave  2268 2268 0 0 C 1360.63 873.071 t 0 r /Helvetica findfont 83.1496 sf 0 0 m (Layer 1) show NC gr  0.8 0 0 c 3 lw 1304 896 m20 0 lw black
 gsave  2268 2268 0 0 C 1360.63 759.685 t 0 r /Helvetica findfont 83.1496 sf 0 0 m (Layer 2) show NC gr  0.6 0 0.6 c 3 lw 1304 782 m21 0 lw black
 gsave  2268 2268 0 0 C 1360.63 646.299 t 0 r /Helvetica findfont 83.1496 sf 0 0 m (Layer 3) show NC gr  0 0 0.8 c 3 lw 1304 669 m22 0 lw black
 gsave  2268 2268 0 0 C 302.362 2086.3 t 0 r /Helvetica-Bold findfont 105.827 sf 0 0 m (CMS preliminary) show NC gr 
 gr  gr showpage
end
%%EOF
