%!PS-Adobe-2.0 EPSF-2.0
%%BoundingBox:  0 0 567 567
%%Title: : FullHVScan, TrkPt>0.6&&ValidHit, 0TLay1HighEtaFix
%%Creator: ROOT Version 6.02/10
%%CreationDate: Tue Jul 21 23:39:50 2015
%%EndComments
%%BeginProlog
80 dict begin
/s {stroke} def /l {lineto} def /m {moveto} def /t {translate} def
/r {rotate} def /rl {roll}  def /R {repeat} def
/d {rlineto} def /rm {rmoveto} def /gr {grestore} def /f {eofill} def
/c {setrgbcolor} def /black {0 setgray} def /sd {setdash} def
/cl {closepath} def /sf {scalefont setfont} def /lw {setlinewidth} def
/box {m dup 0 exch d exch 0 d 0 exch neg d cl} def
/NC{systemdict begin initclip end}def/C{NC box clip newpath}def
/bl {box s} def /bf {gsave box gsave f grestore 1 lw [] 0 sd s grestore} def /Y { 0 exch d} def /X { 0 d} def 
/K {{pop pop 0 moveto} exch kshow} bind def
/ita {/ang 15 def gsave [1 0 ang dup sin exch cos div 1 0 0] concat} def 
/mp {newpath /y exch def /x exch def} def
/side {[w .77 mul w .23 mul] .385 w mul sd w 0 l currentpoint t -144 r} def
/mr {mp x y w2 0 360 arc} def /m24 {mr s} def /m20 {mr f} def
/mb {mp x y w2 add m w2 neg 0 d 0 w neg d w 0 d 0 w d cl} def
/mt {mp x y w2 add m w2 neg w neg d w 0 d cl} def
/m21 {mb f} def /m25 {mb s} def /m22 {mt f} def /m26{mt s} def
/m23 {mp x y w2 sub m w2 w d w neg 0 d cl f} def
/m27 {mp x y w2 add m w3 neg w2 neg d w3 w2 neg d w3 w2 d cl s} def
/m28 {mp x w2 sub y w2 sub w3 add m w3 0 d  0 w3 neg d w3 0 d 0 w3 d w3 0 d  0 w3 d w3 neg 0 d 0 w3 d w3 neg 0 d 0 w3 neg d w3 neg 0 d cl s } def
/m29 {mp gsave x w2 sub y w2 add w3 sub m currentpoint t 4 {side} repeat cl fill gr} def
/m30 {mp gsave x w2 sub y w2 add w3 sub m currentpoint t 4 {side} repeat cl s gr} def
/m31 {mp x y w2 sub m 0 w d x w2 sub y m w 0 d x w2 sub y w2 add m w w neg d x w2 sub y w2 sub m w w d s} def
/m32 {mp x y w2 sub m w2 w d w neg 0 d cl s} def
/m33 {mp x y w2 add m w3 neg w2 neg d w3 w2 neg d w3 w2 d cl f} def
/m34 {mp x w2 sub y w2 sub w3 add m w3 0 d  0 w3 neg d w3 0 d 0 w3 d w3 0 d  0 w3 d w3 neg 0 d 0 w3 d w3 neg 0 d 0 w3 neg d w3 neg 0 d cl f } def
/m2 {mp x y w2 sub m 0 w d x w2 sub y m w 0 d s} def
/m5 {mp x w2 sub y w2 sub m w w d x w2 sub y w2 add m w w neg d s} def
/reEncode {exch findfont dup length dict begin {1 index /FID eq  {pop pop} {def} ifelse } forall /Encoding exch def currentdict end dup /FontName get exch definefont pop } def [/Times-Bold /Times-Italic /Times-BoldItalic /Helvetica /Helvetica-Oblique
 /Helvetica-Bold /Helvetica-BoldOblique /Courier /Courier-Oblique /Courier-Bold /Courier-BoldOblique /Times-Roman /AvantGarde-Book /AvantGarde-BookOblique /AvantGarde-Demi /AvantGarde-DemiOblique /Bookman-Demi /Bookman-DemiItalic /Bookman-Light
 /Bookman-LightItalic /Helvetica-Narrow /Helvetica-Narrow-Bold /Helvetica-Narrow-BoldOblique /Helvetica-Narrow-Oblique /NewCenturySchlbk-Roman /NewCenturySchlbk-Bold /NewCenturySchlbk-BoldItalic /NewCenturySchlbk-Italic /Palatino-Bold
 /Palatino-BoldItalic /Palatino-Italic /Palatino-Roman ] {ISOLatin1Encoding reEncode } forall
%%EndProlog
%%BeginSetup
%%EndSetup
newpath  gsave  .25 .25 scale  gsave  0 0 t black[  ] 0 sd 3 lw 1 1 1 c 2268 2268 0 0 bf black 6 lw 1 1 1 c black 1890 1814 302 227 bl 1890 1814 302 227 bl 1 1 1 c black 1890 1814 302 227 bl 1890 1814 302 227 bl 3 lw 302 227 m 1890 X s[ 4 8] 0 sd 318
 2041 m -1814 Y s 628 2041 m -1814 Y s 937 2041 m -1814 Y s 1247 2041 m -1814 Y s 1557 2041 m -1814 Y s 1867 2041 m -1814 Y s 2177 2041 m -1814 Y s 318 2041 m -1814 Y s 2177 2041 m -1814 Y s[  ] 0 sd 302 2041 m 1890 X s 302 227 m 1814 Y s[ 4 8] 0 sd
 2192 227 m -1890 X s 2192 408 m -1890 X s 2192 590 m -1890 X s 2192 771 m -1890 X s 2192 952 m -1890 X s 2192 1134 m -1890 X s 2192 1315 m -1890 X s 2192 1497 m -1890 X s 2192 1678 m -1890 X s 2192 1860 m -1890 X s 2192 2041 m -1890 X s[  ] 0 sd
 2192 227 m 1814 Y s 0 0 0.6 c 1 1 1 c black /w 30 def /w2 {w 2 div} def /w3 {w 3 div} def 380 1079 m23 442 1133 m23 504 1355 m23 566 1480 m23 628 1539 m23 690 1571 m23 752 1590 m23 814 1602 m23 875 1609 m23 937 1615 m23 1092 1619 m23 1247 1620 m23
 2177 1651 m23 302 227 m 1890 X s
 gsave  2268 2268 0 0 C 1405.98 45.3543 t 0 r /Helvetica findfont 113.386 sf 0 0 m (Bias Votage \(V\)) show NC gr  318 283 m -56 Y s 380 255 m -28 Y s 442 255 m -28 Y s 504 255 m -28 Y s 566 255 m -28 Y s 628 283 m -56 Y s 690 255 m -28 Y s 752 255 m
 -28 Y s 814 255 m -28 Y s 875 255 m -28 Y s 937 283 m -56 Y s 999 255 m -28 Y s 1061 255 m -28 Y s 1123 255 m -28 Y s 1185 255 m -28 Y s 1247 283 m -56 Y s 1309 255 m -28 Y s 1371 255 m -28 Y s 1433 255 m -28 Y s 1495 255 m -28 Y s 1557 283 m -56 Y
 s 1619 255 m -28 Y s 1681 255 m -28 Y s 1743 255 m -28 Y s 1805 255 m -28 Y s 1867 283 m -56 Y s 1929 255 m -28 Y s 1991 255 m -28 Y s 2053 255 m -28 Y s 2115 255 m -28 Y s 2177 283 m -56 Y s 318 283 m -56 Y s 2177 283 m -56 Y s
 gsave  2268 2268 0 0 C 294.803 154.961 t 0 r /Helvetica findfont 75.5906 sf 0 0 m (0) show NC gr 
 gsave  2268 2268 0 0 C 585.827 154.961 t 0 r /Helvetica findfont 75.5906 sf 0 0 m (50) show NC gr 
 gsave  2268 2268 0 0 C 873.071 154.961 t 0 r /Helvetica findfont 75.5906 sf 0 0 m (100) show NC gr 
 gsave  2268 2268 0 0 C 1182.99 154.961 t 0 r /Helvetica findfont 75.5906 sf 0 0 m (150) show NC gr 
 gsave  2268 2268 0 0 C 1489.13 154.961 t 0 r /Helvetica findfont 75.5906 sf 0 0 m (200) show NC gr 
 gsave  2268 2268 0 0 C 1799.06 154.961 t 0 r /Helvetica findfont 75.5906 sf 0 0 m (250) show NC gr 
 gsave  2268 2268 0 0 C 2108.98 154.961 t 0 r /Helvetica findfont 75.5906 sf 0 0 m (300) show NC gr  302 2041 m 1890 X s 318 1984 m 57 Y s 380 2013 m 28 Y s 442 2013 m 28 Y s 504 2013 m 28 Y s 566 2013 m 28 Y s 628 1984 m 57 Y s 690 2013 m 28 Y s 752
 2013 m 28 Y s 814 2013 m 28 Y s 875 2013 m 28 Y s 937 1984 m 57 Y s 999 2013 m 28 Y s 1061 2013 m 28 Y s 1123 2013 m 28 Y s 1185 2013 m 28 Y s 1247 1984 m 57 Y s 1309 2013 m 28 Y s 1371 2013 m 28 Y s 1433 2013 m 28 Y s 1495 2013 m 28 Y s 1557 1984 m
 57 Y s 1619 2013 m 28 Y s 1681 2013 m 28 Y s 1743 2013 m 28 Y s 1805 2013 m 28 Y s 1867 1984 m 57 Y s 1929 2013 m 28 Y s 1991 2013 m 28 Y s 2053 2013 m 28 Y s 2115 2013 m 28 Y s 2177 1984 m 57 Y s 318 1984 m 57 Y s 2177 1984 m 57 Y s 302 227 m 1814
 Y s
 gsave  2268 2268 0 0 C 105.827 56.6929 t 90 r /Helvetica findfont 113.386 sf 0 0 m (Norm. On\255Trk Cluster Charge MPV \(ke\)) show NC gr  357 227 m -55 X s 330 272 m -28 X s 330 317 m -28 X s 330 363 m -28 X s 357 408 m -55 X s 330 454 m -28 X s
 330 499 m -28 X s 330 544 m -28 X s 357 590 m -55 X s 330 635 m -28 X s 330 680 m -28 X s 330 726 m -28 X s 357 771 m -55 X s 330 816 m -28 X s 330 862 m -28 X s 330 907 m -28 X s 357 952 m -55 X s 330 998 m -28 X s 330 1043 m -28 X s 330 1089 m -28
 X s 357 1134 m -55 X s 330 1179 m -28 X s 330 1225 m -28 X s 330 1270 m -28 X s 357 1315 m -55 X s 330 1361 m -28 X s 330 1406 m -28 X s 330 1451 m -28 X s 357 1497 m -55 X s 330 1542 m -28 X s 330 1587 m -28 X s 330 1633 m -28 X s 357 1678 m -55 X
 s 330 1723 m -28 X s 330 1769 m -28 X s 330 1814 m -28 X s 357 1860 m -55 X s 330 1905 m -28 X s 330 1950 m -28 X s 330 1996 m -28 X s 357 2041 m -55 X s
 gsave  2268 2268 0 0 C 249.449 196.535 t 0 r /Helvetica findfont 75.5906 sf 0 0 m (0) show NC gr 
 gsave  2268 2268 0 0 C 249.449 377.953 t 0 r /Helvetica findfont 75.5906 sf 0 0 m (2) show NC gr 
 gsave  2268 2268 0 0 C 249.449 559.37 t 0 r /Helvetica findfont 75.5906 sf 0 0 m (4) show NC gr 
 gsave  2268 2268 0 0 C 249.449 740.787 t 0 r /Helvetica findfont 75.5906 sf 0 0 m (6) show NC gr 
 gsave  2268 2268 0 0 C 249.449 922.205 t 0 r /Helvetica findfont 75.5906 sf 0 0 m (8) show NC gr 
 gsave  2268 2268 0 0 C 207.874 1103.62 t 0 r /Helvetica findfont 75.5906 sf 0 0 m (10) show NC gr 
 gsave  2268 2268 0 0 C 207.874 1285.04 t 0 r /Helvetica findfont 75.5906 sf 0 0 m (12) show NC gr 
 gsave  2268 2268 0 0 C 207.874 1466.46 t 0 r /Helvetica findfont 75.5906 sf 0 0 m (14) show NC gr 
 gsave  2268 2268 0 0 C 207.874 1647.87 t 0 r /Helvetica findfont 75.5906 sf 0 0 m (16) show NC gr 
 gsave  2268 2268 0 0 C 207.874 1829.29 t 0 r /Helvetica findfont 75.5906 sf 0 0 m (18) show NC gr 
 gsave  2268 2268 0 0 C 207.874 2010.71 t 0 r /Helvetica findfont 75.5906 sf 0 0 m (20) show NC gr  2192 227 m 1814 Y s 2138 227 m 54 X s 2165 272 m 27 X s 2165 317 m 27 X s 2165 363 m 27 X s 2138 408 m 54 X s 2165 454 m 27 X s 2165 499 m 27 X s 2165
 544 m 27 X s 2138 590 m 54 X s 2165 635 m 27 X s 2165 680 m 27 X s 2165 726 m 27 X s 2138 771 m 54 X s 2165 816 m 27 X s 2165 862 m 27 X s 2165 907 m 27 X s 2138 952 m 54 X s 2165 998 m 27 X s 2165 1043 m 27 X s 2165 1089 m 27 X s 2138 1134 m 54 X s
 2165 1179 m 27 X s 2165 1225 m 27 X s 2165 1270 m 27 X s 2138 1315 m 54 X s 2165 1361 m 27 X s 2165 1406 m 27 X s 2165 1451 m 27 X s 2138 1497 m 54 X s 2165 1542 m 27 X s 2165 1587 m 27 X s 2165 1633 m 27 X s 2138 1678 m 54 X s 2165 1723 m 27 X s
 2165 1769 m 27 X s 2165 1814 m 27 X s 2138 1860 m 54 X s 2165 1905 m 27 X s 2165 1950 m 27 X s 2165 1996 m 27 X s 2138 2041 m 54 X s 1 1 1 c black
 gsave  2268 2268 0 0 C 1526.93 2086.3 t 0 r /Helvetica findfont 98.2677 sf 0 0 m (=13 TeV \(50ns\)) show NC gr 
 gsave  2268 2268 0 0 C 1477.8 2086.3 t 0 r /Helvetica findfont 98.2677 sf 0 0 m (s) show NC gr  6 lw 1444 2143 m 11 -60 d s 0 lw 1455 2083 m 11 83 d s 1466 2166 m 61 X s 0 0 0.6 c 3 lw 1 1 1 c 0 0.6 0 c 380 1182 m29 442 1353 m29 504 1540 m29 566
 1605 m29 628 1619 m29 690 1627 m29 752 1634 m29 814 1640 m29 875 1642 m29 937 1644 m29 1092 1648 m29 1247 1653 m29 2177 1668 m29 black
 gsave  2268 2268 0 0 C 1020.47 1114.96 t 0 r /Helvetica findfont 83.1496 sf 0 0 m (Disk 1) show NC gr  964 1140 m23
 gsave  2268 2268 0 0 C 1020.47 990.236 t 0 r /Helvetica findfont 83.1496 sf 0 0 m (Disk 2) show NC gr  0 0.6 0 c 964 1015 m29 black
 gsave  2268 2268 0 0 C 302.362 2086.3 t 0 r /Helvetica-Bold findfont 105.827 sf 0 0 m (CMS preliminary) show NC gr 
 gr  gr showpage
end
%%EOF
