%!PS-Adobe-2.0 EPSF-2.0
%%BoundingBox:  0 0 567 567
%%Title: : FullHVScan, 0TLay1HighEtaFix, EffCutsScans
%%Creator: ROOT Version 6.02/10
%%CreationDate: Tue Jul 21 23:39:45 2015
%%EndComments
%%BeginProlog
80 dict begin
/s {stroke} def /l {lineto} def /m {moveto} def /t {translate} def
/r {rotate} def /rl {roll}  def /R {repeat} def
/d {rlineto} def /rm {rmoveto} def /gr {grestore} def /f {eofill} def
/c {setrgbcolor} def /black {0 setgray} def /sd {setdash} def
/cl {closepath} def /sf {scalefont setfont} def /lw {setlinewidth} def
/box {m dup 0 exch d exch 0 d 0 exch neg d cl} def
/NC{systemdict begin initclip end}def/C{NC box clip newpath}def
/bl {box s} def /bf {gsave box gsave f grestore 1 lw [] 0 sd s grestore} def /Y { 0 exch d} def /X { 0 d} def 
/K {{pop pop 0 moveto} exch kshow} bind def
/ita {/ang 15 def gsave [1 0 ang dup sin exch cos div 1 0 0] concat} def 
/mp {newpath /y exch def /x exch def} def
/side {[w .77 mul w .23 mul] .385 w mul sd w 0 l currentpoint t -144 r} def
/mr {mp x y w2 0 360 arc} def /m24 {mr s} def /m20 {mr f} def
/mb {mp x y w2 add m w2 neg 0 d 0 w neg d w 0 d 0 w d cl} def
/mt {mp x y w2 add m w2 neg w neg d w 0 d cl} def
/m21 {mb f} def /m25 {mb s} def /m22 {mt f} def /m26{mt s} def
/m23 {mp x y w2 sub m w2 w d w neg 0 d cl f} def
/m27 {mp x y w2 add m w3 neg w2 neg d w3 w2 neg d w3 w2 d cl s} def
/m28 {mp x w2 sub y w2 sub w3 add m w3 0 d  0 w3 neg d w3 0 d 0 w3 d w3 0 d  0 w3 d w3 neg 0 d 0 w3 d w3 neg 0 d 0 w3 neg d w3 neg 0 d cl s } def
/m29 {mp gsave x w2 sub y w2 add w3 sub m currentpoint t 4 {side} repeat cl fill gr} def
/m30 {mp gsave x w2 sub y w2 add w3 sub m currentpoint t 4 {side} repeat cl s gr} def
/m31 {mp x y w2 sub m 0 w d x w2 sub y m w 0 d x w2 sub y w2 add m w w neg d x w2 sub y w2 sub m w w d s} def
/m32 {mp x y w2 sub m w2 w d w neg 0 d cl s} def
/m33 {mp x y w2 add m w3 neg w2 neg d w3 w2 neg d w3 w2 d cl f} def
/m34 {mp x w2 sub y w2 sub w3 add m w3 0 d  0 w3 neg d w3 0 d 0 w3 d w3 0 d  0 w3 d w3 neg 0 d 0 w3 d w3 neg 0 d 0 w3 neg d w3 neg 0 d cl f } def
/m2 {mp x y w2 sub m 0 w d x w2 sub y m w 0 d s} def
/m5 {mp x w2 sub y w2 sub m w w d x w2 sub y w2 add m w w neg d s} def
/reEncode {exch findfont dup length dict begin {1 index /FID eq  {pop pop} {def} ifelse } forall /Encoding exch def currentdict end dup /FontName get exch definefont pop } def [/Times-Bold /Times-Italic /Times-BoldItalic /Helvetica /Helvetica-Oblique
 /Helvetica-Bold /Helvetica-BoldOblique /Courier /Courier-Oblique /Courier-Bold /Courier-BoldOblique /Times-Roman /AvantGarde-Book /AvantGarde-BookOblique /AvantGarde-Demi /AvantGarde-DemiOblique /Bookman-Demi /Bookman-DemiItalic /Bookman-Light
 /Bookman-LightItalic /Helvetica-Narrow /Helvetica-Narrow-Bold /Helvetica-Narrow-BoldOblique /Helvetica-Narrow-Oblique /NewCenturySchlbk-Roman /NewCenturySchlbk-Bold /NewCenturySchlbk-BoldItalic /NewCenturySchlbk-Italic /Palatino-Bold
 /Palatino-BoldItalic /Palatino-Italic /Palatino-Roman ] {ISOLatin1Encoding reEncode } forall
%%EndProlog
%%BeginSetup
%%EndSetup
newpath  gsave  .25 .25 scale  gsave  0 0 t black[  ] 0 sd 3 lw 1 1 1 c 2268 2268 0 0 bf black 6 lw 1 1 1 c black 1890 1814 302 227 bl 1890 1814 302 227 bl 1 1 1 c black 1890 1814 302 227 bl 1890 1814 302 227 bl 3 lw 302 227 m 1890 X s[ 4 8] 0 sd 318
 2041 m -1814 Y s 628 2041 m -1814 Y s 937 2041 m -1814 Y s 1247 2041 m -1814 Y s 1557 2041 m -1814 Y s 1867 2041 m -1814 Y s 2177 2041 m -1814 Y s 318 2041 m -1814 Y s 2177 2041 m -1814 Y s[  ] 0 sd 302 2041 m 1890 X s 302 227 m 1814 Y s[ 4 8] 0 sd
 2192 227 m -1890 X s 2192 408 m -1890 X s 2192 590 m -1890 X s 2192 771 m -1890 X s 2192 952 m -1890 X s 2192 1134 m -1890 X s 2192 1315 m -1890 X s 2192 1497 m -1890 X s 2192 1678 m -1890 X s 2192 1860 m -1890 X s 2192 2041 m -1890 X s[  ] 0 sd
 2192 227 m 1814 Y s 0 0 0.6 c 1 1 1 c 0.8 0 0 c 0 0 0.6 c 364 460 m 1 X s 395 460 m s 364 453 m 15 Y s 395 453 m 15 Y s 0.8 0 0 c /w 30 def /w2 {w 2 div} def /w3 {w 3 div} def 380 460 m20 0 0 0.6 c 426 1035 m 1 X s 457 1035 m s 426 1027 m 15 Y s 457
 1027 m 15 Y s 0.8 0 0 c 442 1035 m20 0 0 0.6 c 488 1419 m 1 X s 519 1419 m s 488 1412 m 15 Y s 519 1412 m 15 Y s 0.8 0 0 c 504 1419 m20 0 0 0.6 c 550 1605 m 1 X s 581 1605 m s 550 1597 m 15 Y s 581 1597 m 15 Y s 0.8 0 0 c 566 1605 m20 0 0 0.6 c 612
 1735 m 1 X s 643 1735 m s 612 1727 m 15 Y s 643 1727 m 15 Y s 0.8 0 0 c 628 1735 m20 0 0 0.6 c 674 1842 m s 705 1842 m s 674 1835 m 15 Y s 705 1835 m 15 Y s 0.8 0 0 c 690 1842 m20 0 0 0.6 c 736 1914 m s 767 1914 m s 736 1906 m 15 Y s 767 1906 m 15 Y
 s 0.8 0 0 c 752 1914 m20 0 0 0.6 c 798 1953 m s 829 1953 m s 798 1945 m 15 Y s 829 1945 m 15 Y s 0.8 0 0 c 814 1953 m20 0 0 0.6 c 860 1978 m s 891 1978 m s 860 1971 m 15 Y s 891 1971 m 15 Y s 0.8 0 0 c 875 1978 m20 0 0 0.6 c 922 1996 m s 953 1996 m
 s 922 1988 m 15 Y s 953 1988 m 15 Y s 0.8 0 0 c 937 1996 m20 0 0 0.6 c 1077 2002 m s 1107 2002 m 1 X s 1077 1994 m 15 Y s 1108 1994 m 15 Y s 0.8 0 0 c 1092 2002 m20 0 0 0.6 c 1232 2011 m s 1262 2011 m 1 X s 1232 2004 m 15 Y s 1263 2004 m 15 Y s 0.8
 0 0 c 1247 2011 m20 0 0 0.6 c 1542 2024 m s 1572 2024 m 1 X s 1542 2016 m 15 Y s 1573 2016 m 15 Y s 0.8 0 0 c 1557 2024 m20 black 302 227 m 1890 X s
 gsave  2268 2268 0 0 C 1379.53 45.3543 t 0 r /Helvetica findfont 113.386 sf 0 0 m (Bias Voltage \(V\)) show NC gr  318 283 m -56 Y s 380 255 m -28 Y s 442 255 m -28 Y s 504 255 m -28 Y s 566 255 m -28 Y s 628 283 m -56 Y s 690 255 m -28 Y s 752 255
 m -28 Y s 814 255 m -28 Y s 875 255 m -28 Y s 937 283 m -56 Y s 999 255 m -28 Y s 1061 255 m -28 Y s 1123 255 m -28 Y s 1185 255 m -28 Y s 1247 283 m -56 Y s 1309 255 m -28 Y s 1371 255 m -28 Y s 1433 255 m -28 Y s 1495 255 m -28 Y s 1557 283 m -56
 Y s 1619 255 m -28 Y s 1681 255 m -28 Y s 1743 255 m -28 Y s 1805 255 m -28 Y s 1867 283 m -56 Y s 1929 255 m -28 Y s 1991 255 m -28 Y s 2053 255 m -28 Y s 2115 255 m -28 Y s 2177 283 m -56 Y s 318 283 m -56 Y s 2177 283 m -56 Y s
 gsave  2268 2268 0 0 C 298.583 154.961 t 0 r /Helvetica findfont 71.811 sf 0 0 m (0) show NC gr 
 gsave  2268 2268 0 0 C 585.827 154.961 t 0 r /Helvetica findfont 71.811 sf 0 0 m (50) show NC gr 
 gsave  2268 2268 0 0 C 876.85 154.961 t 0 r /Helvetica findfont 71.811 sf 0 0 m (100) show NC gr 
 gsave  2268 2268 0 0 C 1186.77 154.961 t 0 r /Helvetica findfont 71.811 sf 0 0 m (150) show NC gr 
 gsave  2268 2268 0 0 C 1492.91 154.961 t 0 r /Helvetica findfont 71.811 sf 0 0 m (200) show NC gr 
 gsave  2268 2268 0 0 C 1802.83 154.961 t 0 r /Helvetica findfont 71.811 sf 0 0 m (250) show NC gr 
 gsave  2268 2268 0 0 C 2112.76 154.961 t 0 r /Helvetica findfont 71.811 sf 0 0 m (300) show NC gr  302 2041 m 1890 X s 318 1984 m 57 Y s 380 2013 m 28 Y s 442 2013 m 28 Y s 504 2013 m 28 Y s 566 2013 m 28 Y s 628 1984 m 57 Y s 690 2013 m 28 Y s 752
 2013 m 28 Y s 814 2013 m 28 Y s 875 2013 m 28 Y s 937 1984 m 57 Y s 999 2013 m 28 Y s 1061 2013 m 28 Y s 1123 2013 m 28 Y s 1185 2013 m 28 Y s 1247 1984 m 57 Y s 1309 2013 m 28 Y s 1371 2013 m 28 Y s 1433 2013 m 28 Y s 1495 2013 m 28 Y s 1557 1984 m
 57 Y s 1619 2013 m 28 Y s 1681 2013 m 28 Y s 1743 2013 m 28 Y s 1805 2013 m 28 Y s 1867 1984 m 57 Y s 1929 2013 m 28 Y s 1991 2013 m 28 Y s 2053 2013 m 28 Y s 2115 2013 m 28 Y s 2177 1984 m 57 Y s 318 1984 m 57 Y s 2177 1984 m 57 Y s 302 227 m 1814
 Y s
 gsave  2268 2268 0 0 C 105.827 1387.09 t 90 r /Helvetica findfont 113.386 sf 0 0 m (Hit Efficiency) show NC gr  357 227 m -55 X s 330 263 m -28 X s 330 299 m -28 X s 330 336 m -28 X s 330 372 m -28 X s 357 408 m -55 X s 330 444 m -28 X s 330 481 m
 -28 X s 330 517 m -28 X s 330 553 m -28 X s 357 590 m -55 X s 330 626 m -28 X s 330 662 m -28 X s 330 698 m -28 X s 330 735 m -28 X s 357 771 m -55 X s 330 807 m -28 X s 330 844 m -28 X s 330 880 m -28 X s 330 916 m -28 X s 357 952 m -55 X s 330 989
 m -28 X s 330 1025 m -28 X s 330 1061 m -28 X s 330 1098 m -28 X s 357 1134 m -55 X s 330 1170 m -28 X s 330 1206 m -28 X s 330 1243 m -28 X s 330 1279 m -28 X s 357 1315 m -55 X s 330 1352 m -28 X s 330 1388 m -28 X s 330 1424 m -28 X s 330 1460 m
 -28 X s 357 1497 m -55 X s 330 1533 m -28 X s 330 1569 m -28 X s 330 1606 m -28 X s 330 1642 m -28 X s 357 1678 m -55 X s 330 1714 m -28 X s 330 1751 m -28 X s 330 1787 m -28 X s 330 1823 m -28 X s 357 1860 m -55 X s 330 1896 m -28 X s 330 1932 m
 -28 X s 330 1968 m -28 X s 330 2005 m -28 X s 357 2041 m -55 X s
 gsave  2268 2268 0 0 C 192.756 200.315 t 0 r /Helvetica findfont 71.811 sf 0 0 m (0.0) show NC gr 
 gsave  2268 2268 0 0 C 204.094 381.732 t 0 r /Helvetica findfont 71.811 sf 0 0 m (0.1) show NC gr 
 gsave  2268 2268 0 0 C 192.756 563.15 t 0 r /Helvetica findfont 71.811 sf 0 0 m (0.2) show NC gr 
 gsave  2268 2268 0 0 C 192.756 744.567 t 0 r /Helvetica findfont 71.811 sf 0 0 m (0.3) show NC gr 
 gsave  2268 2268 0 0 C 192.756 925.984 t 0 r /Helvetica findfont 71.811 sf 0 0 m (0.4) show NC gr 
 gsave  2268 2268 0 0 C 192.756 1107.4 t 0 r /Helvetica findfont 71.811 sf 0 0 m (0.5) show NC gr 
 gsave  2268 2268 0 0 C 192.756 1288.82 t 0 r /Helvetica findfont 71.811 sf 0 0 m (0.6) show NC gr 
 gsave  2268 2268 0 0 C 192.756 1470.24 t 0 r /Helvetica findfont 71.811 sf 0 0 m (0.7) show NC gr 
 gsave  2268 2268 0 0 C 192.756 1651.65 t 0 r /Helvetica findfont 71.811 sf 0 0 m (0.8) show NC gr 
 gsave  2268 2268 0 0 C 192.756 1833.07 t 0 r /Helvetica findfont 71.811 sf 0 0 m (0.9) show NC gr 
 gsave  2268 2268 0 0 C 192.756 2014.49 t 0 r /Helvetica findfont 71.811 sf 0 0 m (1.0) show NC gr  2192 227 m 1814 Y s 2138 227 m 54 X s 2165 263 m 27 X s 2165 299 m 27 X s 2165 336 m 27 X s 2165 372 m 27 X s 2138 408 m 54 X s 2165 444 m 27 X s 2165
 481 m 27 X s 2165 517 m 27 X s 2165 553 m 27 X s 2138 590 m 54 X s 2165 626 m 27 X s 2165 662 m 27 X s 2165 698 m 27 X s 2165 735 m 27 X s 2138 771 m 54 X s 2165 807 m 27 X s 2165 844 m 27 X s 2165 880 m 27 X s 2165 916 m 27 X s 2138 952 m 54 X s
 2165 989 m 27 X s 2165 1025 m 27 X s 2165 1061 m 27 X s 2165 1098 m 27 X s 2138 1134 m 54 X s 2165 1170 m 27 X s 2165 1206 m 27 X s 2165 1243 m 27 X s 2165 1279 m 27 X s 2138 1315 m 54 X s 2165 1352 m 27 X s 2165 1388 m 27 X s 2165 1424 m 27 X s
 2165 1460 m 27 X s 2138 1497 m 54 X s 2165 1533 m 27 X s 2165 1569 m 27 X s 2165 1606 m 27 X s 2165 1642 m 27 X s 2138 1678 m 54 X s 2165 1714 m 27 X s 2165 1751 m 27 X s 2165 1787 m 27 X s 2165 1823 m 27 X s 2138 1860 m 54 X s 2165 1896 m 27 X s
 2165 1932 m 27 X s 2165 1968 m 27 X s 2165 2005 m 27 X s 2138 2041 m 54 X s 0 0 0.6 c 1 1 1 c 0.6 0 0.6 c 0 0 0.6 c 364 1111 m 1 X s 395 1111 m s 364 1103 m 15 Y s 395 1103 m 15 Y s 0.6 0 0.6 c 380 1111 m21 0 0 0.6 c 426 1638 m 1 X s 457 1638 m s
 426 1631 m 15 Y s 457 1631 m 15 Y s 0.6 0 0.6 c 442 1638 m21 0 0 0.6 c 488 1812 m 1 X s 519 1812 m s 488 1804 m 15 Y s 519 1804 m 15 Y s 0.6 0 0.6 c 504 1812 m21 0 0 0.6 c 550 1885 m 1 X s 581 1885 m s 550 1877 m 15 Y s 581 1877 m 15 Y s 0.6 0 0.6 c
 566 1885 m21 0 0 0.6 c 612 1925 m 1 X s 643 1925 m s 612 1918 m 15 Y s 643 1918 m 15 Y s 0.6 0 0.6 c 628 1925 m21 0 0 0.6 c 674 1975 m s 705 1975 m s 674 1967 m 16 Y s 705 1967 m 16 Y s 0.6 0 0.6 c 690 1975 m21 0 0 0.6 c 736 2002 m s 767 2002 m s
 736 1995 m 15 Y s 767 1995 m 15 Y s 0.6 0 0.6 c 752 2002 m21 0 0 0.6 c 860 2019 m s 891 2019 m s 860 2011 m 15 Y s 891 2011 m 15 Y s 0.6 0 0.6 c 875 2019 m21 0 0 0.6 c 922 2022 m s 953 2022 m s 922 2015 m 15 Y s 953 2015 m 15 Y s 0.6 0 0.6 c 937
 2022 m21 0 0 0.6 c 1077 2026 m s 1107 2026 m 1 X s 1077 2019 m 15 Y s 1108 2019 m 15 Y s 0.6 0 0.6 c 1092 2026 m21 0 0 0.6 c 1232 2028 m s 1262 2028 m 1 X s 1232 2020 m 15 Y s 1263 2020 m 15 Y s 0.6 0 0.6 c 1247 2028 m21 0 0 0.6 c 1542 2032 m s 1572
 2032 m 1 X s 1542 2025 m 15 Y s 1573 2025 m 15 Y s 0.6 0 0.6 c 1557 2032 m21 0 0 0.6 c 1 1 1 c 0 0 0.8 c 0 0 0.6 c 364 1276 m 1 X s 395 1276 m s 364 1268 m 15 Y s 395 1268 m 15 Y s 0 0 0.8 c 380 1276 m22 0 0 0.6 c 426 1726 m 1 X s 457 1726 m s 426
 1719 m 15 Y s 457 1719 m 15 Y s 0 0 0.8 c 442 1726 m22 0 0 0.6 c 488 1854 m 1 X s 519 1854 m s 488 1846 m 15 Y s 519 1846 m 15 Y s 0 0 0.8 c 504 1854 m22 0 0 0.6 c 550 1900 m 1 X s 581 1900 m s 550 1893 m 15 Y s 581 1893 m 15 Y s 0 0 0.8 c 566 1900
 m22 0 0 0.6 c 612 1938 m 1 X s 643 1938 m s 612 1931 m 15 Y s 643 1931 m 15 Y s 0 0 0.8 c 628 1938 m22 0 0 0.6 c 674 1975 m s 705 1975 m s 674 1967 m 15 Y s 705 1967 m 15 Y s 0 0 0.8 c 690 1975 m22 0 0 0.6 c 736 2003 m s 767 2003 m s 736 1995 m 15 Y
 s 767 1995 m 15 Y s 0 0 0.8 c 752 2003 m22 0 0 0.6 c 798 2008 m s 829 2008 m s 798 2000 m 15 Y s 829 2000 m 15 Y s 0 0 0.8 c 814 2008 m22 0 0 0.6 c 860 2013 m s 891 2013 m s 860 2006 m 15 Y s 891 2006 m 15 Y s 0 0 0.8 c 875 2013 m22 0 0 0.6 c 922
 2017 m s 953 2017 m s 922 2009 m 15 Y s 953 2009 m 15 Y s 0 0 0.8 c 937 2017 m22 0 0 0.6 c 1077 2020 m s 1107 2020 m 1 X s 1077 2013 m 15 Y s 1108 2013 m 15 Y s 0 0 0.8 c 1092 2020 m22 0 0 0.6 c 1232 2022 m s 1262 2022 m 1 X s 1232 2014 m 15 Y s
 1263 2014 m 15 Y s 0 0 0.8 c 1247 2022 m22 0 0 0.6 c 1542 2022 m s 1572 2022 m 1 X s 1542 2015 m 15 Y s 1573 2015 m 15 Y s 0 0 0.8 c 1557 2022 m22 0 0 0.6 c 1 1 1 c black 0 0 0.6 c 364 732 m 1 X s 395 732 m s 364 725 m 15 Y s 395 725 m 15 Y s black
 380 732 m23 0 0 0.6 c 426 1304 m 1 X s 457 1304 m s 426 1297 m 15 Y s 457 1297 m 15 Y s black 442 1304 m23 0 0 0.6 c 488 1553 m 1 X s 519 1553 m s 488 1546 m 15 Y s 519 1546 m 15 Y s black 504 1553 m23 0 0 0.6 c 550 1701 m 1 X s 581 1701 m s 550
 1694 m 15 Y s 581 1694 m 15 Y s black 566 1701 m23 0 0 0.6 c 612 1806 m 1 X s 643 1806 m s 612 1798 m 16 Y s 643 1798 m 16 Y s black 628 1806 m23 0 0 0.6 c 674 1862 m s 705 1862 m s 674 1855 m 15 Y s 705 1855 m 15 Y s black 690 1862 m23 0 0 0.6 c
 736 1899 m s 767 1899 m s 736 1892 m 15 Y s 767 1892 m 15 Y s black 752 1899 m23 0 0 0.6 c 798 1929 m s 829 1929 m s 798 1922 m 15 Y s 829 1922 m 15 Y s black 814 1929 m23 0 0 0.6 c 860 1944 m s 891 1944 m s 860 1936 m 15 Y s 891 1936 m 15 Y s black
 875 1944 m23 0 0 0.6 c 922 1959 m s 953 1959 m s 922 1951 m 16 Y s 953 1951 m 16 Y s black 937 1959 m23 0 0 0.6 c 1077 1973 m s 1107 1973 m 1 X s 1077 1966 m 15 Y s 1108 1966 m 15 Y s black 1092 1973 m23 0 0 0.6 c 1232 1990 m s 1262 1990 m 1 X s
 1232 1983 m 15 Y s 1263 1983 m 15 Y s black 1247 1990 m23 0 0 0.6 c 2161 2010 m 1 X s 2192 2010 m s 2161 2003 m 15 Y s 2192 2003 m 15 Y s black 2177 2010 m23 0 0 0.6 c 1 1 1 c 0 0.6 0 c 0 0 0.6 c 364 583 m 1 X s 395 583 m s 364 576 m 15 Y s 395 576
 m 15 Y s 0 0.6 0 c 380 583 m29 0 0 0.6 c 426 1131 m 1 X s 457 1131 m s 426 1124 m 15 Y s 457 1124 m 15 Y s 0 0.6 0 c 442 1131 m29 0 0 0.6 c 488 1441 m 1 X s 519 1441 m s 488 1433 m 15 Y s 519 1433 m 15 Y s 0 0.6 0 c 504 1441 m29 0 0 0.6 c 550 1635 m
 1 X s 581 1635 m s 550 1627 m 15 Y s 581 1627 m 15 Y s 0 0.6 0 c 566 1635 m29 0 0 0.6 c 612 1751 m 1 X s 643 1751 m s 612 1743 m 15 Y s 643 1743 m 15 Y s 0 0.6 0 c 628 1751 m29 0 0 0.6 c 674 1817 m s 705 1817 m s 674 1809 m 15 Y s 705 1809 m 15 Y s
 0 0.6 0 c 690 1817 m29 0 0 0.6 c 736 1859 m s 767 1859 m s 736 1851 m 15 Y s 767 1851 m 15 Y s 0 0.6 0 c 752 1859 m29 0 0 0.6 c 798 1887 m s 829 1887 m s 798 1880 m 15 Y s 829 1880 m 15 Y s 0 0.6 0 c 814 1887 m29 0 0 0.6 c 860 1910 m s 891 1910 m s
 860 1902 m 15 Y s 891 1902 m 15 Y s 0 0.6 0 c 875 1910 m29 0 0 0.6 c 922 1924 m s 953 1924 m s 922 1916 m 15 Y s 953 1916 m 15 Y s 0 0.6 0 c 937 1924 m29 0 0 0.6 c 1077 1946 m s 1107 1946 m 1 X s 1077 1938 m 15 Y s 1108 1938 m 15 Y s 0 0.6 0 c 1092
 1946 m29 0 0 0.6 c 1232 1970 m s 1262 1970 m 1 X s 1232 1962 m 15 Y s 1263 1962 m 15 Y s 0 0.6 0 c 1247 1970 m29 0 0 0.6 c 2161 1992 m 1 X s 2192 1992 m s 2161 1985 m 15 Y s 2192 1985 m 15 Y s 0 0.6 0 c 2177 1992 m29 0.8 0 0 c 0.6 0 0.6 c 0 0 0.8 c
 black 0 0.6 0 c black 0.8 0 0 c black 0.8 0 0 c
 gsave  2268 2268 0 0 C 1103.62 1398.43 t 0 r /Helvetica findfont 83.1496 sf 0 0 m (Layer 1) show NC gr  1063 1422 m20 black 0.6 0 0.6 c black 0.6 0 0.6 c
 gsave  2268 2268 0 0 C 1103.62 1296.38 t 0 r /Helvetica findfont 83.1496 sf 0 0 m (Layer 2) show NC gr  1063 1318 m21 black 0 0 0.8 c black 0 0 0.8 c
 gsave  2268 2268 0 0 C 1103.62 1190.55 t 0 r /Helvetica findfont 83.1496 sf 0 0 m (Layer 3) show NC gr  1063 1213 m22 black
 gsave  2268 2268 0 0 C 1103.62 1088.5 t 0 r /Helvetica findfont 83.1496 sf 0 0 m (Disk 1) show NC gr  1063 1109 m23 0 0.6 0 c black 0 0.6 0 c
 gsave  2268 2268 0 0 C 1103.62 982.677 t 0 r /Helvetica findfont 83.1496 sf 0 0 m (Disk 2) show NC gr  1063 1005 m29 black
 gsave  2268 2268 0 0 C 302.362 2086.3 t 0 r /Helvetica-Bold findfont 105.827 sf 0 0 m (CMS preliminary) show NC gr  1 1 1 c black
 gsave  2268 2268 0 0 C 1526.93 2086.3 t 0 r /Helvetica findfont 98.2677 sf 0 0 m (=13 TeV \(50ns\)) show NC gr 
 gsave  2268 2268 0 0 C 1477.8 2086.3 t 0 r /Helvetica findfont 98.2677 sf 0 0 m (s) show NC gr  6 lw 1444 2143 m 11 -60 d s 0 lw 1455 2083 m 11 83 d s 1466 2166 m 61 X s
 gr  gr showpage
end
%%EOF
