%!PS-Adobe-2.0 EPSF-2.0
%%BoundingBox:  0 0 567 520
%%Title: : #sqrt{s}=13 TeV (50ns)
%%Creator: ROOT Version 6.02/10
%%CreationDate: Tue Jul 21 23:39:40 2015
%%EndComments
%%BeginProlog
80 dict begin
/s {stroke} def /l {lineto} def /m {moveto} def /t {translate} def
/r {rotate} def /rl {roll}  def /R {repeat} def
/d {rlineto} def /rm {rmoveto} def /gr {grestore} def /f {eofill} def
/c {setrgbcolor} def /black {0 setgray} def /sd {setdash} def
/cl {closepath} def /sf {scalefont setfont} def /lw {setlinewidth} def
/box {m dup 0 exch d exch 0 d 0 exch neg d cl} def
/NC{systemdict begin initclip end}def/C{NC box clip newpath}def
/bl {box s} def /bf {gsave box gsave f grestore 1 lw [] 0 sd s grestore} def /Y { 0 exch d} def /X { 0 d} def 
/K {{pop pop 0 moveto} exch kshow} bind def
/ita {/ang 15 def gsave [1 0 ang dup sin exch cos div 1 0 0] concat} def 
/mp {newpath /y exch def /x exch def} def
/side {[w .77 mul w .23 mul] .385 w mul sd w 0 l currentpoint t -144 r} def
/mr {mp x y w2 0 360 arc} def /m24 {mr s} def /m20 {mr f} def
/mb {mp x y w2 add m w2 neg 0 d 0 w neg d w 0 d 0 w d cl} def
/mt {mp x y w2 add m w2 neg w neg d w 0 d cl} def
/m21 {mb f} def /m25 {mb s} def /m22 {mt f} def /m26{mt s} def
/m23 {mp x y w2 sub m w2 w d w neg 0 d cl f} def
/m27 {mp x y w2 add m w3 neg w2 neg d w3 w2 neg d w3 w2 d cl s} def
/m28 {mp x w2 sub y w2 sub w3 add m w3 0 d  0 w3 neg d w3 0 d 0 w3 d w3 0 d  0 w3 d w3 neg 0 d 0 w3 d w3 neg 0 d 0 w3 neg d w3 neg 0 d cl s } def
/m29 {mp gsave x w2 sub y w2 add w3 sub m currentpoint t 4 {side} repeat cl fill gr} def
/m30 {mp gsave x w2 sub y w2 add w3 sub m currentpoint t 4 {side} repeat cl s gr} def
/m31 {mp x y w2 sub m 0 w d x w2 sub y m w 0 d x w2 sub y w2 add m w w neg d x w2 sub y w2 sub m w w d s} def
/m32 {mp x y w2 sub m w2 w d w neg 0 d cl s} def
/m33 {mp x y w2 add m w3 neg w2 neg d w3 w2 neg d w3 w2 d cl f} def
/m34 {mp x w2 sub y w2 sub w3 add m w3 0 d  0 w3 neg d w3 0 d 0 w3 d w3 0 d  0 w3 d w3 neg 0 d 0 w3 d w3 neg 0 d 0 w3 neg d w3 neg 0 d cl f } def
/m2 {mp x y w2 sub m 0 w d x w2 sub y m w 0 d s} def
/m5 {mp x w2 sub y w2 sub m w w d x w2 sub y w2 add m w w neg d s} def
/reEncode {exch findfont dup length dict begin {1 index /FID eq  {pop pop} {def} ifelse } forall /Encoding exch def currentdict end dup /FontName get exch definefont pop } def [/Times-Bold /Times-Italic /Times-BoldItalic /Helvetica /Helvetica-Oblique
 /Helvetica-Bold /Helvetica-BoldOblique /Courier /Courier-Oblique /Courier-Bold /Courier-BoldOblique /Times-Roman /AvantGarde-Book /AvantGarde-BookOblique /AvantGarde-Demi /AvantGarde-DemiOblique /Bookman-Demi /Bookman-DemiItalic /Bookman-Light
 /Bookman-LightItalic /Helvetica-Narrow /Helvetica-Narrow-Bold /Helvetica-Narrow-BoldOblique /Helvetica-Narrow-Oblique /NewCenturySchlbk-Roman /NewCenturySchlbk-Bold /NewCenturySchlbk-BoldItalic /NewCenturySchlbk-Italic /Palatino-Bold
 /Palatino-BoldItalic /Palatino-Italic /Palatino-Roman ] {ISOLatin1Encoding reEncode } forall
%%EndProlog
%%BeginSetup
%%EndSetup
newpath  gsave  .25 .25 scale  gsave  0 0 t black[  ] 0 sd 3 lw 1 1 1 c 2268 2079 0 0 bf black 1 1 1 c 1718 1718 275 206 bf black 1718 1718 275 206 bl 1 1 1 c 1718 1718 275 206 bf black 1718 1718 275 206 bl 275 206 m 1718 X s[ 4 8] 0 sd 382 1924 m
 -1718 Y s 597 1924 m -1718 Y s 812 1924 m -1718 Y s 1026 1924 m -1718 Y s 1241 1924 m -1718 Y s 1456 1924 m -1718 Y s 1671 1924 m -1718 Y s 1885 1924 m -1718 Y s 382 1924 m -1718 Y s 1885 1924 m -1718 Y s[  ] 0 sd 275 206 m 1718 Y s[ 4 8] 0 sd 1993
 349 m -1718 X s 1993 636 m -1718 X s 1993 922 m -1718 X s 1993 1208 m -1718 X s 1993 1495 m -1718 X s 1993 1781 m -1718 X s 1993 349 m -1718 X s 1993 1781 m -1718 X s 0 0 0.6 c[  ] 0 sd 1 1 1 c black /w 27 def /w2 {w 2 div} def /w3 {w 3 div} def 382
 1411 m21 597 1459 m21 812 1472 m21 1026 1505 m21 1241 1509 m21 1456 1437 m21 1671 1246 m21 1885 864 m21 275 206 m 1718 X s
 gsave  2268 2079 0 0 C 1271.3 41.2312 t 0 r /Helvetica findfont 103.078 sf 0 0 m (Time Delay \(ns\)) show NC gr  382 253 m -47 Y s 425 230 m -24 Y s 468 230 m -24 Y s 511 230 m -24 Y s 554 230 m -24 Y s 597 253 m -47 Y s 640 230 m -24 Y s 683 230 m
 -24 Y s 726 230 m -24 Y s 769 230 m -24 Y s 812 253 m -47 Y s 855 230 m -24 Y s 898 230 m -24 Y s 941 230 m -24 Y s 984 230 m -24 Y s 1026 253 m -47 Y s 1069 230 m -24 Y s 1112 230 m -24 Y s 1155 230 m -24 Y s 1198 230 m -24 Y s 1241 253 m -47 Y s
 1284 230 m -24 Y s 1327 230 m -24 Y s 1370 230 m -24 Y s 1413 230 m -24 Y s 1456 253 m -47 Y s 1499 230 m -24 Y s 1542 230 m -24 Y s 1585 230 m -24 Y s 1628 230 m -24 Y s 1671 253 m -47 Y s 1714 230 m -24 Y s 1757 230 m -24 Y s 1800 230 m -24 Y s
 1843 230 m -24 Y s 1885 253 m -47 Y s 382 253 m -47 Y s 339 230 m -24 Y s 296 230 m -24 Y s 1885 253 m -47 Y s 1928 230 m -24 Y s 1971 230 m -24 Y s
 gsave  2268 2079 0 0 C 343.593 140.873 t 0 r /Helvetica findfont 65.2827 sf 0 0 m (20) show NC gr 
 gsave  2268 2079 0 0 C 563.493 140.873 t 0 r /Helvetica findfont 65.2827 sf 0 0 m (21) show NC gr 
 gsave  2268 2079 0 0 C 773.085 140.873 t 0 r /Helvetica findfont 65.2827 sf 0 0 m (22) show NC gr 
 gsave  2268 2079 0 0 C 986.113 140.873 t 0 r /Helvetica findfont 65.2827 sf 0 0 m (23) show NC gr 
 gsave  2268 2079 0 0 C 1202.58 140.873 t 0 r /Helvetica findfont 65.2827 sf 0 0 m (24) show NC gr 
 gsave  2268 2079 0 0 C 1415.6 140.873 t 0 r /Helvetica findfont 65.2827 sf 0 0 m (25) show NC gr 
 gsave  2268 2079 0 0 C 1632.07 140.873 t 0 r /Helvetica findfont 65.2827 sf 0 0 m (26) show NC gr 
 gsave  2268 2079 0 0 C 1845.1 140.873 t 0 r /Helvetica findfont 65.2827 sf 0 0 m (27) show NC gr  275 206 m 1718 Y s
 gsave  2268 2079 0 0 C 96.2062 481.031 t 90 r /Helvetica findfont 103.078 sf 0 0 m (Avg. On\255Trk Cluster Size \(pixel\)) show NC gr  331 349 m -56 X s 303 421 m -28 X s 303 492 m -28 X s 303 564 m -28 X s 331 636 m -56 X s 303 707 m -28 X s 303
 779 m -28 X s 303 850 m -28 X s 331 922 m -56 X s 303 994 m -28 X s 303 1065 m -28 X s 303 1137 m -28 X s 331 1208 m -56 X s 303 1280 m -28 X s 303 1351 m -28 X s 303 1423 m -28 X s 331 1495 m -56 X s 303 1566 m -28 X s 303 1638 m -28 X s 303 1709 m
 -28 X s 331 1781 m -56 X s 331 349 m -56 X s 303 278 m -28 X s 303 206 m -28 X s 331 1781 m -56 X s 303 1853 m -28 X s
 gsave  2268 2079 0 0 C 171.797 326.414 t 0 r /Helvetica findfont 65.2827 sf 0 0 m (3.2) show NC gr 
 gsave  2268 2079 0 0 C 171.797 611.596 t 0 r /Helvetica findfont 65.2827 sf 0 0 m (3.4) show NC gr 
 gsave  2268 2079 0 0 C 171.797 900.215 t 0 r /Helvetica findfont 65.2827 sf 0 0 m (3.6) show NC gr 
 gsave  2268 2079 0 0 C 171.797 1185.4 t 0 r /Helvetica findfont 65.2827 sf 0 0 m (3.8) show NC gr 
 gsave  2268 2079 0 0 C 171.797 1470.58 t 0 r /Helvetica findfont 65.2827 sf 0 0 m (4.0) show NC gr 
 gsave  2268 2079 0 0 C 171.797 1755.76 t 0 r /Helvetica findfont 65.2827 sf 0 0 m (4.2) show NC gr  0 0 0.6 c 1 1 1 c 1 0 0 c 382 1604 m20 597 1606 m20 812 1605 m20 1026 1602 m20 1241 1601 m20 1456 1581 m20 1671 1518 m20 1885 1336 m20 1993 206 m
 1718 Y s black 1 0 0 c
 gsave  2268 2079 0 0 C 2226.49 1329.71 t 90 r /Helvetica findfont 103.078 sf 0 0 m (Hit Efficiency) show NC gr  1937 206 m 56 X s 1965 278 m 28 X s 1965 349 m 28 X s 1965 421 m 28 X s 1937 492 m 56 X s 1965 564 m 28 X s 1965 636 m 28 X s 1965 707 m
 28 X s 1937 779 m 56 X s 1965 850 m 28 X s 1965 922 m 28 X s 1965 994 m 28 X s 1937 1065 m 56 X s 1965 1137 m 28 X s 1965 1208 m 28 X s 1965 1280 m 28 X s 1937 1351 m 56 X s 1965 1423 m 28 X s 1965 1495 m 28 X s 1965 1566 m 28 X s 1937 1638 m 56 X s
 1965 1709 m 28 X s 1965 1781 m 28 X s 1965 1853 m 28 X s 1937 1924 m 56 X s black 1 0 0 c
 gsave  2268 2079 0 0 C 2003.15 182.105 t 0 r /Helvetica findfont 65.2827 sf 0 0 m (0.90) show NC gr  black 1 0 0 c
 gsave  2268 2079 0 0 C 2003.15 470.723 t 0 r /Helvetica findfont 65.2827 sf 0 0 m (0.92) show NC gr  black 1 0 0 c
 gsave  2268 2079 0 0 C 2003.15 755.906 t 0 r /Helvetica findfont 65.2827 sf 0 0 m (0.94) show NC gr  black 1 0 0 c
 gsave  2268 2079 0 0 C 2003.15 1041.09 t 0 r /Helvetica findfont 65.2827 sf 0 0 m (0.96) show NC gr  black 1 0 0 c
 gsave  2268 2079 0 0 C 2003.15 1329.71 t 0 r /Helvetica findfont 65.2827 sf 0 0 m (0.98) show NC gr  black 1 0 0 c
 gsave  2268 2079 0 0 C 2003.15 1614.89 t 0 r /Helvetica findfont 65.2827 sf 0 0 m (1.00) show NC gr  black 1 0 0 c
 gsave  2268 2079 0 0 C 2003.15 1900.07 t 0 r /Helvetica findfont 65.2827 sf 0 0 m (1.02) show NC gr  black
 gsave  2268 2079 0 0 C 1027.34 992.985 t 0 r /Helvetica-Bold findfont 96.2062 sf 0 0 m (BPix) show NC gr 
 gsave  2268 2079 0 0 C 274.875 1968.79 t 0 r /Helvetica-Bold findfont 96.2062 sf 0 0 m (CMS preliminary) show NC gr  1 1 1 c black
 gsave  2268 2079 0 0 C 1394.99 1975.66 t 0 r /Helvetica findfont 89.3343 sf 0 0 m (=13 TeV \(50ns\)) show NC gr 
 gsave  2268 2079 0 0 C 1350.32 1975.66 t 0 r /Helvetica findfont 89.3343 sf 0 0 m (s) show NC gr  6 lw 1319 2027 m 11 -55 d s 0 lw 1330 1972 m 10 76 d s 1340 2048 m 55 X s
 gr  gr showpage
end
%%EOF
