%!PS-Adobe-2.0 EPSF-2.0
%%BoundingBox:  0 0 567 493
%%Title: : #sqrt{s}=13 TeV (50ns)
%%Creator: ROOT Version 6.02/10
%%CreationDate: Tue Jul 21 23:40:01 2015
%%EndComments
%%BeginProlog
80 dict begin
/s {stroke} def /l {lineto} def /m {moveto} def /t {translate} def
/r {rotate} def /rl {roll}  def /R {repeat} def
/d {rlineto} def /rm {rmoveto} def /gr {grestore} def /f {eofill} def
/c {setrgbcolor} def /black {0 setgray} def /sd {setdash} def
/cl {closepath} def /sf {scalefont setfont} def /lw {setlinewidth} def
/box {m dup 0 exch d exch 0 d 0 exch neg d cl} def
/NC{systemdict begin initclip end}def/C{NC box clip newpath}def
/bl {box s} def /bf {gsave box gsave f grestore 1 lw [] 0 sd s grestore} def /Y { 0 exch d} def /X { 0 d} def 
/K {{pop pop 0 moveto} exch kshow} bind def
/ita {/ang 15 def gsave [1 0 ang dup sin exch cos div 1 0 0] concat} def 
/mp {newpath /y exch def /x exch def} def
/side {[w .77 mul w .23 mul] .385 w mul sd w 0 l currentpoint t -144 r} def
/mr {mp x y w2 0 360 arc} def /m24 {mr s} def /m20 {mr f} def
/mb {mp x y w2 add m w2 neg 0 d 0 w neg d w 0 d 0 w d cl} def
/mt {mp x y w2 add m w2 neg w neg d w 0 d cl} def
/m21 {mb f} def /m25 {mb s} def /m22 {mt f} def /m26{mt s} def
/m23 {mp x y w2 sub m w2 w d w neg 0 d cl f} def
/m27 {mp x y w2 add m w3 neg w2 neg d w3 w2 neg d w3 w2 d cl s} def
/m28 {mp x w2 sub y w2 sub w3 add m w3 0 d  0 w3 neg d w3 0 d 0 w3 d w3 0 d  0 w3 d w3 neg 0 d 0 w3 d w3 neg 0 d 0 w3 neg d w3 neg 0 d cl s } def
/m29 {mp gsave x w2 sub y w2 add w3 sub m currentpoint t 4 {side} repeat cl fill gr} def
/m30 {mp gsave x w2 sub y w2 add w3 sub m currentpoint t 4 {side} repeat cl s gr} def
/m31 {mp x y w2 sub m 0 w d x w2 sub y m w 0 d x w2 sub y w2 add m w w neg d x w2 sub y w2 sub m w w d s} def
/m32 {mp x y w2 sub m w2 w d w neg 0 d cl s} def
/m33 {mp x y w2 add m w3 neg w2 neg d w3 w2 neg d w3 w2 d cl f} def
/m34 {mp x w2 sub y w2 sub w3 add m w3 0 d  0 w3 neg d w3 0 d 0 w3 d w3 0 d  0 w3 d w3 neg 0 d 0 w3 d w3 neg 0 d 0 w3 neg d w3 neg 0 d cl f } def
/m2 {mp x y w2 sub m 0 w d x w2 sub y m w 0 d s} def
/m5 {mp x w2 sub y w2 sub m w w d x w2 sub y w2 add m w w neg d s} def
/reEncode {exch findfont dup length dict begin {1 index /FID eq  {pop pop} {def} ifelse } forall /Encoding exch def currentdict end dup /FontName get exch definefont pop } def [/Times-Bold /Times-Italic /Times-BoldItalic /Helvetica /Helvetica-Oblique
 /Helvetica-Bold /Helvetica-BoldOblique /Courier /Courier-Oblique /Courier-Bold /Courier-BoldOblique /Times-Roman /AvantGarde-Book /AvantGarde-BookOblique /AvantGarde-Demi /AvantGarde-DemiOblique /Bookman-Demi /Bookman-DemiItalic /Bookman-Light
 /Bookman-LightItalic /Helvetica-Narrow /Helvetica-Narrow-Bold /Helvetica-Narrow-BoldOblique /Helvetica-Narrow-Oblique /NewCenturySchlbk-Roman /NewCenturySchlbk-Bold /NewCenturySchlbk-BoldItalic /NewCenturySchlbk-Italic /Palatino-Bold
 /Palatino-BoldItalic /Palatino-Italic /Palatino-Roman ] {ISOLatin1Encoding reEncode } forall
%%EndProlog
%%BeginSetup
%%EndSetup
newpath  gsave  .25 .25 scale  gsave  0 0 t black[  ] 0 sd 3 lw 1 1 1 c 2268 1972 0 0 bf black 1 1 1 c 1643 1643 230 197 bf black 1643 1643 230 197 bl 1 1 1 c 1643 1643 230 197 bf black 1643 1643 230 197 bl 1 1 1 c 0 0.546666 1 c 23 23 230 197 bf 0
 0.733333 1 c 23 23 253 197 bf 0 1 0.8 c 23 23 276 197 bf 0 1 0.52 c 22 23 299 197 bf 0.6 1 0 c 23 23 321 197 bf 1 0.933333 0 c 23 23 344 197 bf 0 0.546666 1 c 22 23 413 197 bf 0 0.733333 1 c 23 23 435 197 bf 0 1 0.986667 c 23 23 458 197 bf 0 1
 0.0533333 c 23 23 481 197 bf 0.133333 1 0 c 23 23 504 197 bf 1 0 0 c 23 23 527 197 bf 0 0.546666 1 c 23 23 641 197 bf 23 23 664 197 bf 0 1 0.8 c 22 23 687 197 bf 0 1 0.52 c 23 23 709 197 bf 0.413333 1 0 c 23 23 732 197 bf 1 0.933333 0 c 23 23 755
 197 bf 0 0.266667 1 c 23 23 823 197 bf 0 0.733333 1 c 23 23 846 197 bf 0 1 0.986667 c 23 23 869 197 bf 0 1 0.333333 c 23 23 892 197 bf 0.133333 1 0 c 23 23 915 197 bf 1 0.186667 0 c 22 23 938 197 bf 23 23 1143 197 bf 0.133333 1 0 c 23 23 1166 197 bf
 0 1 0.333333 c 22 23 1189 197 bf 0 1 0.986667 c 23 23 1211 197 bf 0 0.733333 1 c 23 23 1234 197 bf 0 0.266667 1 c 23 23 1257 197 bf 1 0.933333 0 c 22 23 1326 197 bf 0.6 1 0 c 23 23 1348 197 bf 0 1 0.52 c 23 23 1371 197 bf 0 1 0.8 c 23 23 1394 197 bf
 0 0.546666 1 c 23 23 1417 197 bf 23 23 1440 197 bf 1 0 0 c 23 23 1554 197 bf 0.413333 1 0 c 22 23 1577 197 bf 0 1 0.0533333 c 23 23 1599 197 bf 0 1 0.8 c 23 23 1622 197 bf 0 1 0.986667 c 23 23 1645 197 bf 0 0.546666 1 c 23 23 1668 197 bf 1 0.653333
 0 c 23 23 1736 197 bf 0.6 1 0 c 23 23 1759 197 bf 0 1 0.52 c 23 23 1782 197 bf 0 1 0.8 c 23 23 1805 197 bf 0 0.733333 1 c 23 23 1828 197 bf 0 0.546666 1 c 22 23 1851 197 bf 23 23 230 220 bf 0 0.733333 1 c 23 23 253 220 bf 0 1 0.8 c 23 23 276 220 bf
 0 1 0.52 c 22 23 299 220 bf 0.6 1 0 c 23 23 321 220 bf 1 0.933333 0 c 23 23 344 220 bf 0 0.546666 1 c 22 23 413 220 bf 0 0.733333 1 c 23 23 435 220 bf 0 1 0.986667 c 23 23 458 220 bf 0 1 0.333333 c 23 23 481 220 bf 0.413333 1 0 c 23 23 504 220 bf 1
 0.186667 0 c 23 23 527 220 bf 0 0.546666 1 c 23 23 641 220 bf 23 23 664 220 bf 0 1 0.986667 c 22 23 687 220 bf 0 1 0.52 c 23 23 709 220 bf 0.6 1 0 c 23 23 732 220 bf 1 0.933333 0 c 23 23 755 220 bf 0 0.266667 1 c 23 23 823 220 bf 0 0.733333 1 c 23
 23 846 220 bf 0 1 0.986667 c 23 23 869 220 bf 0 1 0.333333 c 23 23 892 220 bf 0 1 0.0533333 c 23 23 915 220 bf 1 0 0 c 22 23 938 220 bf 23 23 1143 220 bf 0.133333 1 0 c 23 23 1166 220 bf 0 1 0.333333 c 22 23 1189 220 bf 0 1 0.986667 c 23 23 1211 220
 bf 0 0.733333 1 c 23 23 1234 220 bf 0 0.266667 1 c 23 23 1257 220 bf 1 0.933333 0 c 22 23 1326 220 bf 0.6 1 0 c 23 23 1348 220 bf 0 1 0.52 c 23 23 1371 220 bf 0 1 0.8 c 23 23 1394 220 bf 0 0.546666 1 c 23 23 1417 220 bf 23 23 1440 220 bf 1 0 0 c 23
 23 1554 220 bf 0.413333 1 0 c 22 23 1577 220 bf 0 1 0.0533333 c 23 23 1599 220 bf 0 1 0.986667 c 23 23 1622 220 bf 23 23 1645 220 bf 0 0.546666 1 c 23 23 1668 220 bf 1 0.653333 0 c 23 23 1736 220 bf 0.6 1 0 c 23 23 1759 220 bf 0 1 0.52 c 23 23 1782
 220 bf 0 1 0.8 c 23 23 1805 220 bf 0 0.733333 1 c 23 23 1828 220 bf 0 0.546666 1 c 22 23 1851 220 bf 23 23 230 243 bf 23 23 253 243 bf 0 1 0.8 c 23 23 276 243 bf 0 1 0.52 c 22 23 299 243 bf 0.6 1 0 c 23 23 321 243 bf 1 0.653333 0 c 23 23 344 243 bf
 0 0.546666 1 c 22 23 413 243 bf 0 0.733333 1 c 23 23 435 243 bf 0 1 0.986667 c 23 23 458 243 bf 0 1 0.0533333 c 23 23 481 243 bf 0.413333 1 0 c 23 23 504 243 bf 0 0.546666 1 c 23 23 641 243 bf 23 23 664 243 bf 0 1 0.986667 c 22 23 687 243 bf 0 1
 0.52 c 23 23 709 243 bf 0.413333 1 0 c 23 23 732 243 bf 1 0.933333 0 c 23 23 755 243 bf 0 0.266667 1 c 23 23 823 243 bf 0 0.733333 1 c 23 23 846 243 bf 0 1 0.986667 c 23 23 869 243 bf 0 1 0.333333 c 23 23 892 243 bf 0 1 0.0533333 c 23 23 915 243 bf
 0.133333 1 0 c 23 23 1166 243 bf 0 1 0.333333 c 22 23 1189 243 bf 0 1 0.986667 c 23 23 1211 243 bf 0 0.733333 1 c 23 23 1234 243 bf 0 0.546666 1 c 23 23 1257 243 bf 1 0.653333 0 c 22 23 1326 243 bf 0.6 1 0 c 23 23 1348 243 bf 0 1 0.52 c 23 23 1371
 243 bf 0 1 0.986667 c 23 23 1394 243 bf 0 0.546666 1 c 23 23 1417 243 bf 23 23 1440 243 bf 0.413333 1 0 c 22 23 1577 243 bf 0 1 0.0533333 c 23 23 1599 243 bf 0 1 0.986667 c 23 23 1622 243 bf 0 0.733333 1 c 23 23 1645 243 bf 0 0.546666 1 c 23 23 1668
 243 bf 1 0.653333 0 c 23 23 1736 243 bf 0.6 1 0 c 23 23 1759 243 bf 0 1 0.52 c 23 23 1782 243 bf 0 1 0.8 c 23 23 1805 243 bf 0 0.733333 1 c 23 23 1828 243 bf 0 0.546666 1 c 22 23 1851 243 bf 23 22 230 266 bf 0 0.733333 1 c 23 22 253 266 bf 0 1 0.8 c
 23 22 276 266 bf 0 1 0.52 c 22 22 299 266 bf 0 0.546666 1 c 22 22 413 266 bf 0 0.733333 1 c 23 22 435 266 bf 0 1 0.986667 c 23 22 458 266 bf 0 0.546666 1 c 23 22 641 266 bf 23 22 664 266 bf 0 1 0.8 c 22 22 687 266 bf 0 1 0.52 c 23 22 709 266 bf 0
 0.266667 1 c 23 22 823 266 bf 0 0.733333 1 c 23 22 846 266 bf 0 1 0.986667 c 23 22 869 266 bf 23 22 1211 266 bf 0 0.733333 1 c 23 22 1234 266 bf 0 0.266667 1 c 23 22 1257 266 bf 0 1 0.52 c 23 22 1371 266 bf 0 1 0.8 c 23 22 1394 266 bf 0 0.546666 1 c
 23 22 1417 266 bf 23 22 1440 266 bf 0 1 0.986667 c 23 22 1622 266 bf 0 0.733333 1 c 23 22 1645 266 bf 0 0.546666 1 c 23 22 1668 266 bf 0 1 0.52 c 23 22 1782 266 bf 0 1 0.8 c 23 22 1805 266 bf 0 0.733333 1 c 23 22 1828 266 bf 0 0.546666 1 c 22 22
 1851 266 bf 23 23 230 288 bf 0 0.733333 1 c 23 23 253 288 bf 0 0.546666 1 c 22 23 413 288 bf 23 23 641 288 bf 23 23 664 288 bf 0 0.266667 1 c 23 23 823 288 bf 0 0.546666 1 c 23 23 1257 288 bf 23 23 1417 288 bf 23 23 1440 288 bf 23 23 1668 288 bf 0
 0.733333 1 c 23 23 1828 288 bf 0 0.546666 1 c 22 23 1851 288 bf 23 23 230 334 bf 0 0.733333 1 c 23 23 253 334 bf 0 1 0.8 c 23 23 276 334 bf 0 1 0.52 c 22 23 299 334 bf 0.6 1 0 c 23 23 321 334 bf 1 0.933333 0 c 23 23 344 334 bf 0 0.546666 1 c 22 23
 413 334 bf 0 0.733333 1 c 23 23 435 334 bf 0 1 0.986667 c 23 23 458 334 bf 0 1 0.0533333 c 23 23 481 334 bf 0.413333 1 0 c 23 23 504 334 bf 1 0.186667 0 c 23 23 527 334 bf 0 0.266667 1 c 23 23 641 334 bf 0 0.546666 1 c 23 23 664 334 bf 0 1 0.986667
 c 22 23 687 334 bf 0 1 0.8 c 23 23 709 334 bf 0.413333 1 0 c 23 23 732 334 bf 1 0.933333 0 c 23 23 755 334 bf 0 0.266667 1 c 23 23 823 334 bf 0 0.733333 1 c 23 23 846 334 bf 0 1 0.986667 c 23 23 869 334 bf 0 1 0.333333 c 23 23 892 334 bf 0 1
 0.0533333 c 23 23 915 334 bf 1 0.186667 0 c 22 23 938 334 bf 23 23 1143 334 bf 0.133333 1 0 c 23 23 1166 334 bf 0 1 0.333333 c 22 23 1189 334 bf 0 1 0.986667 c 23 23 1211 334 bf 0 0.733333 1 c 23 23 1234 334 bf 0 0.266667 1 c 23 23 1257 334 bf 1
 0.933333 0 c 22 23 1326 334 bf 0.413333 1 0 c 23 23 1348 334 bf 0 1 0.52 c 23 23 1371 334 bf 0 1 0.8 c 23 23 1394 334 bf 0 0.546666 1 c 23 23 1417 334 bf 23 23 1440 334 bf 1 0 0 c 23 23 1554 334 bf 0.413333 1 0 c 22 23 1577 334 bf 0 1 0.0533333 c 23
 23 1599 334 bf 0 1 0.986667 c 23 23 1622 334 bf 0 0.733333 1 c 23 23 1645 334 bf 0 0.546666 1 c 23 23 1668 334 bf 1 0.653333 0 c 23 23 1736 334 bf 0.6 1 0 c 23 23 1759 334 bf 0 1 0.52 c 23 23 1782 334 bf 0 1 0.8 c 23 23 1805 334 bf 0 0.733333 1 c 23
 23 1828 334 bf 0 0.546666 1 c 22 23 1851 334 bf 23 23 230 357 bf 23 23 253 357 bf 0 1 0.8 c 23 23 276 357 bf 0 1 0.52 c 22 23 299 357 bf 0.6 1 0 c 23 23 321 357 bf 1 0.933333 0 c 23 23 344 357 bf 0 0.546666 1 c 22 23 413 357 bf 0 0.733333 1 c 23 23
 435 357 bf 0 1 0.986667 c 23 23 458 357 bf 0 1 0.0533333 c 23 23 481 357 bf 0.133333 1 0 c 23 23 504 357 bf 1 0 0 c 23 23 527 357 bf 0 0.546666 1 c 23 23 641 357 bf 23 23 664 357 bf 0 1 0.8 c 22 23 687 357 bf 23 23 709 357 bf 0.413333 1 0 c 23 23
 732 357 bf 1 0.933333 0 c 23 23 755 357 bf 0 0.266667 1 c 23 23 823 357 bf 0 0.733333 1 c 23 23 846 357 bf 0 1 0.986667 c 23 23 869 357 bf 0 1 0.333333 c 23 23 892 357 bf 0.133333 1 0 c 23 23 915 357 bf 1 0.186667 0 c 22 23 938 357 bf 1 0 0 c 23 23
 1143 357 bf 0.133333 1 0 c 23 23 1166 357 bf 0 1 0.333333 c 22 23 1189 357 bf 0 1 0.986667 c 23 23 1211 357 bf 0 0.733333 1 c 23 23 1234 357 bf 0 0.266667 1 c 23 23 1257 357 bf 1 0.933333 0 c 22 23 1326 357 bf 0.6 1 0 c 23 23 1348 357 bf 0 1 0.52 c
 23 23 1371 357 bf 0 1 0.8 c 23 23 1394 357 bf 0 0.546666 1 c 23 23 1417 357 bf 23 23 1440 357 bf 1 0 0 c 23 23 1554 357 bf 0.413333 1 0 c 22 23 1577 357 bf 0 1 0.0533333 c 23 23 1599 357 bf 0 1 0.8 c 23 23 1622 357 bf 0 0.733333 1 c 23 23 1645 357
 bf 0 0.546666 1 c 23 23 1668 357 bf 1 0.653333 0 c 23 23 1736 357 bf 0.6 1 0 c 23 23 1759 357 bf 0 1 0.52 c 23 23 1782 357 bf 0 1 0.8 c 23 23 1805 357 bf 0 0.733333 1 c 23 23 1828 357 bf 0 0.546666 1 c 22 23 1851 357 bf 23 23 230 380 bf 23 23 253
 380 bf 0 1 0.8 c 23 23 276 380 bf 0 1 0.52 c 22 23 299 380 bf 0.6 1 0 c 23 23 321 380 bf 1 0.653333 0 c 23 23 344 380 bf 0 0.546666 1 c 22 23 413 380 bf 0 0.733333 1 c 23 23 435 380 bf 0 1 0.986667 c 23 23 458 380 bf 0 1 0.0533333 c 23 23 481 380 bf
 0.133333 1 0 c 23 23 504 380 bf 0 0.546666 1 c 23 23 641 380 bf 23 23 664 380 bf 0 1 0.986667 c 22 23 687 380 bf 0 1 0.52 c 23 23 709 380 bf 0.413333 1 0 c 23 23 732 380 bf 1 0.933333 0 c 23 23 755 380 bf 0 0.266667 1 c 23 23 823 380 bf 0 0.733333 1
 c 23 23 846 380 bf 0 1 0.986667 c 23 23 869 380 bf 0 1 0.333333 c 23 23 892 380 bf 0.133333 1 0 c 23 23 915 380 bf 23 23 1166 380 bf 0 1 0.333333 c 22 23 1189 380 bf 0 1 0.986667 c 23 23 1211 380 bf 0 0.733333 1 c 23 23 1234 380 bf 0 0.546666 1 c 23
 23 1257 380 bf 1 0.933333 0 c 22 23 1326 380 bf 0.6 1 0 c 23 23 1348 380 bf 0 1 0.52 c 23 23 1371 380 bf 0 1 0.8 c 23 23 1394 380 bf 0 0.546666 1 c 23 23 1417 380 bf 23 23 1440 380 bf 0.413333 1 0 c 22 23 1577 380 bf 0 1 0.0533333 c 23 23 1599 380
 bf 0 1 0.986667 c 23 23 1622 380 bf 0 0.733333 1 c 23 23 1645 380 bf 0 0.546666 1 c 23 23 1668 380 bf 1 0.653333 0 c 23 23 1736 380 bf 0.6 1 0 c 23 23 1759 380 bf 0 1 0.52 c 23 23 1782 380 bf 0 1 0.8 c 23 23 1805 380 bf 0 0.733333 1 c 23 23 1828 380
 bf 0 0.546666 1 c 22 23 1851 380 bf 23 22 230 403 bf 0 0.733333 1 c 23 22 253 403 bf 0 1 0.8 c 23 22 276 403 bf 0 1 0.52 c 22 22 299 403 bf 0 0.546666 1 c 22 22 413 403 bf 0 0.733333 1 c 23 22 435 403 bf 0 1 0.986667 c 23 22 458 403 bf 0 0.546666 1
 c 23 22 641 403 bf 23 22 664 403 bf 0 1 0.8 c 22 22 687 403 bf 0 1 0.52 c 23 22 709 403 bf 0 0.266667 1 c 23 22 823 403 bf 0 0.733333 1 c 23 22 846 403 bf 0 1 0.986667 c 23 22 869 403 bf 23 22 1211 403 bf 0 0.733333 1 c 23 22 1234 403 bf 0 0.266667
 1 c 23 22 1257 403 bf 0 1 0.52 c 23 22 1371 403 bf 0 1 0.8 c 23 22 1394 403 bf 0 0.546666 1 c 23 22 1417 403 bf 23 22 1440 403 bf 0 1 0.8 c 23 22 1622 403 bf 0 0.733333 1 c 23 22 1645 403 bf 0 0.546666 1 c 23 22 1668 403 bf 0 1 0.52 c 23 22 1782 403
 bf 0 1 0.8 c 23 22 1805 403 bf 0 0.733333 1 c 23 22 1828 403 bf 0 0.546666 1 c 22 22 1851 403 bf 23 23 230 425 bf 0 0.733333 1 c 23 23 253 425 bf 0 0.546666 1 c 22 23 413 425 bf 23 23 641 425 bf 23 23 664 425 bf 0 0.266667 1 c 23 23 823 425 bf 0
 0.546666 1 c 23 23 1257 425 bf 0 0.733333 1 c 23 23 1417 425 bf 0 0.546666 1 c 23 23 1440 425 bf 23 23 1668 425 bf 0 0.733333 1 c 23 23 1828 425 bf 0 0.546666 1 c 22 23 1851 425 bf 23 23 230 471 bf 23 23 253 471 bf 0 1 0.8 c 23 23 276 471 bf 0 1
 0.52 c 22 23 299 471 bf 0.6 1 0 c 23 23 321 471 bf 1 0.933333 0 c 23 23 344 471 bf 0 0.546666 1 c 22 23 413 471 bf 0 0.733333 1 c 23 23 435 471 bf 0 1 0.986667 c 23 23 458 471 bf 0 1 0.333333 c 23 23 481 471 bf 0.133333 1 0 c 23 23 504 471 bf 1 0 0
 c 23 23 527 471 bf 0 0.546666 1 c 23 23 641 471 bf 23 23 664 471 bf 0 1 0.986667 c 22 23 687 471 bf 0 1 0.8 c 23 23 709 471 bf 0.413333 1 0 c 23 23 732 471 bf 1 0.933333 0 c 23 23 755 471 bf 0 0.266667 1 c 23 23 823 471 bf 0 0.733333 1 c 23 23 846
 471 bf 0 1 0.986667 c 23 23 869 471 bf 0 1 0.333333 c 23 23 892 471 bf 0 1 0.0533333 c 23 23 915 471 bf 1 0.186667 0 c 22 23 938 471 bf 23 23 1143 471 bf 0.133333 1 0 c 23 23 1166 471 bf 0 1 0.333333 c 22 23 1189 471 bf 0 1 0.986667 c 23 23 1211 471
 bf 0 0.733333 1 c 23 23 1234 471 bf 0 0.546666 1 c 23 23 1257 471 bf 1 0.653333 0 c 22 23 1326 471 bf 0.413333 1 0 c 23 23 1348 471 bf 0 1 0.52 c 23 23 1371 471 bf 0 1 0.8 c 23 23 1394 471 bf 0 0.546666 1 c 23 23 1417 471 bf 23 23 1440 471 bf 1 0 0
 c 23 23 1554 471 bf 0.413333 1 0 c 22 23 1577 471 bf 0 1 0.0533333 c 23 23 1599 471 bf 0 1 0.8 c 23 23 1622 471 bf 0 0.733333 1 c 23 23 1645 471 bf 0 0.546666 1 c 23 23 1668 471 bf 1 0.653333 0 c 23 23 1736 471 bf 0.6 1 0 c 23 23 1759 471 bf 0 1
 0.52 c 23 23 1782 471 bf 0 1 0.8 c 23 23 1805 471 bf 0 0.733333 1 c 23 23 1828 471 bf 0 0.546666 1 c 22 23 1851 471 bf 23 23 230 494 bf 0 0.733333 1 c 23 23 253 494 bf 0 1 0.8 c 23 23 276 494 bf 0 1 0.52 c 22 23 299 494 bf 0.413333 1 0 c 23 23 321
 494 bf 1 0.933333 0 c 23 23 344 494 bf 0 0.546666 1 c 22 23 413 494 bf 0 0.733333 1 c 23 23 435 494 bf 0 1 0.986667 c 23 23 458 494 bf 0 1 0.333333 c 23 23 481 494 bf 0.133333 1 0 c 23 23 504 494 bf 1 0.186667 0 c 23 23 527 494 bf 0 0.546666 1 c 23
 23 641 494 bf 23 23 664 494 bf 0 1 0.986667 c 22 23 687 494 bf 0 1 0.8 c 23 23 709 494 bf 0.413333 1 0 c 23 23 732 494 bf 1 0.933333 0 c 23 23 755 494 bf 0 0.266667 1 c 23 23 823 494 bf 0 0.733333 1 c 23 23 846 494 bf 0 1 0.986667 c 23 23 869 494 bf
 0 1 0.333333 c 23 23 892 494 bf 0.133333 1 0 c 23 23 915 494 bf 1 0.186667 0 c 22 23 938 494 bf 23 23 1143 494 bf 0.133333 1 0 c 23 23 1166 494 bf 0 1 0.333333 c 22 23 1189 494 bf 0 1 0.986667 c 23 23 1211 494 bf 0 0.733333 1 c 23 23 1234 494 bf 0
 0.266667 1 c 23 23 1257 494 bf 1 0.933333 0 c 22 23 1326 494 bf 0.413333 1 0 c 23 23 1348 494 bf 0 1 0.52 c 23 23 1371 494 bf 0 1 0.986667 c 23 23 1394 494 bf 0 0.546666 1 c 23 23 1417 494 bf 23 23 1440 494 bf 1 0 0 c 23 23 1554 494 bf 0.413333 1 0
 c 22 23 1577 494 bf 0 1 0.0533333 c 23 23 1599 494 bf 0 1 0.986667 c 23 23 1622 494 bf 0 0.733333 1 c 23 23 1645 494 bf 0 0.546666 1 c 23 23 1668 494 bf 1 0.933333 0 c 23 23 1736 494 bf 0.6 1 0 c 23 23 1759 494 bf 0 1 0.52 c 23 23 1782 494 bf 0 1
 0.8 c 23 23 1805 494 bf 0 0.733333 1 c 23 23 1828 494 bf 0 0.546666 1 c 22 23 1851 494 bf 23 23 230 517 bf 23 23 253 517 bf 0 1 0.8 c 23 23 276 517 bf 0 1 0.52 c 22 23 299 517 bf 0.6 1 0 c 23 23 321 517 bf 1 0.933333 0 c 23 23 344 517 bf 0 0.546666
 1 c 22 23 413 517 bf 0 0.733333 1 c 23 23 435 517 bf 0 1 0.986667 c 23 23 458 517 bf 0 1 0.333333 c 23 23 481 517 bf 0.133333 1 0 c 23 23 504 517 bf 0 0.546666 1 c 23 23 641 517 bf 23 23 664 517 bf 0 1 0.986667 c 22 23 687 517 bf 0 1 0.52 c 23 23
 709 517 bf 0.413333 1 0 c 23 23 732 517 bf 1 0.933333 0 c 23 23 755 517 bf 0 0.266667 1 c 23 23 823 517 bf 0 0.733333 1 c 23 23 846 517 bf 0 1 0.986667 c 23 23 869 517 bf 0 1 0.333333 c 23 23 892 517 bf 0.133333 1 0 c 23 23 915 517 bf 23 23 1166 517
 bf 0 1 0.0533333 c 22 23 1189 517 bf 0 1 0.986667 c 23 23 1211 517 bf 0 0.733333 1 c 23 23 1234 517 bf 0 0.266667 1 c 23 23 1257 517 bf 1 0.933333 0 c 22 23 1326 517 bf 0.6 1 0 c 23 23 1348 517 bf 0 1 0.52 c 23 23 1371 517 bf 0 1 0.8 c 23 23 1394
 517 bf 0 0.546666 1 c 23 23 1417 517 bf 23 23 1440 517 bf 0.413333 1 0 c 22 23 1577 517 bf 0 1 0.0533333 c 23 23 1599 517 bf 0 1 0.986667 c 23 23 1622 517 bf 0 0.733333 1 c 23 23 1645 517 bf 0 0.546666 1 c 23 23 1668 517 bf 1 0.653333 0 c 23 23 1736
 517 bf 0.6 1 0 c 23 23 1759 517 bf 0 1 0.52 c 23 23 1782 517 bf 0 1 0.8 c 23 23 1805 517 bf 0 0.733333 1 c 23 23 1828 517 bf 0 0.546666 1 c 22 23 1851 517 bf 23 22 230 540 bf 0 0.733333 1 c 23 22 253 540 bf 0 1 0.8 c 23 22 276 540 bf 0 1 0.52 c 22
 22 299 540 bf 0 0.546666 1 c 22 22 413 540 bf 0 0.733333 1 c 23 22 435 540 bf 0 1 0.986667 c 23 22 458 540 bf 0 0.546666 1 c 23 22 641 540 bf 23 22 664 540 bf 0 1 0.8 c 22 22 687 540 bf 0 1 0.52 c 23 22 709 540 bf 0 0.266667 1 c 23 22 823 540 bf 0
 0.733333 1 c 23 22 846 540 bf 0 1 0.986667 c 23 22 869 540 bf 23 22 1211 540 bf 0 0.733333 1 c 23 22 1234 540 bf 0 0.266667 1 c 23 22 1257 540 bf 0 1 0.52 c 23 22 1371 540 bf 0 1 0.8 c 23 22 1394 540 bf 0 0.546666 1 c 23 22 1417 540 bf 23 22 1440
 540 bf 0 1 0.8 c 23 22 1622 540 bf 0 1 0.986667 c 23 22 1645 540 bf 0 0.546666 1 c 23 22 1668 540 bf 0 1 0.52 c 23 22 1782 540 bf 0 1 0.8 c 23 22 1805 540 bf 0 0.733333 1 c 23 22 1828 540 bf 0 0.546666 1 c 22 22 1851 540 bf 23 23 230 562 bf 0
 0.733333 1 c 23 23 253 562 bf 0 0.546666 1 c 22 23 413 562 bf 23 23 641 562 bf 23 23 664 562 bf 0 0.266667 1 c 23 23 823 562 bf 23 23 1257 562 bf 0 0.546666 1 c 23 23 1417 562 bf 23 23 1440 562 bf 23 23 1668 562 bf 0 0.733333 1 c 23 23 1828 562 bf 0
 0.546666 1 c 22 23 1851 562 bf 23 23 230 608 bf 0 0.733333 1 c 23 23 253 608 bf 0 1 0.8 c 23 23 276 608 bf 0 1 0.52 c 22 23 299 608 bf 0.6 1 0 c 23 23 321 608 bf 1 0.933333 0 c 23 23 344 608 bf 0 0.546666 1 c 22 23 413 608 bf 0 0.733333 1 c 23 23
 435 608 bf 0 1 0.986667 c 23 23 458 608 bf 0 1 0.333333 c 23 23 481 608 bf 0.133333 1 0 c 23 23 504 608 bf 1 0.186667 0 c 23 23 527 608 bf 0 0.546666 1 c 23 23 641 608 bf 23 23 664 608 bf 0 1 0.986667 c 22 23 687 608 bf 0 1 0.52 c 23 23 709 608 bf
 0.413333 1 0 c 23 23 732 608 bf 0.88 1 0 c 23 23 755 608 bf 0 0.266667 1 c 23 23 823 608 bf 0 0.733333 1 c 23 23 846 608 bf 0 1 0.986667 c 23 23 869 608 bf 0 1 0.333333 c 23 23 892 608 bf 0.133333 1 0 c 23 23 915 608 bf 1 0.186667 0 c 22 23 938 608
 bf 23 23 1143 608 bf 0.133333 1 0 c 23 23 1166 608 bf 0 1 0.333333 c 22 23 1189 608 bf 0 1 0.986667 c 23 23 1211 608 bf 0 0.733333 1 c 23 23 1234 608 bf 0 0.266667 1 c 23 23 1257 608 bf 1 0.933333 0 c 22 23 1326 608 bf 0.413333 1 0 c 23 23 1348 608
 bf 0 1 0.8 c 23 23 1371 608 bf 0 1 0.986667 c 23 23 1394 608 bf 0 0.546666 1 c 23 23 1417 608 bf 23 23 1440 608 bf 1 0.186667 0 c 23 23 1554 608 bf 0.413333 1 0 c 22 23 1577 608 bf 0 1 0.333333 c 23 23 1599 608 bf 0 1 0.986667 c 23 23 1622 608 bf 0
 0.733333 1 c 23 23 1645 608 bf 0 0.546666 1 c 23 23 1668 608 bf 1 0.933333 0 c 23 23 1736 608 bf 0.6 1 0 c 23 23 1759 608 bf 0 1 0.52 c 23 23 1782 608 bf 0 1 0.8 c 23 23 1805 608 bf 0 0.733333 1 c 23 23 1828 608 bf 0 0.546666 1 c 22 23 1851 608 bf
 23 23 230 631 bf 23 23 253 631 bf 0 1 0.8 c 23 23 276 631 bf 0 1 0.52 c 22 23 299 631 bf 0.413333 1 0 c 23 23 321 631 bf 1 0.933333 0 c 23 23 344 631 bf 0 0.546666 1 c 22 23 413 631 bf 0 0.733333 1 c 23 23 435 631 bf 0 1 0.986667 c 23 23 458 631 bf
 0 1 0.333333 c 23 23 481 631 bf 0.133333 1 0 c 23 23 504 631 bf 1 0.186667 0 c 23 23 527 631 bf 0 0.546666 1 c 23 23 641 631 bf 23 23 664 631 bf 0 1 0.986667 c 22 23 687 631 bf 0 1 0.8 c 23 23 709 631 bf 0.413333 1 0 c 23 23 732 631 bf 1 0.933333 0
 c 23 23 755 631 bf 0 0.266667 1 c 23 23 823 631 bf 0 0.733333 1 c 23 23 846 631 bf 0 1 0.986667 c 23 23 869 631 bf 0 1 0.52 c 23 23 892 631 bf 0 1 0.0533333 c 23 23 915 631 bf 1 0.186667 0 c 22 23 938 631 bf 23 23 1143 631 bf 0 1 0.0533333 c 23 23
 1166 631 bf 0 1 0.333333 c 22 23 1189 631 bf 0 1 0.986667 c 23 23 1211 631 bf 0 0.733333 1 c 23 23 1234 631 bf 0 0.266667 1 c 23 23 1257 631 bf 1 0.933333 0 c 22 23 1326 631 bf 0.413333 1 0 c 23 23 1348 631 bf 0 1 0.52 c 23 23 1371 631 bf 0 1
 0.986667 c 23 23 1394 631 bf 0 0.546666 1 c 23 23 1417 631 bf 23 23 1440 631 bf 1 0 0 c 23 23 1554 631 bf 0.133333 1 0 c 22 23 1577 631 bf 0 1 0.333333 c 23 23 1599 631 bf 0 1 0.986667 c 23 23 1622 631 bf 0 0.733333 1 c 23 23 1645 631 bf 0 0.546666
 1 c 23 23 1668 631 bf 1 0.933333 0 c 23 23 1736 631 bf 0.6 1 0 c 23 23 1759 631 bf 0 1 0.52 c 23 23 1782 631 bf 0 1 0.8 c 23 23 1805 631 bf 0 0.733333 1 c 23 23 1828 631 bf 0 0.546666 1 c 22 23 1851 631 bf 23 22 230 654 bf 23 22 253 654 bf 0 1 0.8 c
 23 22 276 654 bf 0 1 0.52 c 22 22 299 654 bf 0.6 1 0 c 23 22 321 654 bf 1 0.933333 0 c 23 22 344 654 bf 0 0.546666 1 c 22 22 413 654 bf 0 0.733333 1 c 23 22 435 654 bf 0 1 0.986667 c 23 22 458 654 bf 0 1 0.333333 c 23 22 481 654 bf 0.133333 1 0 c 23
 22 504 654 bf 0 0.546666 1 c 23 22 641 654 bf 23 22 664 654 bf 0 1 0.986667 c 22 22 687 654 bf 0 1 0.8 c 23 22 709 654 bf 0.133333 1 0 c 23 22 732 654 bf 1 0.933333 0 c 23 22 755 654 bf 0 0.266667 1 c 23 22 823 654 bf 0 0.733333 1 c 23 22 846 654 bf
 0 1 0.986667 c 23 22 869 654 bf 0 1 0.52 c 23 22 892 654 bf 0 1 0.0533333 c 23 22 915 654 bf 23 22 1166 654 bf 0 1 0.333333 c 22 22 1189 654 bf 0 1 0.986667 c 23 22 1211 654 bf 0 0.733333 1 c 23 22 1234 654 bf 0 0.266667 1 c 23 22 1257 654 bf 1
 0.933333 0 c 22 22 1326 654 bf 0.413333 1 0 c 23 22 1348 654 bf 0 1 0.52 c 23 22 1371 654 bf 0 1 0.986667 c 23 22 1394 654 bf 0 0.546666 1 c 23 22 1417 654 bf 23 22 1440 654 bf 0.133333 1 0 c 22 22 1577 654 bf 0 1 0.0533333 c 23 22 1599 654 bf 0 1
 0.986667 c 23 22 1622 654 bf 0 0.733333 1 c 23 22 1645 654 bf 0 0.546666 1 c 23 22 1668 654 bf 1 0.653333 0 c 23 22 1736 654 bf 0.6 1 0 c 23 22 1759 654 bf 0 1 0.52 c 23 22 1782 654 bf 0 1 0.8 c 23 22 1805 654 bf 0 0.733333 1 c 23 22 1828 654 bf 0
 0.546666 1 c 22 22 1851 654 bf 23 23 230 676 bf 23 23 253 676 bf 0 1 0.8 c 23 23 276 676 bf 0 1 0.52 c 22 23 299 676 bf 0 0.546666 1 c 22 23 413 676 bf 0 0.733333 1 c 23 23 435 676 bf 0 1 0.986667 c 23 23 458 676 bf 0 0.546666 1 c 23 23 641 676 bf
 23 23 664 676 bf 0 1 0.986667 c 22 23 687 676 bf 0 1 0.8 c 23 23 709 676 bf 0 0.266667 1 c 23 23 823 676 bf 0 0.733333 1 c 23 23 846 676 bf 0 1 0.986667 c 23 23 869 676 bf 23 23 1211 676 bf 0 0.733333 1 c 23 23 1234 676 bf 0 0.266667 1 c 23 23 1257
 676 bf 0 1 0.8 c 23 23 1371 676 bf 0 1 0.986667 c 23 23 1394 676 bf 0 0.546666 1 c 23 23 1417 676 bf 0 0.266667 1 c 23 23 1440 676 bf 0 1 0.986667 c 23 23 1622 676 bf 0 0.733333 1 c 23 23 1645 676 bf 0 0.546666 1 c 23 23 1668 676 bf 0 1 0.52 c 23 23
 1782 676 bf 0 1 0.8 c 23 23 1805 676 bf 0 0.546666 1 c 23 23 1828 676 bf 22 23 1851 676 bf 23 23 230 699 bf 23 23 253 699 bf 22 23 413 699 bf 23 23 641 699 bf 23 23 664 699 bf 0 0.266667 1 c 23 23 823 699 bf 23 23 1257 699 bf 0 0.546666 1 c 23 23
 1417 699 bf 23 23 1440 699 bf 23 23 1668 699 bf 0 0.733333 1 c 23 23 1828 699 bf 0 0.546666 1 c 22 23 1851 699 bf 23 23 230 745 bf 23 23 253 745 bf 0 1 0.8 c 23 23 276 745 bf 0 1 0.52 c 22 23 299 745 bf 0.413333 1 0 c 23 23 321 745 bf 1 0.933333 0 c
 23 23 344 745 bf 0 0.266667 1 c 22 23 413 745 bf 0 0.733333 1 c 23 23 435 745 bf 0 1 0.986667 c 23 23 458 745 bf 0 1 0.333333 c 23 23 481 745 bf 0.133333 1 0 c 23 23 504 745 bf 1 0.186667 0 c 23 23 527 745 bf 0 0.266667 1 c 23 23 641 745 bf 0
 0.546666 1 c 23 23 664 745 bf 0 1 0.986667 c 22 23 687 745 bf 0 1 0.8 c 23 23 709 745 bf 0.413333 1 0 c 23 23 732 745 bf 1 0.933333 0 c 23 23 755 745 bf 0 0.266667 1 c 23 23 823 745 bf 0 0.733333 1 c 23 23 846 745 bf 0 1 0.986667 c 23 23 869 745 bf
 0 1 0.52 c 23 23 892 745 bf 0 1 0.0533333 c 23 23 915 745 bf 1 0 0 c 22 23 938 745 bf 23 23 1143 745 bf 0.133333 1 0 c 23 23 1166 745 bf 0 1 0.333333 c 22 23 1189 745 bf 0 1 0.986667 c 23 23 1211 745 bf 0 0.733333 1 c 23 23 1234 745 bf 0 0.266667 1
 c 23 23 1257 745 bf 1 0.933333 0 c 22 23 1326 745 bf 0.413333 1 0 c 23 23 1348 745 bf 0 1 0.52 c 23 23 1371 745 bf 0 1 0.986667 c 23 23 1394 745 bf 0 0.546666 1 c 23 23 1417 745 bf 23 23 1440 745 bf 1 0 0 c 23 23 1554 745 bf 0.133333 1 0 c 22 23
 1577 745 bf 0 1 0.333333 c 23 23 1599 745 bf 0 1 0.986667 c 23 23 1622 745 bf 0 0.733333 1 c 23 23 1645 745 bf 0 0.546666 1 c 23 23 1668 745 bf 1 0.933333 0 c 23 23 1736 745 bf 0.6 1 0 c 23 23 1759 745 bf 0 1 0.52 c 23 23 1782 745 bf 0 1 0.8 c 23 23
 1805 745 bf 0 0.546666 1 c 23 23 1828 745 bf 22 23 1851 745 bf 23 23 230 768 bf 23 23 253 768 bf 0 1 0.986667 c 23 23 276 768 bf 0 1 0.52 c 22 23 299 768 bf 0.6 1 0 c 23 23 321 768 bf 1 0.933333 0 c 23 23 344 768 bf 0 0.546666 1 c 22 23 413 768 bf 0
 0.733333 1 c 23 23 435 768 bf 0 1 0.986667 c 23 23 458 768 bf 0 1 0.333333 c 23 23 481 768 bf 0.133333 1 0 c 23 23 504 768 bf 1 0.186667 0 c 23 23 527 768 bf 0 0.266667 1 c 23 23 641 768 bf 0 0.546666 1 c 23 23 664 768 bf 0 1 0.986667 c 22 23 687
 768 bf 0 1 0.52 c 23 23 709 768 bf 0.413333 1 0 c 23 23 732 768 bf 1 0.933333 0 c 23 23 755 768 bf 0 0.266667 1 c 23 23 823 768 bf 0 0.733333 1 c 23 23 846 768 bf 0 1 0.986667 c 23 23 869 768 bf 0 1 0.52 c 23 23 892 768 bf 0 1 0.0533333 c 23 23 915
 768 bf 1 0.466667 0 c 22 23 938 768 bf 1 0.186667 0 c 23 23 1143 768 bf 0 1 0.0533333 c 23 23 1166 768 bf 0 1 0.52 c 22 23 1189 768 bf 0 1 0.986667 c 23 23 1211 768 bf 0 0.733333 1 c 23 23 1234 768 bf 0 0.266667 1 c 23 23 1257 768 bf 1 0.933333 0 c
 22 23 1326 768 bf 0.413333 1 0 c 23 23 1348 768 bf 0 1 0.8 c 23 23 1371 768 bf 0 1 0.986667 c 23 23 1394 768 bf 0 0.546666 1 c 23 23 1417 768 bf 23 23 1440 768 bf 1 0.186667 0 c 23 23 1554 768 bf 0.133333 1 0 c 22 23 1577 768 bf 0 1 0.333333 c 23 23
 1599 768 bf 0 1 0.986667 c 23 23 1622 768 bf 0 0.733333 1 c 23 23 1645 768 bf 0 0.546666 1 c 23 23 1668 768 bf 1 0.653333 0 c 23 23 1736 768 bf 0.6 1 0 c 23 23 1759 768 bf 0 1 0.52 c 23 23 1782 768 bf 0 1 0.8 c 23 23 1805 768 bf 0 0.733333 1 c 23 23
 1828 768 bf 0 0.546666 1 c 22 23 1851 768 bf 23 22 230 791 bf 23 22 253 791 bf 0 1 0.986667 c 23 22 276 791 bf 0 1 0.8 c 22 22 299 791 bf 0.413333 1 0 c 23 22 321 791 bf 1 0.933333 0 c 23 22 344 791 bf 0 0.546666 1 c 22 22 413 791 bf 0 0.733333 1 c
 23 22 435 791 bf 0 1 0.986667 c 23 22 458 791 bf 0 1 0.333333 c 23 22 481 791 bf 0.133333 1 0 c 23 22 504 791 bf 0 0.266667 1 c 23 22 641 791 bf 0 0.546666 1 c 23 22 664 791 bf 0 1 0.986667 c 22 22 687 791 bf 0 1 0.8 c 23 22 709 791 bf 0.413333 1 0
 c 23 22 732 791 bf 0.88 1 0 c 23 22 755 791 bf 0 0.266667 1 c 23 22 823 791 bf 0 0.546666 1 c 23 22 846 791 bf 0 0.733333 1 c 23 22 869 791 bf 0 1 0.52 c 23 22 892 791 bf 0 1 0.0533333 c 23 22 915 791 bf 23 22 1166 791 bf 0 1 0.52 c 22 22 1189 791
 bf 0 0.733333 1 c 23 22 1211 791 bf 0 0.546666 1 c 23 22 1234 791 bf 0 0.266667 1 c 23 22 1257 791 bf 0.88 1 0 c 22 22 1326 791 bf 0.413333 1 0 c 23 22 1348 791 bf 0 1 0.8 c 23 22 1371 791 bf 0 1 0.986667 c 23 22 1394 791 bf 0 0.546666 1 c 23 22
 1417 791 bf 0 0.266667 1 c 23 22 1440 791 bf 0.133333 1 0 c 22 22 1577 791 bf 0 1 0.333333 c 23 22 1599 791 bf 0 1 0.986667 c 23 22 1622 791 bf 0 0.733333 1 c 23 22 1645 791 bf 0 0.546666 1 c 23 22 1668 791 bf 1 0.933333 0 c 23 22 1736 791 bf 0.6 1
 0 c 23 22 1759 791 bf 0 1 0.52 c 23 22 1782 791 bf 0 1 0.8 c 23 22 1805 791 bf 0 0.546666 1 c 23 22 1828 791 bf 22 22 1851 791 bf 23 23 230 813 bf 23 23 253 813 bf 0 1 0.8 c 23 23 276 813 bf 0 1 0.52 c 22 23 299 813 bf 0 0.546666 1 c 22 23 413 813
 bf 0 0.733333 1 c 23 23 435 813 bf 0 1 0.986667 c 23 23 458 813 bf 0 0.266667 1 c 23 23 641 813 bf 0 0.546666 1 c 23 23 664 813 bf 0 1 0.986667 c 22 23 687 813 bf 0 1 0.8 c 23 23 709 813 bf 0 0.266667 1 c 23 23 823 813 bf 0 0.546666 1 c 23 23 846
 813 bf 0 0.733333 1 c 23 23 869 813 bf 23 23 1211 813 bf 0 0.546666 1 c 23 23 1234 813 bf 0 0.266667 1 c 23 23 1257 813 bf 0 1 0.8 c 23 23 1371 813 bf 0 1 0.986667 c 23 23 1394 813 bf 0 0.546666 1 c 23 23 1417 813 bf 23 23 1440 813 bf 0 1 0.986667 c
 23 23 1622 813 bf 0 0.733333 1 c 23 23 1645 813 bf 0 0.546666 1 c 23 23 1668 813 bf 0 1 0.52 c 23 23 1782 813 bf 0 1 0.8 c 23 23 1805 813 bf 0 0.733333 1 c 23 23 1828 813 bf 0 0.546666 1 c 22 23 1851 813 bf 23 23 230 836 bf 23 23 253 836 bf 0
 0.266667 1 c 22 23 413 836 bf 0 0.546666 1 c 23 23 641 836 bf 23 23 664 836 bf 0 0.266667 1 c 23 23 823 836 bf 23 23 1257 836 bf 0 0.546666 1 c 23 23 1417 836 bf 23 23 1440 836 bf 23 23 1668 836 bf 0 0.733333 1 c 23 23 1828 836 bf 0 0.546666 1 c 22
 23 1851 836 bf 23 23 230 882 bf 23 23 253 882 bf 0 1 0.986667 c 23 23 276 882 bf 0 1 0.8 c 22 23 299 882 bf 0.413333 1 0 c 23 23 321 882 bf 1 0.933333 0 c 23 23 344 882 bf 0 0.546666 1 c 22 23 413 882 bf 0 0.733333 1 c 23 23 435 882 bf 0 1 0.986667
 c 23 23 458 882 bf 0 1 0.333333 c 23 23 481 882 bf 0.133333 1 0 c 23 23 504 882 bf 1 0.466667 0 c 23 23 527 882 bf 0 0.266667 1 c 23 23 641 882 bf 0 0.546666 1 c 23 23 664 882 bf 0 1 0.986667 c 22 23 687 882 bf 0 1 0.8 c 23 23 709 882 bf 0.133333 1
 0 c 23 23 732 882 bf 0.6 1 0 c 23 23 755 882 bf 0 0.266667 1 c 23 23 823 882 bf 0 0.546666 1 c 23 23 846 882 bf 0 0.733333 1 c 23 23 869 882 bf 0 1 0.52 c 23 23 892 882 bf 0 1 0.0533333 c 23 23 915 882 bf 1 0.466667 0 c 22 23 938 882 bf 23 23 1143
 882 bf 0 1 0.0533333 c 23 23 1166 882 bf 0 1 0.52 c 22 23 1189 882 bf 0 0.733333 1 c 23 23 1211 882 bf 23 23 1234 882 bf 0 0.266667 1 c 23 23 1257 882 bf 0.88 1 0 c 22 23 1326 882 bf 0.413333 1 0 c 23 23 1348 882 bf 0 1 0.8 c 23 23 1371 882 bf 0 1
 0.986667 c 23 23 1394 882 bf 0 0.546666 1 c 23 23 1417 882 bf 23 23 1440 882 bf 1 0.186667 0 c 23 23 1554 882 bf 0.133333 1 0 c 22 23 1577 882 bf 0 1 0.333333 c 23 23 1599 882 bf 0 1 0.986667 c 23 23 1622 882 bf 0 0.733333 1 c 23 23 1645 882 bf 0
 0.546666 1 c 23 23 1668 882 bf 1 0.933333 0 c 23 23 1736 882 bf 0.6 1 0 c 23 23 1759 882 bf 0 1 0.52 c 23 23 1782 882 bf 0 1 0.8 c 23 23 1805 882 bf 0 0.546666 1 c 23 23 1828 882 bf 22 23 1851 882 bf 23 23 230 905 bf 23 23 253 905 bf 0 1 0.986667 c
 23 23 276 905 bf 0 1 0.8 c 22 23 299 905 bf 0.413333 1 0 c 23 23 321 905 bf 0.88 1 0 c 23 23 344 905 bf 0 0.266667 1 c 22 23 413 905 bf 0 0.733333 1 c 23 23 435 905 bf 0 1 0.986667 c 23 23 458 905 bf 0 1 0.52 c 23 23 481 905 bf 0.133333 1 0 c 23 23
 504 905 bf 1 0.466667 0 c 23 23 527 905 bf 0 0.266667 1 c 23 23 641 905 bf 0 0.546666 1 c 23 23 664 905 bf 0 1 0.986667 c 22 23 687 905 bf 0 1 0.8 c 23 23 709 905 bf 0.133333 1 0 c 23 23 732 905 bf 0.88 1 0 c 23 23 755 905 bf 0 0.266667 1 c 23 23
 823 905 bf 0 0.733333 1 c 23 23 846 905 bf 23 23 869 905 bf 0 1 0.52 c 23 23 892 905 bf 0 1 0.0533333 c 23 23 915 905 bf 1 0.466667 0 c 22 23 938 905 bf 23 23 1143 905 bf 0 1 0.0533333 c 23 23 1166 905 bf 0 1 0.52 c 22 23 1189 905 bf 0 0.733333 1 c
 23 23 1211 905 bf 23 23 1234 905 bf 0 0.266667 1 c 23 23 1257 905 bf 0.88 1 0 c 22 23 1326 905 bf 0.133333 1 0 c 23 23 1348 905 bf 0 1 0.8 c 23 23 1371 905 bf 0 1 0.986667 c 23 23 1394 905 bf 0 0.546666 1 c 23 23 1417 905 bf 0 0.266667 1 c 23 23
 1440 905 bf 1 0.466667 0 c 23 23 1554 905 bf 0.133333 1 0 c 22 23 1577 905 bf 0 1 0.333333 c 23 23 1599 905 bf 0 1 0.986667 c 23 23 1622 905 bf 0 0.733333 1 c 23 23 1645 905 bf 0 0.546666 1 c 23 23 1668 905 bf 1 0.933333 0 c 23 23 1736 905 bf
 0.413333 1 0 c 23 23 1759 905 bf 0 1 0.52 c 23 23 1782 905 bf 0 1 0.986667 c 23 23 1805 905 bf 0 0.546666 1 c 23 23 1828 905 bf 22 23 1851 905 bf 23 22 230 928 bf 23 22 253 928 bf 0 1 0.986667 c 23 22 276 928 bf 0 1 0.8 c 22 22 299 928 bf 0.413333 1
 0 c 23 22 321 928 bf 0.88 1 0 c 23 22 344 928 bf 0 0.266667 1 c 22 22 413 928 bf 0 0.733333 1 c 23 22 435 928 bf 0 1 0.986667 c 23 22 458 928 bf 0 1 0.333333 c 23 22 481 928 bf 0 1 0.0533333 c 23 22 504 928 bf 0 0.266667 1 c 23 22 641 928 bf 0
 0.546666 1 c 23 22 664 928 bf 0 1 0.986667 c 22 22 687 928 bf 0 1 0.8 c 23 22 709 928 bf 0.133333 1 0 c 23 22 732 928 bf 0.6 1 0 c 23 22 755 928 bf 0 0.266667 1 c 23 22 823 928 bf 0 0.733333 1 c 23 22 846 928 bf 23 22 869 928 bf 0 1 0.52 c 23 22 892
 928 bf 0.133333 1 0 c 23 22 915 928 bf 23 22 1166 928 bf 0 1 0.333333 c 22 22 1189 928 bf 0 1 0.986667 c 23 22 1211 928 bf 0 0.733333 1 c 23 22 1234 928 bf 0 0.266667 1 c 23 22 1257 928 bf 0.88 1 0 c 22 22 1326 928 bf 0.413333 1 0 c 23 22 1348 928
 bf 0 1 0.8 c 23 22 1371 928 bf 0 1 0.986667 c 23 22 1394 928 bf 0 0.546666 1 c 23 22 1417 928 bf 0 0.266667 1 c 23 22 1440 928 bf 0.133333 1 0 c 22 22 1577 928 bf 0 1 0.333333 c 23 22 1599 928 bf 0 1 0.986667 c 23 22 1622 928 bf 0 0.733333 1 c 23 22
 1645 928 bf 0 0.546666 1 c 23 22 1668 928 bf 0.88 1 0 c 23 22 1736 928 bf 0.413333 1 0 c 23 22 1759 928 bf 0 1 0.52 c 23 22 1782 928 bf 0 1 0.8 c 23 22 1805 928 bf 0 0.546666 1 c 23 22 1828 928 bf 22 22 1851 928 bf 23 23 230 950 bf 23 23 253 950 bf
 0 1 0.986667 c 23 23 276 950 bf 0 1 0.8 c 22 23 299 950 bf 0 0.266667 1 c 22 23 413 950 bf 0 0.733333 1 c 23 23 435 950 bf 0 1 0.986667 c 23 23 458 950 bf 0 0.266667 1 c 23 23 641 950 bf 0 0.546666 1 c 23 23 664 950 bf 0 1 0.986667 c 22 23 687 950
 bf 0 1 0.8 c 23 23 709 950 bf 0 0.266667 1 c 23 23 823 950 bf 0 0.733333 1 c 23 23 846 950 bf 23 23 869 950 bf 23 23 1211 950 bf 23 23 1234 950 bf 0 0.266667 1 c 23 23 1257 950 bf 0 1 0.8 c 23 23 1371 950 bf 0 1 0.986667 c 23 23 1394 950 bf 0
 0.546666 1 c 23 23 1417 950 bf 0 0.266667 1 c 23 23 1440 950 bf 0 1 0.986667 c 23 23 1622 950 bf 0 0.733333 1 c 23 23 1645 950 bf 0 0.266667 1 c 23 23 1668 950 bf 0 1 0.52 c 23 23 1782 950 bf 0 1 0.8 c 23 23 1805 950 bf 0 0.546666 1 c 23 23 1828 950
 bf 22 23 1851 950 bf 23 23 230 973 bf 23 23 253 973 bf 0 0.266667 1 c 22 23 413 973 bf 23 23 641 973 bf 0 0.546666 1 c 23 23 664 973 bf 0 0.266667 1 c 23 23 823 973 bf 23 23 1257 973 bf 0 0.546666 1 c 23 23 1417 973 bf 0 0.266667 1 c 23 23 1440 973
 bf 0 0.546666 1 c 23 23 1668 973 bf 23 23 1828 973 bf 22 23 1851 973 bf 23 23 230 1019 bf 23 23 253 1019 bf 0 1 0.986667 c 23 23 276 1019 bf 0 1 0.52 c 22 23 299 1019 bf 0.413333 1 0 c 23 23 321 1019 bf 0.88 1 0 c 23 23 344 1019 bf 0 0.266667 1 c 22
 23 413 1019 bf 0 0.733333 1 c 23 23 435 1019 bf 0 1 0.986667 c 23 23 458 1019 bf 0 1 0.333333 c 23 23 481 1019 bf 0.133333 1 0 c 23 23 504 1019 bf 1 0.466667 0 c 23 23 527 1019 bf 0 0.546666 1 c 23 23 641 1019 bf 23 23 664 1019 bf 0 1 0.986667 c 22
 23 687 1019 bf 0 1 0.8 c 23 23 709 1019 bf 0.133333 1 0 c 23 23 732 1019 bf 0.88 1 0 c 23 23 755 1019 bf 0 0.266667 1 c 23 23 823 1019 bf 0 0.733333 1 c 23 23 846 1019 bf 23 23 869 1019 bf 0 1 0.52 c 23 23 892 1019 bf 0 1 0.0533333 c 23 23 915 1019
 bf 1 0.653333 0 c 22 23 938 1019 bf 1 0.466667 0 c 23 23 1143 1019 bf 0 1 0.0533333 c 23 23 1166 1019 bf 0 1 0.333333 c 22 23 1189 1019 bf 0 1 0.986667 c 23 23 1211 1019 bf 0 0.733333 1 c 23 23 1234 1019 bf 0 0.266667 1 c 23 23 1257 1019 bf 0.88 1 0
 c 22 23 1326 1019 bf 0.413333 1 0 c 23 23 1348 1019 bf 0 1 0.52 c 23 23 1371 1019 bf 0 1 0.986667 c 23 23 1394 1019 bf 0 0.546666 1 c 23 23 1417 1019 bf 0 0.266667 1 c 23 23 1440 1019 bf 1 0.466667 0 c 23 23 1554 1019 bf 0.133333 1 0 c 22 23 1577
 1019 bf 0 1 0.333333 c 23 23 1599 1019 bf 0 1 0.986667 c 23 23 1622 1019 bf 0 0.733333 1 c 23 23 1645 1019 bf 0 0.266667 1 c 23 23 1668 1019 bf 0.88 1 0 c 23 23 1736 1019 bf 0.413333 1 0 c 23 23 1759 1019 bf 0 1 0.52 c 23 23 1782 1019 bf 0 1 0.8 c
 23 23 1805 1019 bf 0 0.546666 1 c 23 23 1828 1019 bf 22 23 1851 1019 bf 23 22 230 1042 bf 23 22 253 1042 bf 0 1 0.986667 c 23 22 276 1042 bf 0 1 0.8 c 22 22 299 1042 bf 0.413333 1 0 c 23 22 321 1042 bf 0.88 1 0 c 23 22 344 1042 bf 0 0.266667 1 c 22
 22 413 1042 bf 0 0.733333 1 c 23 22 435 1042 bf 0 1 0.986667 c 23 22 458 1042 bf 0 1 0.333333 c 23 22 481 1042 bf 0 1 0.0533333 c 23 22 504 1042 bf 1 0.653333 0 c 23 22 527 1042 bf 0 0.266667 1 c 23 22 641 1042 bf 0 0.546666 1 c 23 22 664 1042 bf 0
 1 0.986667 c 22 22 687 1042 bf 0 1 0.8 c 23 22 709 1042 bf 0.133333 1 0 c 23 22 732 1042 bf 0.6 1 0 c 23 22 755 1042 bf 0 0.266667 1 c 23 22 823 1042 bf 0 0.546666 1 c 23 22 846 1042 bf 0 0.733333 1 c 23 22 869 1042 bf 0 1 0.52 c 23 22 892 1042 bf 0
 1 0.333333 c 23 22 915 1042 bf 1 0.466667 0 c 22 22 938 1042 bf 23 22 1143 1042 bf 0 1 0.0533333 c 23 22 1166 1042 bf 0 1 0.52 c 22 22 1189 1042 bf 0 0.733333 1 c 23 22 1211 1042 bf 23 22 1234 1042 bf 0 0.266667 1 c 23 22 1257 1042 bf 0.88 1 0 c 22
 22 1326 1042 bf 0.133333 1 0 c 23 22 1348 1042 bf 0 1 0.8 c 23 22 1371 1042 bf 0 1 0.986667 c 23 22 1394 1042 bf 0 0.546666 1 c 23 22 1417 1042 bf 23 22 1440 1042 bf 1 0.466667 0 c 23 22 1554 1042 bf 0.133333 1 0 c 22 22 1577 1042 bf 0 1 0.52 c 23
 22 1599 1042 bf 0 1 0.986667 c 23 22 1622 1042 bf 0 0.733333 1 c 23 22 1645 1042 bf 0 0.546666 1 c 23 22 1668 1042 bf 0.88 1 0 c 23 22 1736 1042 bf 0.413333 1 0 c 23 22 1759 1042 bf 0 1 0.8 c 23 22 1782 1042 bf 0 1 0.986667 c 23 22 1805 1042 bf 0
 0.546666 1 c 23 22 1828 1042 bf 22 22 1851 1042 bf 23 23 230 1064 bf 23 23 253 1064 bf 0 1 0.986667 c 23 23 276 1064 bf 0 1 0.8 c 22 23 299 1064 bf 0.413333 1 0 c 23 23 321 1064 bf 0.88 1 0 c 23 23 344 1064 bf 0 0.546666 1 c 22 23 413 1064 bf 0
 0.733333 1 c 23 23 435 1064 bf 0 1 0.986667 c 23 23 458 1064 bf 0 1 0.52 c 23 23 481 1064 bf 0 1 0.0533333 c 23 23 504 1064 bf 0 0.266667 1 c 23 23 641 1064 bf 0 0.546666 1 c 23 23 664 1064 bf 0 1 0.986667 c 22 23 687 1064 bf 0 1 0.8 c 23 23 709
 1064 bf 0.133333 1 0 c 23 23 732 1064 bf 0.6 1 0 c 23 23 755 1064 bf 0 0.266667 1 c 23 23 823 1064 bf 0 0.546666 1 c 23 23 846 1064 bf 0 0.733333 1 c 23 23 869 1064 bf 0 1 0.52 c 23 23 892 1064 bf 0 1 0.333333 c 23 23 915 1064 bf 23 23 1166 1064 bf
 0 1 0.52 c 22 23 1189 1064 bf 0 0.733333 1 c 23 23 1211 1064 bf 0 0.546666 1 c 23 23 1234 1064 bf 0 0.266667 1 c 23 23 1257 1064 bf 0.88 1 0 c 22 23 1326 1064 bf 0.133333 1 0 c 23 23 1348 1064 bf 0 1 0.8 c 23 23 1371 1064 bf 0 1 0.986667 c 23 23
 1394 1064 bf 0 0.546666 1 c 23 23 1417 1064 bf 23 23 1440 1064 bf 0 1 0.0533333 c 22 23 1577 1064 bf 0 1 0.333333 c 23 23 1599 1064 bf 0 1 0.986667 c 23 23 1622 1064 bf 0 0.733333 1 c 23 23 1645 1064 bf 0 0.546666 1 c 23 23 1668 1064 bf 0.88 1 0 c
 23 23 1736 1064 bf 0.413333 1 0 c 23 23 1759 1064 bf 0 1 0.8 c 23 23 1782 1064 bf 0 1 0.986667 c 23 23 1805 1064 bf 0 0.546666 1 c 23 23 1828 1064 bf 22 23 1851 1064 bf 23 23 230 1087 bf 23 23 253 1087 bf 0 1 0.986667 c 23 23 276 1087 bf 0 1 0.8 c
 22 23 299 1087 bf 0 0.266667 1 c 22 23 413 1087 bf 0 0.733333 1 c 23 23 435 1087 bf 0 1 0.986667 c 23 23 458 1087 bf 0 0.266667 1 c 23 23 641 1087 bf 0 0.546666 1 c 23 23 664 1087 bf 0 1 0.986667 c 22 23 687 1087 bf 0 1 0.8 c 23 23 709 1087 bf 0
 0.266667 1 c 23 23 823 1087 bf 0 0.546666 1 c 23 23 846 1087 bf 0 0.733333 1 c 23 23 869 1087 bf 23 23 1211 1087 bf 0 0.546666 1 c 23 23 1234 1087 bf 0 0.266667 1 c 23 23 1257 1087 bf 0 1 0.8 c 23 23 1371 1087 bf 0 1 0.986667 c 23 23 1394 1087 bf 0
 0.546666 1 c 23 23 1417 1087 bf 0 0.266667 1 c 23 23 1440 1087 bf 0 1 0.986667 c 23 23 1622 1087 bf 0 0.733333 1 c 23 23 1645 1087 bf 0 0.546666 1 c 23 23 1668 1087 bf 0 1 0.8 c 23 23 1782 1087 bf 0 1 0.986667 c 23 23 1805 1087 bf 0 0.546666 1 c 23
 23 1828 1087 bf 22 23 1851 1087 bf 23 23 230 1110 bf 23 23 253 1110 bf 0 0.266667 1 c 22 23 413 1110 bf 23 23 641 1110 bf 0 0.546666 1 c 23 23 664 1110 bf 0 0.266667 1 c 23 23 823 1110 bf 23 23 1257 1110 bf 0 0.546666 1 c 23 23 1417 1110 bf 23 23
 1440 1110 bf 0 0.266667 1 c 23 23 1668 1110 bf 0 0.546666 1 c 23 23 1828 1110 bf 22 23 1851 1110 bf 23 23 230 1156 bf 23 23 253 1156 bf 0 1 0.986667 c 23 23 276 1156 bf 0 1 0.8 c 22 23 299 1156 bf 0.413333 1 0 c 23 23 321 1156 bf 0.88 1 0 c 23 23
 344 1156 bf 0 0.266667 1 c 22 23 413 1156 bf 0 0.733333 1 c 23 23 435 1156 bf 23 23 458 1156 bf 0 1 0.52 c 23 23 481 1156 bf 0 1 0.0533333 c 23 23 504 1156 bf 1 0.466667 0 c 23 23 527 1156 bf 0 0.266667 1 c 23 23 641 1156 bf 0 0.546666 1 c 23 23 664
 1156 bf 0 1 0.986667 c 22 23 687 1156 bf 0 1 0.8 c 23 23 709 1156 bf 0 1 0.0533333 c 23 23 732 1156 bf 0.6 1 0 c 23 23 755 1156 bf 0 0.266667 1 c 23 23 823 1156 bf 0 0.546666 1 c 23 23 846 1156 bf 0 0.733333 1 c 23 23 869 1156 bf 0 1 0.52 c 23 23
 892 1156 bf 0 1 0.333333 c 23 23 915 1156 bf 1 0.466667 0 c 22 23 938 1156 bf 23 23 1143 1156 bf 0 1 0.333333 c 23 23 1166 1156 bf 0 1 0.52 c 22 23 1189 1156 bf 0 0.733333 1 c 23 23 1211 1156 bf 0 0.546666 1 c 23 23 1234 1156 bf 0 0.266667 1 c 23 23
 1257 1156 bf 0.6 1 0 c 22 23 1326 1156 bf 0.133333 1 0 c 23 23 1348 1156 bf 0 1 0.8 c 23 23 1371 1156 bf 0 1 0.986667 c 23 23 1394 1156 bf 0 0.546666 1 c 23 23 1417 1156 bf 0 0.266667 1 c 23 23 1440 1156 bf 1 0.466667 0 c 23 23 1554 1156 bf 0 1
 0.0533333 c 22 23 1577 1156 bf 0 1 0.52 c 23 23 1599 1156 bf 0 1 0.986667 c 23 23 1622 1156 bf 0 0.733333 1 c 23 23 1645 1156 bf 0 0.266667 1 c 23 23 1668 1156 bf 0.88 1 0 c 23 23 1736 1156 bf 0.413333 1 0 c 23 23 1759 1156 bf 0 1 0.8 c 23 23 1782
 1156 bf 0 1 0.986667 c 23 23 1805 1156 bf 0 0.546666 1 c 23 23 1828 1156 bf 22 23 1851 1156 bf 23 22 230 1179 bf 23 22 253 1179 bf 0 1 0.986667 c 23 22 276 1179 bf 0 1 0.8 c 22 22 299 1179 bf 0.133333 1 0 c 23 22 321 1179 bf 0.88 1 0 c 23 22 344
 1179 bf 0 0.266667 1 c 22 22 413 1179 bf 0 0.733333 1 c 23 22 435 1179 bf 23 22 458 1179 bf 0 1 0.333333 c 23 22 481 1179 bf 0 1 0.0533333 c 23 22 504 1179 bf 1 0.653333 0 c 23 22 527 1179 bf 0 0.266667 1 c 23 22 641 1179 bf 0 0.546666 1 c 23 22 664
 1179 bf 0 1 0.986667 c 22 22 687 1179 bf 0 1 0.8 c 23 22 709 1179 bf 0.133333 1 0 c 23 22 732 1179 bf 0.6 1 0 c 23 22 755 1179 bf 0 0.266667 1 c 23 22 823 1179 bf 0 0.546666 1 c 23 22 846 1179 bf 0 0.733333 1 c 23 22 869 1179 bf 0 1 0.52 c 23 22 892
 1179 bf 0 1 0.333333 c 23 22 915 1179 bf 1 0.653333 0 c 22 22 938 1179 bf 23 22 1143 1179 bf 0 1 0.333333 c 23 22 1166 1179 bf 0 1 0.52 c 22 22 1189 1179 bf 0 0.733333 1 c 23 22 1211 1179 bf 0 0.546666 1 c 23 22 1234 1179 bf 0 0.266667 1 c 23 22
 1257 1179 bf 0.88 1 0 c 22 22 1326 1179 bf 0.133333 1 0 c 23 22 1348 1179 bf 0 1 0.8 c 23 22 1371 1179 bf 0 1 0.986667 c 23 22 1394 1179 bf 0 0.546666 1 c 23 22 1417 1179 bf 0 0.266667 1 c 23 22 1440 1179 bf 1 0.653333 0 c 23 22 1554 1179 bf 0 1
 0.0533333 c 22 22 1577 1179 bf 0 1 0.333333 c 23 22 1599 1179 bf 0 1 0.986667 c 23 22 1622 1179 bf 0 0.733333 1 c 23 22 1645 1179 bf 0 0.546666 1 c 23 22 1668 1179 bf 0.88 1 0 c 23 22 1736 1179 bf 0.413333 1 0 c 23 22 1759 1179 bf 0 1 0.8 c 23 22
 1782 1179 bf 0 1 0.986667 c 23 22 1805 1179 bf 0 0.546666 1 c 23 22 1828 1179 bf 22 22 1851 1179 bf 23 23 230 1201 bf 23 23 253 1201 bf 0 1 0.986667 c 23 23 276 1201 bf 0 1 0.8 c 22 23 299 1201 bf 0.133333 1 0 c 23 23 321 1201 bf 0.88 1 0 c 23 23
 344 1201 bf 0 0.266667 1 c 22 23 413 1201 bf 0 0.733333 1 c 23 23 435 1201 bf 0 1 0.986667 c 23 23 458 1201 bf 0 1 0.52 c 23 23 481 1201 bf 0 1 0.0533333 c 23 23 504 1201 bf 0 0.266667 1 c 23 23 641 1201 bf 0 0.546666 1 c 23 23 664 1201 bf 0 1
 0.986667 c 22 23 687 1201 bf 0 1 0.8 c 23 23 709 1201 bf 0.133333 1 0 c 23 23 732 1201 bf 0.6 1 0 c 23 23 755 1201 bf 0 0.266667 1 c 23 23 823 1201 bf 0 0.546666 1 c 23 23 846 1201 bf 0 0.733333 1 c 23 23 869 1201 bf 0 1 0.52 c 23 23 892 1201 bf 0 1
 0.333333 c 23 23 915 1201 bf 23 23 1166 1201 bf 0 1 0.52 c 22 23 1189 1201 bf 0 0.733333 1 c 23 23 1211 1201 bf 0 0.546666 1 c 23 23 1234 1201 bf 0 0.266667 1 c 23 23 1257 1201 bf 0.6 1 0 c 22 23 1326 1201 bf 0.133333 1 0 c 23 23 1348 1201 bf 0 1
 0.8 c 23 23 1371 1201 bf 0 1 0.986667 c 23 23 1394 1201 bf 0 0.546666 1 c 23 23 1417 1201 bf 0 0.266667 1 c 23 23 1440 1201 bf 0 1 0.0533333 c 22 23 1577 1201 bf 0 1 0.52 c 23 23 1599 1201 bf 0 1 0.986667 c 23 23 1622 1201 bf 0 0.733333 1 c 23 23
 1645 1201 bf 0 0.266667 1 c 23 23 1668 1201 bf 0.88 1 0 c 23 23 1736 1201 bf 0.133333 1 0 c 23 23 1759 1201 bf 0 1 0.8 c 23 23 1782 1201 bf 0 1 0.986667 c 23 23 1805 1201 bf 0 0.546666 1 c 23 23 1828 1201 bf 22 23 1851 1201 bf 23 23 230 1224 bf 23
 23 253 1224 bf 0 1 0.986667 c 23 23 276 1224 bf 0 1 0.8 c 22 23 299 1224 bf 0 0.266667 1 c 22 23 413 1224 bf 0 0.733333 1 c 23 23 435 1224 bf 0 1 0.986667 c 23 23 458 1224 bf 0 0.266667 1 c 23 23 641 1224 bf 0 0.546666 1 c 23 23 664 1224 bf 0 1
 0.986667 c 22 23 687 1224 bf 0 1 0.8 c 23 23 709 1224 bf 0 0.266667 1 c 23 23 823 1224 bf 0 0.546666 1 c 23 23 846 1224 bf 0 0.733333 1 c 23 23 869 1224 bf 23 23 1211 1224 bf 0 0.546666 1 c 23 23 1234 1224 bf 0 0.266667 1 c 23 23 1257 1224 bf 0 1
 0.8 c 23 23 1371 1224 bf 0 1 0.986667 c 23 23 1394 1224 bf 0 0.546666 1 c 23 23 1417 1224 bf 0 0.266667 1 c 23 23 1440 1224 bf 0 1 0.986667 c 23 23 1622 1224 bf 0 0.733333 1 c 23 23 1645 1224 bf 0 0.546666 1 c 23 23 1668 1224 bf 0 1 0.8 c 23 23 1782
 1224 bf 0 1 0.986667 c 23 23 1805 1224 bf 0 0.546666 1 c 23 23 1828 1224 bf 22 23 1851 1224 bf 23 23 230 1247 bf 23 23 253 1247 bf 0 0.266667 1 c 22 23 413 1247 bf 23 23 641 1247 bf 0 0.546666 1 c 23 23 664 1247 bf 0 0.266667 1 c 23 23 823 1247 bf
 23 23 1257 1247 bf 0 0.546666 1 c 23 23 1417 1247 bf 0 0.266667 1 c 23 23 1440 1247 bf 23 23 1668 1247 bf 0 0.546666 1 c 23 23 1828 1247 bf 22 23 1851 1247 bf 23 23 230 1293 bf 23 23 253 1293 bf 0 1 0.986667 c 23 23 276 1293 bf 0 1 0.8 c 22 23 299
 1293 bf 0.133333 1 0 c 23 23 321 1293 bf 0.6 1 0 c 23 23 344 1293 bf 0 0.266667 1 c 22 23 413 1293 bf 0 0.733333 1 c 23 23 435 1293 bf 0 1 0.986667 c 23 23 458 1293 bf 0 1 0.52 c 23 23 481 1293 bf 0 1 0.0533333 c 23 23 504 1293 bf 1 0.933333 0 c 23
 23 527 1293 bf 0 0.266667 1 c 23 23 641 1293 bf 0 0.546666 1 c 23 23 664 1293 bf 0 1 0.986667 c 22 23 687 1293 bf 0 1 0.8 c 23 23 709 1293 bf 0 1 0.0533333 c 23 23 732 1293 bf 0.6 1 0 c 23 23 755 1293 bf 0 0.266667 1 c 23 23 823 1293 bf 0 0.546666 1
 c 23 23 846 1293 bf 0 0.733333 1 c 23 23 869 1293 bf 0 1 0.52 c 23 23 892 1293 bf 0 1 0.333333 c 23 23 915 1293 bf 1 0.933333 0 c 22 23 938 1293 bf 1 0.653333 0 c 23 23 1143 1293 bf 0 1 0.333333 c 23 23 1166 1293 bf 0 1 0.52 c 22 23 1189 1293 bf 0
 0.733333 1 c 23 23 1211 1293 bf 0 0.546666 1 c 23 23 1234 1293 bf 0 0.266667 1 c 23 23 1257 1293 bf 0.6 1 0 c 22 23 1326 1293 bf 0 1 0.0533333 c 23 23 1348 1293 bf 0 1 0.8 c 23 23 1371 1293 bf 0 1 0.986667 c 23 23 1394 1293 bf 0 0.546666 1 c 23 23
 1417 1293 bf 0 0.266667 1 c 23 23 1440 1293 bf 1 0.653333 0 c 23 23 1554 1293 bf 0 1 0.0533333 c 22 23 1577 1293 bf 0 1 0.52 c 23 23 1599 1293 bf 0 1 0.986667 c 23 23 1622 1293 bf 0 0.733333 1 c 23 23 1645 1293 bf 0 0.266667 1 c 23 23 1668 1293 bf
 0.88 1 0 c 23 23 1736 1293 bf 0.133333 1 0 c 23 23 1759 1293 bf 0 1 0.8 c 23 23 1782 1293 bf 0 1 0.986667 c 23 23 1805 1293 bf 0 0.546666 1 c 23 23 1828 1293 bf 22 23 1851 1293 bf 23 22 230 1316 bf 23 22 253 1316 bf 0 1 0.986667 c 23 22 276 1316 bf
 0 1 0.8 c 22 22 299 1316 bf 0.133333 1 0 c 23 22 321 1316 bf 0.6 1 0 c 23 22 344 1316 bf 0 0.266667 1 c 22 22 413 1316 bf 0 0.733333 1 c 23 22 435 1316 bf 23 22 458 1316 bf 0 1 0.52 c 23 22 481 1316 bf 0 1 0.0533333 c 23 22 504 1316 bf 1 0.933333 0
 c 23 22 527 1316 bf 0 0.266667 1 c 23 22 641 1316 bf 0 0.546666 1 c 23 22 664 1316 bf 0 1 0.986667 c 22 22 687 1316 bf 0 1 0.8 c 23 22 709 1316 bf 0 1 0.0533333 c 23 22 732 1316 bf 0.6 1 0 c 23 22 755 1316 bf 0 0.266667 1 c 23 22 823 1316 bf 0
 0.733333 1 c 23 22 846 1316 bf 23 22 869 1316 bf 0 1 0.52 c 23 22 892 1316 bf 0 1 0.333333 c 23 22 915 1316 bf 1 0.933333 0 c 22 22 938 1316 bf 23 22 1143 1316 bf 0 1 0.333333 c 23 22 1166 1316 bf 0 1 0.52 c 22 22 1189 1316 bf 0 0.733333 1 c 23 22
 1211 1316 bf 23 22 1234 1316 bf 0 0.266667 1 c 23 22 1257 1316 bf 0.6 1 0 c 22 22 1326 1316 bf 0 1 0.0533333 c 23 22 1348 1316 bf 0 1 0.8 c 23 22 1371 1316 bf 0 1 0.986667 c 23 22 1394 1316 bf 0 0.546666 1 c 23 22 1417 1316 bf 0 0.266667 1 c 23 22
 1440 1316 bf 1 0.933333 0 c 23 22 1554 1316 bf 0 1 0.0533333 c 22 22 1577 1316 bf 0 1 0.52 c 23 22 1599 1316 bf 0 1 0.986667 c 23 22 1622 1316 bf 0 0.733333 1 c 23 22 1645 1316 bf 0 0.266667 1 c 23 22 1668 1316 bf 0.6 1 0 c 23 22 1736 1316 bf
 0.133333 1 0 c 23 22 1759 1316 bf 0 1 0.8 c 23 22 1782 1316 bf 0 1 0.986667 c 23 22 1805 1316 bf 0 0.546666 1 c 23 22 1828 1316 bf 22 22 1851 1316 bf 23 23 230 1338 bf 23 23 253 1338 bf 0 1 0.986667 c 23 23 276 1338 bf 0 1 0.8 c 22 23 299 1338 bf
 0.133333 1 0 c 23 23 321 1338 bf 0.6 1 0 c 23 23 344 1338 bf 0 0.266667 1 c 22 23 413 1338 bf 0 0.733333 1 c 23 23 435 1338 bf 23 23 458 1338 bf 0 1 0.52 c 23 23 481 1338 bf 0 1 0.0533333 c 23 23 504 1338 bf 0 0.266667 1 c 23 23 641 1338 bf 0
 0.546666 1 c 23 23 664 1338 bf 0 1 0.986667 c 22 23 687 1338 bf 0 1 0.8 c 23 23 709 1338 bf 0 1 0.0533333 c 23 23 732 1338 bf 0.413333 1 0 c 23 23 755 1338 bf 0 0.266667 1 c 23 23 823 1338 bf 0 0.546666 1 c 23 23 846 1338 bf 0 0.733333 1 c 23 23 869
 1338 bf 0 1 0.52 c 23 23 892 1338 bf 0 1 0.0533333 c 23 23 915 1338 bf 23 23 1166 1338 bf 0 1 0.52 c 22 23 1189 1338 bf 0 0.733333 1 c 23 23 1211 1338 bf 0 0.546666 1 c 23 23 1234 1338 bf 0 0.266667 1 c 23 23 1257 1338 bf 0.6 1 0 c 22 23 1326 1338
 bf 0.133333 1 0 c 23 23 1348 1338 bf 0 1 0.8 c 23 23 1371 1338 bf 0 1 0.986667 c 23 23 1394 1338 bf 0 0.546666 1 c 23 23 1417 1338 bf 0 0.266667 1 c 23 23 1440 1338 bf 0 1 0.0533333 c 22 23 1577 1338 bf 0 1 0.52 c 23 23 1599 1338 bf 0 0.733333 1 c
 23 23 1622 1338 bf 23 23 1645 1338 bf 0 0.266667 1 c 23 23 1668 1338 bf 0.6 1 0 c 23 23 1736 1338 bf 0.133333 1 0 c 23 23 1759 1338 bf 0 1 0.8 c 23 23 1782 1338 bf 0 1 0.986667 c 23 23 1805 1338 bf 0 0.546666 1 c 23 23 1828 1338 bf 22 23 1851 1338
 bf 23 23 230 1361 bf 23 23 253 1361 bf 0 1 0.986667 c 23 23 276 1361 bf 0 1 0.8 c 22 23 299 1361 bf 0 0.266667 1 c 22 23 413 1361 bf 0 0.733333 1 c 23 23 435 1361 bf 23 23 458 1361 bf 0 0.266667 1 c 23 23 641 1361 bf 0 0.546666 1 c 23 23 664 1361 bf
 0 1 0.986667 c 22 23 687 1361 bf 0 1 0.8 c 23 23 709 1361 bf 0 0.266667 1 c 23 23 823 1361 bf 0 0.546666 1 c 23 23 846 1361 bf 0 0.733333 1 c 23 23 869 1361 bf 23 23 1211 1361 bf 0 0.546666 1 c 23 23 1234 1361 bf 0 0.266667 1 c 23 23 1257 1361 bf 0
 1 0.8 c 23 23 1371 1361 bf 0 1 0.986667 c 23 23 1394 1361 bf 0 0.546666 1 c 23 23 1417 1361 bf 0 0.266667 1 c 23 23 1440 1361 bf 0 1 0.986667 c 23 23 1622 1361 bf 0 0.733333 1 c 23 23 1645 1361 bf 0 0.266667 1 c 23 23 1668 1361 bf 0 1 0.8 c 23 23
 1782 1361 bf 0 1 0.986667 c 23 23 1805 1361 bf 0 0.546666 1 c 23 23 1828 1361 bf 22 23 1851 1361 bf 23 23 230 1384 bf 23 23 253 1384 bf 0 0.266667 1 c 22 23 413 1384 bf 23 23 641 1384 bf 0 0.546666 1 c 23 23 664 1384 bf 0 0.266667 1 c 23 23 823 1384
 bf 23 23 1257 1384 bf 0 0.546666 1 c 23 23 1417 1384 bf 0 0.266667 1 c 23 23 1440 1384 bf 23 23 1668 1384 bf 0 0.546666 1 c 23 23 1828 1384 bf 22 23 1851 1384 bf 23 22 230 1430 bf 23 22 253 1430 bf 0 1 0.986667 c 23 22 276 1430 bf 0 1 0.8 c 22 22
 299 1430 bf 0 1 0.0533333 c 23 22 321 1430 bf 0.6 1 0 c 23 22 344 1430 bf 0 0.266667 1 c 22 22 413 1430 bf 0 0.733333 1 c 23 22 435 1430 bf 0 1 0.986667 c 23 22 458 1430 bf 0 1 0.52 c 23 22 481 1430 bf 0 1 0.0533333 c 23 22 504 1430 bf 1 0.933333 0
 c 23 22 527 1430 bf 0 0.266667 1 c 23 22 641 1430 bf 23 22 664 1430 bf 0 1 0.986667 c 22 22 687 1430 bf 0 1 0.8 c 23 22 709 1430 bf 0 1 0.0533333 c 23 22 732 1430 bf 0.413333 1 0 c 23 22 755 1430 bf 0 0.266667 1 c 23 22 823 1430 bf 0 0.546666 1 c 23
 22 846 1430 bf 0 0.733333 1 c 23 22 869 1430 bf 0 1 0.52 c 23 22 892 1430 bf 0 1 0.333333 c 23 22 915 1430 bf 1 0.933333 0 c 22 22 938 1430 bf 23 22 1143 1430 bf 0 1 0.333333 c 23 22 1166 1430 bf 0 1 0.52 c 22 22 1189 1430 bf 0 0.733333 1 c 23 22
 1211 1430 bf 0 0.546666 1 c 23 22 1234 1430 bf 0 0.266667 1 c 23 22 1257 1430 bf 0.6 1 0 c 22 22 1326 1430 bf 0 1 0.0533333 c 23 22 1348 1430 bf 0 1 0.8 c 23 22 1371 1430 bf 0 1 0.986667 c 23 22 1394 1430 bf 0 0.546666 1 c 23 22 1417 1430 bf 0
 0.266667 1 c 23 22 1440 1430 bf 1 0.933333 0 c 23 22 1554 1430 bf 0 1 0.0533333 c 22 22 1577 1430 bf 0 1 0.52 c 23 22 1599 1430 bf 0 1 0.986667 c 23 22 1622 1430 bf 0 0.733333 1 c 23 22 1645 1430 bf 0 0.266667 1 c 23 22 1668 1430 bf 0.6 1 0 c 23 22
 1736 1430 bf 0.133333 1 0 c 23 22 1759 1430 bf 0 1 0.8 c 23 22 1782 1430 bf 0 1 0.986667 c 23 22 1805 1430 bf 0 0.546666 1 c 23 22 1828 1430 bf 22 22 1851 1430 bf 23 23 230 1452 bf 23 23 253 1452 bf 0 1 0.986667 c 23 23 276 1452 bf 0 1 0.8 c 22 23
 299 1452 bf 0 1 0.0533333 c 23 23 321 1452 bf 0.6 1 0 c 23 23 344 1452 bf 0 0.266667 1 c 22 23 413 1452 bf 0 0.733333 1 c 23 23 435 1452 bf 23 23 458 1452 bf 0 1 0.52 c 23 23 481 1452 bf 0 1 0.333333 c 23 23 504 1452 bf 1 0.933333 0 c 23 23 527 1452
 bf 0 0.266667 1 c 23 23 641 1452 bf 23 23 664 1452 bf 0 0.733333 1 c 22 23 687 1452 bf 0 1 0.8 c 23 23 709 1452 bf 0 1 0.0533333 c 23 23 732 1452 bf 0.413333 1 0 c 23 23 755 1452 bf 0 0.266667 1 c 23 23 823 1452 bf 0 0.546666 1 c 23 23 846 1452 bf 0
 0.733333 1 c 23 23 869 1452 bf 0 1 0.52 c 23 23 892 1452 bf 0 1 0.333333 c 23 23 915 1452 bf 1 0.933333 0 c 22 23 938 1452 bf 23 23 1143 1452 bf 0 1 0.333333 c 23 23 1166 1452 bf 0 1 0.52 c 22 23 1189 1452 bf 0 0.733333 1 c 23 23 1211 1452 bf 0
 0.546666 1 c 23 23 1234 1452 bf 0 0.266667 1 c 23 23 1257 1452 bf 0.413333 1 0 c 22 23 1326 1452 bf 0 1 0.0533333 c 23 23 1348 1452 bf 0 1 0.8 c 23 23 1371 1452 bf 0 1 0.986667 c 23 23 1394 1452 bf 0 0.546666 1 c 23 23 1417 1452 bf 0 0.266667 1 c 23
 23 1440 1452 bf 1 0.933333 0 c 23 23 1554 1452 bf 0 1 0.0533333 c 22 23 1577 1452 bf 0 1 0.52 c 23 23 1599 1452 bf 0 0.733333 1 c 23 23 1622 1452 bf 23 23 1645 1452 bf 0 0.266667 1 c 23 23 1668 1452 bf 0.6 1 0 c 23 23 1736 1452 bf 0.133333 1 0 c 23
 23 1759 1452 bf 0 1 0.8 c 23 23 1782 1452 bf 0 1 0.986667 c 23 23 1805 1452 bf 0 0.546666 1 c 23 23 1828 1452 bf 0 0.266667 1 c 22 23 1851 1452 bf 23 23 230 1475 bf 0 0.546666 1 c 23 23 253 1475 bf 0 1 0.986667 c 23 23 276 1475 bf 0 1 0.8 c 22 23
 299 1475 bf 0.133333 1 0 c 23 23 321 1475 bf 0.6 1 0 c 23 23 344 1475 bf 0 0.266667 1 c 22 23 413 1475 bf 0 0.733333 1 c 23 23 435 1475 bf 23 23 458 1475 bf 0 1 0.52 c 23 23 481 1475 bf 0 1 0.333333 c 23 23 504 1475 bf 0 0.266667 1 c 23 23 641 1475
 bf 0 0.546666 1 c 23 23 664 1475 bf 0 0.733333 1 c 22 23 687 1475 bf 0 1 0.8 c 23 23 709 1475 bf 0 1 0.0533333 c 23 23 732 1475 bf 0.413333 1 0 c 23 23 755 1475 bf 0 0.266667 1 c 23 23 823 1475 bf 0 0.546666 1 c 23 23 846 1475 bf 0 0.733333 1 c 23
 23 869 1475 bf 0 1 0.52 c 23 23 892 1475 bf 0 1 0.333333 c 23 23 915 1475 bf 23 23 1166 1475 bf 0 1 0.52 c 22 23 1189 1475 bf 0 0.733333 1 c 23 23 1211 1475 bf 0 0.546666 1 c 23 23 1234 1475 bf 0 0.266667 1 c 23 23 1257 1475 bf 0.6 1 0 c 22 23 1326
 1475 bf 0 1 0.0533333 c 23 23 1348 1475 bf 0 1 0.8 c 23 23 1371 1475 bf 0 0.733333 1 c 23 23 1394 1475 bf 0 0.546666 1 c 23 23 1417 1475 bf 0 0.266667 1 c 23 23 1440 1475 bf 0 1 0.0533333 c 22 23 1577 1475 bf 0 1 0.52 c 23 23 1599 1475 bf 0 1
 0.986667 c 23 23 1622 1475 bf 0 0.733333 1 c 23 23 1645 1475 bf 0 0.266667 1 c 23 23 1668 1475 bf 0.6 1 0 c 23 23 1736 1475 bf 0 1 0.0533333 c 23 23 1759 1475 bf 0 1 0.8 c 23 23 1782 1475 bf 0 1 0.986667 c 23 23 1805 1475 bf 0 0.546666 1 c 23 23
 1828 1475 bf 0 0.266667 1 c 22 23 1851 1475 bf 23 23 230 1498 bf 0 0.546666 1 c 23 23 253 1498 bf 0 1 0.986667 c 23 23 276 1498 bf 0 1 0.8 c 22 23 299 1498 bf 0 0.266667 1 c 22 23 413 1498 bf 0 0.733333 1 c 23 23 435 1498 bf 23 23 458 1498 bf 0
 0.266667 1 c 23 23 641 1498 bf 0 0.546666 1 c 23 23 664 1498 bf 0 1 0.986667 c 22 23 687 1498 bf 23 23 709 1498 bf 0 0.266667 1 c 23 23 823 1498 bf 0 0.546666 1 c 23 23 846 1498 bf 0 0.733333 1 c 23 23 869 1498 bf 23 23 1211 1498 bf 0 0.546666 1 c
 23 23 1234 1498 bf 0 0.266667 1 c 23 23 1257 1498 bf 0 1 0.8 c 23 23 1371 1498 bf 0 0.733333 1 c 23 23 1394 1498 bf 0 0.546666 1 c 23 23 1417 1498 bf 0 0.266667 1 c 23 23 1440 1498 bf 0 1 0.986667 c 23 23 1622 1498 bf 0 0.733333 1 c 23 23 1645 1498
 bf 0 0.266667 1 c 23 23 1668 1498 bf 0 1 0.8 c 23 23 1782 1498 bf 0 1 0.986667 c 23 23 1805 1498 bf 0 0.546666 1 c 23 23 1828 1498 bf 22 23 1851 1498 bf 0 0.266667 1 c 23 23 230 1521 bf 0 0.546666 1 c 23 23 253 1521 bf 0 0.266667 1 c 22 23 413 1521
 bf 23 23 641 1521 bf 0 0.546666 1 c 23 23 664 1521 bf 0 0.266667 1 c 23 23 823 1521 bf 23 23 1257 1521 bf 0 0.546666 1 c 23 23 1417 1521 bf 0 0.266667 1 c 23 23 1440 1521 bf 23 23 1668 1521 bf 0 0.546666 1 c 23 23 1828 1521 bf 22 23 1851 1521 bf 23
 22 230 1567 bf 23 22 253 1567 bf 0 1 0.986667 c 23 22 276 1567 bf 0 1 0.8 c 22 22 299 1567 bf 0 1 0.0533333 c 23 22 321 1567 bf 0.6 1 0 c 23 22 344 1567 bf 0 0.266667 1 c 22 22 413 1567 bf 0 0.733333 1 c 23 22 435 1567 bf 23 22 458 1567 bf 0 1 0.52
 c 23 22 481 1567 bf 0 1 0.333333 c 23 22 504 1567 bf 1 0.933333 0 c 23 22 527 1567 bf 0 0.266667 1 c 23 22 641 1567 bf 0 0.546666 1 c 23 22 664 1567 bf 0 1 0.986667 c 22 22 687 1567 bf 23 22 709 1567 bf 0 1 0.0533333 c 23 22 732 1567 bf 0.413333 1 0
 c 23 22 755 1567 bf 0 0.266667 1 c 23 22 823 1567 bf 0 0.546666 1 c 23 22 846 1567 bf 0 0.733333 1 c 23 22 869 1567 bf 0 1 0.8 c 23 22 892 1567 bf 0 1 0.333333 c 23 22 915 1567 bf 1 0.933333 0 c 22 22 938 1567 bf 23 22 1143 1567 bf 0 1 0.333333 c 23
 22 1166 1567 bf 0 1 0.52 c 22 22 1189 1567 bf 0 0.733333 1 c 23 22 1211 1567 bf 0 0.546666 1 c 23 22 1234 1567 bf 0 0.266667 1 c 23 22 1257 1567 bf 0.413333 1 0 c 22 22 1326 1567 bf 0 1 0.0533333 c 23 22 1348 1567 bf 0 1 0.8 c 23 22 1371 1567 bf 0 1
 0.986667 c 23 22 1394 1567 bf 0 0.266667 1 c 23 22 1417 1567 bf 23 22 1440 1567 bf 1 0.933333 0 c 23 22 1554 1567 bf 0 1 0.333333 c 22 22 1577 1567 bf 0 1 0.52 c 23 22 1599 1567 bf 0 0.733333 1 c 23 22 1622 1567 bf 23 22 1645 1567 bf 0 0.266667 1 c
 23 22 1668 1567 bf 0.6 1 0 c 23 22 1736 1567 bf 0 1 0.0533333 c 23 22 1759 1567 bf 0 1 0.8 c 23 22 1782 1567 bf 0 1 0.986667 c 23 22 1805 1567 bf 0 0.546666 1 c 23 22 1828 1567 bf 0 0.266667 1 c 22 22 1851 1567 bf 23 23 230 1589 bf 0 0.546666 1 c 23
 23 253 1589 bf 0 1 0.986667 c 23 23 276 1589 bf 0 1 0.8 c 22 23 299 1589 bf 0 1 0.0533333 c 23 23 321 1589 bf 0.6 1 0 c 23 23 344 1589 bf 0 0.266667 1 c 22 23 413 1589 bf 0 0.733333 1 c 23 23 435 1589 bf 23 23 458 1589 bf 0 1 0.52 c 23 23 481 1589
 bf 0 1 0.333333 c 23 23 504 1589 bf 1 0.933333 0 c 23 23 527 1589 bf 0 0.266667 1 c 23 23 641 1589 bf 0 0.546666 1 c 23 23 664 1589 bf 0 0.733333 1 c 22 23 687 1589 bf 0 1 0.986667 c 23 23 709 1589 bf 0 1 0.0533333 c 23 23 732 1589 bf 0.413333 1 0 c
 23 23 755 1589 bf 0 0.266667 1 c 23 23 823 1589 bf 0 0.546666 1 c 23 23 846 1589 bf 0 0.733333 1 c 23 23 869 1589 bf 0 1 0.8 c 23 23 892 1589 bf 0 1 0.333333 c 23 23 915 1589 bf 0.88 1 0 c 22 23 938 1589 bf 1 0.933333 0 c 23 23 1143 1589 bf 0 1
 0.333333 c 23 23 1166 1589 bf 0 1 0.52 c 22 23 1189 1589 bf 0 0.733333 1 c 23 23 1211 1589 bf 0 0.546666 1 c 23 23 1234 1589 bf 0 0.266667 1 c 23 23 1257 1589 bf 0.413333 1 0 c 22 23 1326 1589 bf 0 1 0.0533333 c 23 23 1348 1589 bf 0 1 0.986667 c 23
 23 1371 1589 bf 0 0.733333 1 c 23 23 1394 1589 bf 0 0.546666 1 c 23 23 1417 1589 bf 0 0.266667 1 c 23 23 1440 1589 bf 1 0.933333 0 c 23 23 1554 1589 bf 0 1 0.333333 c 22 23 1577 1589 bf 0 1 0.52 c 23 23 1599 1589 bf 0 0.733333 1 c 23 23 1622 1589 bf
 23 23 1645 1589 bf 0 0.266667 1 c 23 23 1668 1589 bf 0.6 1 0 c 23 23 1736 1589 bf 0.133333 1 0 c 23 23 1759 1589 bf 0 1 0.8 c 23 23 1782 1589 bf 0 1 0.986667 c 23 23 1805 1589 bf 0 0.546666 1 c 23 23 1828 1589 bf 0 0.266667 1 c 22 23 1851 1589 bf 0
 0.546666 1 c 23 23 230 1612 bf 23 23 253 1612 bf 0 1 0.986667 c 23 23 276 1612 bf 0 1 0.8 c 22 23 299 1612 bf 0.133333 1 0 c 23 23 321 1612 bf 0.6 1 0 c 23 23 344 1612 bf 0 0.266667 1 c 22 23 413 1612 bf 0 0.733333 1 c 23 23 435 1612 bf 23 23 458
 1612 bf 0 1 0.52 c 23 23 481 1612 bf 0 1 0.333333 c 23 23 504 1612 bf 0 0.266667 1 c 23 23 641 1612 bf 0 0.546666 1 c 23 23 664 1612 bf 0 0.733333 1 c 22 23 687 1612 bf 0 1 0.986667 c 23 23 709 1612 bf 0 1 0.0533333 c 23 23 732 1612 bf 0.413333 1 0
 c 23 23 755 1612 bf 0 0.266667 1 c 23 23 823 1612 bf 0 0.546666 1 c 23 23 846 1612 bf 0 0.733333 1 c 23 23 869 1612 bf 0 1 0.8 c 23 23 892 1612 bf 0 1 0.333333 c 23 23 915 1612 bf 23 23 1166 1612 bf 0 1 0.52 c 22 23 1189 1612 bf 0 0.733333 1 c 23 23
 1211 1612 bf 0 0.546666 1 c 23 23 1234 1612 bf 0 0.266667 1 c 23 23 1257 1612 bf 0.413333 1 0 c 22 23 1326 1612 bf 0 1 0.0533333 c 23 23 1348 1612 bf 0 1 0.986667 c 23 23 1371 1612 bf 0 0.733333 1 c 23 23 1394 1612 bf 0 0.546666 1 c 23 23 1417 1612
 bf 0 0.266667 1 c 23 23 1440 1612 bf 0 1 0.0533333 c 22 23 1577 1612 bf 0 1 0.52 c 23 23 1599 1612 bf 0 0.733333 1 c 23 23 1622 1612 bf 23 23 1645 1612 bf 0 0.266667 1 c 23 23 1668 1612 bf 0.6 1 0 c 23 23 1736 1612 bf 0 1 0.0533333 c 23 23 1759 1612
 bf 0 1 0.8 c 23 23 1782 1612 bf 0 1 0.986667 c 23 23 1805 1612 bf 0 0.546666 1 c 23 23 1828 1612 bf 22 23 1851 1612 bf 0 0.266667 1 c 23 23 230 1635 bf 0 0.546666 1 c 23 23 253 1635 bf 0 1 0.986667 c 23 23 276 1635 bf 0 1 0.8 c 22 23 299 1635 bf 0
 0.266667 1 c 22 23 413 1635 bf 0 0.733333 1 c 23 23 435 1635 bf 23 23 458 1635 bf 0 0.266667 1 c 23 23 641 1635 bf 0 0.546666 1 c 23 23 664 1635 bf 0 0.733333 1 c 22 23 687 1635 bf 0 1 0.986667 c 23 23 709 1635 bf 0 0.266667 1 c 23 23 823 1635 bf 0
 0.546666 1 c 23 23 846 1635 bf 0 0.733333 1 c 23 23 869 1635 bf 23 23 1211 1635 bf 0 0.546666 1 c 23 23 1234 1635 bf 0 0.266667 1 c 23 23 1257 1635 bf 0 1 0.8 c 23 23 1371 1635 bf 0 0.733333 1 c 23 23 1394 1635 bf 0 0.546666 1 c 23 23 1417 1635 bf 0
 0.266667 1 c 23 23 1440 1635 bf 0 0.733333 1 c 23 23 1622 1635 bf 23 23 1645 1635 bf 0 0.546666 1 c 23 23 1668 1635 bf 0 1 0.8 c 23 23 1782 1635 bf 0 1 0.986667 c 23 23 1805 1635 bf 0 0.546666 1 c 23 23 1828 1635 bf 0 0.266667 1 c 22 23 1851 1635 bf
 0 0.546666 1 c 23 23 230 1658 bf 23 23 253 1658 bf 0 0.266667 1 c 22 23 413 1658 bf 23 23 641 1658 bf 23 23 664 1658 bf 23 23 823 1658 bf 23 23 1257 1658 bf 0 0.546666 1 c 23 23 1417 1658 bf 0 0.266667 1 c 23 23 1440 1658 bf 23 23 1668 1658 bf 0
 0.546666 1 c 23 23 1828 1658 bf 0 0.266667 1 c 22 23 1851 1658 bf 0 0.546666 1 c 23 22 230 1704 bf 23 22 253 1704 bf 0 1 0.986667 c 23 22 276 1704 bf 0 1 0.8 c 22 22 299 1704 bf 0 1 0.0533333 c 23 22 321 1704 bf 0.413333 1 0 c 23 22 344 1704 bf 0
 0.266667 1 c 22 22 413 1704 bf 0 0.733333 1 c 23 22 435 1704 bf 23 22 458 1704 bf 0 1 0.52 c 23 22 481 1704 bf 0 1 0.333333 c 23 22 504 1704 bf 0.88 1 0 c 23 22 527 1704 bf 0 0.266667 1 c 23 22 641 1704 bf 23 22 664 1704 bf 0 0.733333 1 c 22 22 687
 1704 bf 0 1 0.986667 c 23 22 709 1704 bf 0 1 0.0533333 c 23 22 732 1704 bf 0.413333 1 0 c 23 22 755 1704 bf 0 0.266667 1 c 23 22 823 1704 bf 0 0.546666 1 c 23 22 846 1704 bf 0 0.733333 1 c 23 22 869 1704 bf 0 1 0.8 c 23 22 892 1704 bf 0 1 0.333333 c
 23 22 915 1704 bf 1 0.933333 0 c 22 22 938 1704 bf 23 22 1143 1704 bf 0 1 0.333333 c 23 22 1166 1704 bf 0 1 0.8 c 22 22 1189 1704 bf 0 0.733333 1 c 23 22 1211 1704 bf 0 0.546666 1 c 23 22 1234 1704 bf 0 0.266667 1 c 23 22 1257 1704 bf 0.413333 1 0 c
 22 22 1326 1704 bf 0 1 0.0533333 c 23 22 1348 1704 bf 0 1 0.986667 c 23 22 1371 1704 bf 0 0.733333 1 c 23 22 1394 1704 bf 0 0.266667 1 c 23 22 1417 1704 bf 23 22 1440 1704 bf 1 0.933333 0 c 23 22 1554 1704 bf 0 1 0.333333 c 22 22 1577 1704 bf 0 1
 0.52 c 23 22 1599 1704 bf 0 0.733333 1 c 23 22 1622 1704 bf 23 22 1645 1704 bf 0 0.266667 1 c 23 22 1668 1704 bf 0.6 1 0 c 23 22 1736 1704 bf 0 1 0.0533333 c 23 22 1759 1704 bf 0 1 0.8 c 23 22 1782 1704 bf 0 1 0.986667 c 23 22 1805 1704 bf 0
 0.546666 1 c 23 22 1828 1704 bf 22 22 1851 1704 bf 0 0.266667 1 c 23 23 230 1726 bf 0 0.546666 1 c 23 23 253 1726 bf 0 1 0.986667 c 23 23 276 1726 bf 0 1 0.8 c 22 23 299 1726 bf 0 1 0.0533333 c 23 23 321 1726 bf 0.6 1 0 c 23 23 344 1726 bf 0
 0.266667 1 c 22 23 413 1726 bf 0 0.733333 1 c 23 23 435 1726 bf 23 23 458 1726 bf 0 1 0.52 c 23 23 481 1726 bf 0 1 0.333333 c 23 23 504 1726 bf 0.88 1 0 c 23 23 527 1726 bf 0 0.266667 1 c 23 23 641 1726 bf 23 23 664 1726 bf 0 0.733333 1 c 22 23 687
 1726 bf 0 1 0.986667 c 23 23 709 1726 bf 0 1 0.0533333 c 23 23 732 1726 bf 0.413333 1 0 c 23 23 755 1726 bf 0 0.266667 1 c 23 23 823 1726 bf 0 0.546666 1 c 23 23 846 1726 bf 0 0.733333 1 c 23 23 869 1726 bf 0 1 0.8 c 23 23 892 1726 bf 0 1 0.333333 c
 23 23 915 1726 bf 0.88 1 0 c 22 23 938 1726 bf 23 23 1143 1726 bf 0 1 0.333333 c 23 23 1166 1726 bf 0 1 0.8 c 22 23 1189 1726 bf 0 0.733333 1 c 23 23 1211 1726 bf 0 0.546666 1 c 23 23 1234 1726 bf 0 0.266667 1 c 23 23 1257 1726 bf 0.413333 1 0 c 22
 23 1326 1726 bf 0 1 0.0533333 c 23 23 1348 1726 bf 0 1 0.8 c 23 23 1371 1726 bf 0 0.733333 1 c 23 23 1394 1726 bf 0 0.266667 1 c 23 23 1417 1726 bf 23 23 1440 1726 bf 1 0.933333 0 c 23 23 1554 1726 bf 0 1 0.333333 c 22 23 1577 1726 bf 0 1 0.52 c 23
 23 1599 1726 bf 0 0.733333 1 c 23 23 1622 1726 bf 0 0.546666 1 c 23 23 1645 1726 bf 0 0.266667 1 c 23 23 1668 1726 bf 0.413333 1 0 c 23 23 1736 1726 bf 0 1 0.0533333 c 23 23 1759 1726 bf 0 1 0.8 c 23 23 1782 1726 bf 0 1 0.986667 c 23 23 1805 1726 bf
 0 0.546666 1 c 23 23 1828 1726 bf 0 0.266667 1 c 22 23 1851 1726 bf 23 23 230 1749 bf 0 0.546666 1 c 23 23 253 1749 bf 0 1 0.986667 c 23 23 276 1749 bf 0 1 0.8 c 22 23 299 1749 bf 0 1 0.0533333 c 23 23 321 1749 bf 0.413333 1 0 c 23 23 344 1749 bf 0
 0.266667 1 c 22 23 413 1749 bf 0 0.546666 1 c 23 23 435 1749 bf 0 0.733333 1 c 23 23 458 1749 bf 0 1 0.52 c 23 23 481 1749 bf 0 1 0.333333 c 23 23 504 1749 bf 0 0.266667 1 c 23 23 641 1749 bf 23 23 664 1749 bf 0 0.733333 1 c 22 23 687 1749 bf 0 1
 0.986667 c 23 23 709 1749 bf 0 1 0.0533333 c 23 23 732 1749 bf 0.413333 1 0 c 23 23 755 1749 bf 0 0.266667 1 c 23 23 823 1749 bf 0 0.546666 1 c 23 23 846 1749 bf 0 0.733333 1 c 23 23 869 1749 bf 0 1 0.8 c 23 23 892 1749 bf 0 1 0.52 c 23 23 915 1749
 bf 23 23 1166 1749 bf 0 1 0.8 c 22 23 1189 1749 bf 0 0.733333 1 c 23 23 1211 1749 bf 0 0.546666 1 c 23 23 1234 1749 bf 0 0.266667 1 c 23 23 1257 1749 bf 0.413333 1 0 c 22 23 1326 1749 bf 0 1 0.0533333 c 23 23 1348 1749 bf 0 1 0.8 c 23 23 1371 1749
 bf 0 0.733333 1 c 23 23 1394 1749 bf 0 0.266667 1 c 23 23 1417 1749 bf 23 23 1440 1749 bf 0 1 0.333333 c 22 23 1577 1749 bf 0 1 0.52 c 23 23 1599 1749 bf 0 0.733333 1 c 23 23 1622 1749 bf 23 23 1645 1749 bf 0 0.266667 1 c 23 23 1668 1749 bf 0.413333
 1 0 c 23 23 1736 1749 bf 0 1 0.0533333 c 23 23 1759 1749 bf 0 1 0.8 c 23 23 1782 1749 bf 0 1 0.986667 c 23 23 1805 1749 bf 0 0.546666 1 c 23 23 1828 1749 bf 22 23 1851 1749 bf 0 0.266667 1 c 23 23 230 1772 bf 0 0.546666 1 c 23 23 253 1772 bf 0 1
 0.986667 c 23 23 276 1772 bf 0 1 0.8 c 22 23 299 1772 bf 0 0.266667 1 c 22 23 413 1772 bf 0 0.546666 1 c 23 23 435 1772 bf 0 0.733333 1 c 23 23 458 1772 bf 0 0.266667 1 c 23 23 641 1772 bf 0 0.546666 1 c 23 23 664 1772 bf 0 0.733333 1 c 22 23 687
 1772 bf 0 1 0.986667 c 23 23 709 1772 bf 0 0.266667 1 c 23 23 823 1772 bf 0 0.546666 1 c 23 23 846 1772 bf 0 0.733333 1 c 23 23 869 1772 bf 23 23 1211 1772 bf 0 0.546666 1 c 23 23 1234 1772 bf 0 0.266667 1 c 23 23 1257 1772 bf 0 1 0.986667 c 23 23
 1371 1772 bf 0 0.733333 1 c 23 23 1394 1772 bf 0 0.546666 1 c 23 23 1417 1772 bf 0 0.266667 1 c 23 23 1440 1772 bf 0 0.733333 1 c 23 23 1622 1772 bf 0 0.546666 1 c 23 23 1645 1772 bf 0 0.266667 1 c 23 23 1668 1772 bf 0 1 0.8 c 23 23 1782 1772 bf 0 1
 0.986667 c 23 23 1805 1772 bf 0 0.546666 1 c 23 23 1828 1772 bf 0 0.266667 1 c 22 23 1851 1772 bf 23 23 230 1795 bf 0 0.546666 1 c 23 23 253 1795 bf 0 0.266667 1 c 22 23 413 1795 bf 23 23 641 1795 bf 23 23 664 1795 bf 23 23 823 1795 bf 23 23 1257
 1795 bf 0 0.546666 1 c 23 23 1417 1795 bf 0 0.266667 1 c 23 23 1440 1795 bf 23 23 1668 1795 bf 0 0.546666 1 c 23 23 1828 1795 bf 0 0.266667 1 c 22 23 1851 1795 bf 1 1 1 c black 230 197 m 1643 X s
 gsave  2268 1972 0 0 C 233.345 161.041 t -19 r /Helvetica findfont 39.4385 sf 0 0 m (Disk\2552 Pnl2) show NC gr 
 gsave  2268 1972 0 0 C 417.391 161.041 t -19 r /Helvetica findfont 39.4385 sf 0 0 m (Disk\2552 Pnl1) show NC gr 
 gsave  2268 1972 0 0 C 644.163 161.041 t -19 r /Helvetica findfont 39.4385 sf 0 0 m (Disk\2551 Pnl2) show NC gr 
 gsave  2268 1972 0 0 C 828.21 161.041 t -19 r /Helvetica findfont 39.4385 sf 0 0 m (Disk\2551 Pnl1) show NC gr 
 gsave  2268 1972 0 0 C 1147 161.041 t -19 r /Helvetica findfont 39.4385 sf 0 0 m (Disk+1 Pnl1) show NC gr 
 gsave  2268 1972 0 0 C 1327.76 161.041 t -19 r /Helvetica findfont 39.4385 sf 0 0 m (Disk+1 Pnl2) show NC gr 
 gsave  2268 1972 0 0 C 1557.82 161.041 t -19 r /Helvetica findfont 39.4385 sf 0 0 m (Disk+2 Pnl1) show NC gr 
 gsave  2268 1972 0 0 C 1738.58 161.041 t -19 r /Helvetica findfont 39.4385 sf 0 0 m (Disk+2 Pnl2) show NC gr  248 240 m -43 Y s 285 240 m -43 Y s 321 240 m -43 Y s 358 240 m -43 Y s 394 240 m -43 Y s 431 240 m -43 Y s 467 240 m -43 Y s 504 240 m -43
 Y s 540 240 m -43 Y s 577 240 m -43 Y s 613 240 m -43 Y s 650 240 m -43 Y s 687 240 m -43 Y s 723 240 m -43 Y s 760 240 m -43 Y s 796 240 m -43 Y s 833 240 m -43 Y s 869 240 m -43 Y s 906 240 m -43 Y s 942 240 m -43 Y s 979 240 m -43 Y s 1015 240 m
 -43 Y s 1052 240 m -43 Y s 1088 240 m -43 Y s 1125 240 m -43 Y s 1161 240 m -43 Y s 1198 240 m -43 Y s 1234 240 m -43 Y s 1271 240 m -43 Y s 1307 240 m -43 Y s 1344 240 m -43 Y s 1380 240 m -43 Y s 1417 240 m -43 Y s 1453 240 m -43 Y s 1490 240 m
 -43 Y s 1526 240 m -43 Y s 1563 240 m -43 Y s 1599 240 m -43 Y s 1636 240 m -43 Y s 1672 240 m -43 Y s 1709 240 m -43 Y s 1746 240 m -43 Y s 1782 240 m -43 Y s 1819 240 m -43 Y s 1855 240 m -43 Y s 248 240 m -43 Y s 1855 240 m -43 Y s 230 197 m 1643
 Y s
 gsave  2268 1972 0 0 C 101.883 854.502 t 90 r /Helvetica findfont 98.5964 sf 0 0 m (Blades in Inner Halves) show NC gr  287 403 m -57 X s 258 471 m -28 X s 258 540 m -28 X s 258 608 m -28 X s 287 676 m -57 X s 258 745 m -28 X s 258 813 m -28 X s 258
 882 m -28 X s 287 950 m -57 X s 258 1019 m -28 X s 258 1087 m -28 X s 258 1156 m -28 X s 287 1224 m -57 X s 258 1293 m -28 X s 258 1361 m -28 X s 258 1430 m -28 X s 287 1498 m -57 X s 258 1567 m -28 X s 258 1635 m -28 X s 258 1704 m -28 X s 287 1772
 m -57 X s 287 403 m -57 X s 258 334 m -28 X s 258 266 m -28 X s 258 197 m -28 X s 287 1772 m -57 X s
 gsave  2268 1972 0 0 C 184.047 377.953 t 0 r /Helvetica findfont 62.4444 sf 0 0 m (2) show NC gr 
 gsave  2268 1972 0 0 C 184.047 650.736 t 0 r /Helvetica findfont 62.4444 sf 0 0 m (4) show NC gr 
 gsave  2268 1972 0 0 C 184.047 930.092 t 0 r /Helvetica findfont 62.4444 sf 0 0 m (6) show NC gr 
 gsave  2268 1972 0 0 C 184.047 1202.88 t 0 r /Helvetica findfont 62.4444 sf 0 0 m (8) show NC gr 
 gsave  2268 1972 0 0 C 147.895 1475.66 t 0 r /Helvetica findfont 62.4444 sf 0 0 m (10) show NC gr 
 gsave  2268 1972 0 0 C 147.895 1748.44 t 0 r /Helvetica findfont 62.4444 sf 0 0 m (12) show NC gr  0.386667 0 1 c 82 82 1890 197 bf 0.2 0 1 c 82 83 1890 279 bf 0 0.0800001 1 c 82 82 1890 362 bf 0 0.266667 1 c 82 82 1890 444 bf 0 0.546666 1 c 82 82
 1890 526 bf 0 0.733333 1 c 82 82 1890 608 bf 0 1 0.986667 c 82 82 1890 690 bf 0 1 0.8 c 82 83 1890 772 bf 0 1 0.52 c 82 82 1890 855 bf 0 1 0.333333 c 82 82 1890 937 bf 0 1 0.0533333 c 82 82 1890 1019 bf 0.133333 1 0 c 82 82 1890 1101 bf 0.413333 1 0
 c 82 82 1890 1183 bf 0.6 1 0 c 82 82 1890 1265 bf 0.88 1 0 c 82 83 1890 1347 bf 1 0.933333 0 c 82 82 1890 1430 bf 1 0.653333 0 c 82 82 1890 1512 bf 1 0.466667 0 c 82 82 1890 1594 bf 1 0.186667 0 c 82 82 1890 1676 bf 1 0 0 c 82 82 1890 1758 bf black
 1972 197 m 1643 Y s
 gsave  2268 1972 0 0 C 2185.55 1840.47 t 270 r /Helvetica findfont 98.5964 sf 0 0 m (Cluster Occupancy) show NC gr  1915 197 m 57 X s 1915 428 m 57 X s 1915 659 m 57 X s 1915 890 m 57 X s 1915 1120 m 57 X s 1915 1351 m 57 X s 1915 1582 m 57 X s 1915
 1813 m 57 X s 1915 1813 m 57 X s
 gsave  2268 1972 0 0 C 1981.79 174.187 t 0 r /Helvetica findfont 62.4444 sf 0 0 m (0) show NC gr 
 gsave  2268 1972 0 0 C 1981.79 407.532 t 0 r /Helvetica findfont 62.4444 sf 0 0 m (2000) show NC gr 
 gsave  2268 1972 0 0 C 1981.79 637.59 t 0 r /Helvetica findfont 62.4444 sf 0 0 m (4000) show NC gr 
 gsave  2268 1972 0 0 C 1981.79 867.648 t 0 r /Helvetica findfont 62.4444 sf 0 0 m (6000) show NC gr 
 gsave  2268 1972 0 0 C 1981.79 1097.71 t 0 r /Helvetica findfont 62.4444 sf 0 0 m (8000) show NC gr 
 gsave  2268 1972 0 0 C 1981.79 1331.05 t 0 r /Helvetica findfont 62.4444 sf 0 0 m (10000) show NC gr 
 gsave  2268 1972 0 0 C 1981.79 1561.11 t 0 r /Helvetica findfont 62.4444 sf 0 0 m (12000) show NC gr 
 gsave  2268 1972 0 0 C 1981.79 1791.17 t 0 r /Helvetica findfont 62.4444 sf 0 0 m (14000) show NC gr  1 1 1 c black
 gsave  2268 1972 0 0 C 1423.07 1873.33 t 0 r /Helvetica findfont 85.4502 sf 0 0 m (=13 TeV \(50ns\)) show NC gr 
 gsave  2268 1972 0 0 C 1380.35 1873.33 t 0 r /Helvetica findfont 85.4502 sf 0 0 m (s) show NC gr  6 lw 1351 1923 m 10 -53 d s 0 lw 1361 1870 m 9 72 d s 1370 1942 m 53 X s
 gsave  2268 1972 0 0 C 230.058 1883.19 t 0 r /Helvetica-Bold findfont 92.0233 sf 0 0 m (CMS preliminary) show NC gr  3 lw 1052 1019 m -379 Y s 1070 640 m -18 -32 d -19 32 d f 1070 640 m -18 -32 d -19 32 d 37 X cl s
 gsave  2268 1972 0 0 C 1031.98 880.794 t 90 r /Symbol findfont 46.0116 sf 0 0 m (f) show NC gr 
 gsave  2268 1972 0 0 C 1031.98 726.327 t 90 r /Helvetica-Bold findfont 46.0116 sf 0 0 m (global ) show NC gr 
 gsave  2268 1972 0 0 C 1104.28 1005.68 t 90 r /Helvetica-Bold findfont 46.0116 sf 0 0 m (0) show NC gr 
 gr  gr showpage
end
%%EOF
