%!PS-Adobe-2.0 EPSF-2.0
%%BoundingBox:  0 0 567 553
%%Title: : #sqrt{s}=13 TeV (50ns)
%%Creator: ROOT Version 6.02/10
%%CreationDate: Tue Jul 21 23:39:52 2015
%%EndComments
%%BeginProlog
80 dict begin
/s {stroke} def /l {lineto} def /m {moveto} def /t {translate} def
/r {rotate} def /rl {roll}  def /R {repeat} def
/d {rlineto} def /rm {rmoveto} def /gr {grestore} def /f {eofill} def
/c {setrgbcolor} def /black {0 setgray} def /sd {setdash} def
/cl {closepath} def /sf {scalefont setfont} def /lw {setlinewidth} def
/box {m dup 0 exch d exch 0 d 0 exch neg d cl} def
/NC{systemdict begin initclip end}def/C{NC box clip newpath}def
/bl {box s} def /bf {gsave box gsave f grestore 1 lw [] 0 sd s grestore} def /Y { 0 exch d} def /X { 0 d} def 
/K {{pop pop 0 moveto} exch kshow} bind def
/ita {/ang 15 def gsave [1 0 ang dup sin exch cos div 1 0 0] concat} def 
/mp {newpath /y exch def /x exch def} def
/side {[w .77 mul w .23 mul] .385 w mul sd w 0 l currentpoint t -144 r} def
/mr {mp x y w2 0 360 arc} def /m24 {mr s} def /m20 {mr f} def
/mb {mp x y w2 add m w2 neg 0 d 0 w neg d w 0 d 0 w d cl} def
/mt {mp x y w2 add m w2 neg w neg d w 0 d cl} def
/m21 {mb f} def /m25 {mb s} def /m22 {mt f} def /m26{mt s} def
/m23 {mp x y w2 sub m w2 w d w neg 0 d cl f} def
/m27 {mp x y w2 add m w3 neg w2 neg d w3 w2 neg d w3 w2 d cl s} def
/m28 {mp x w2 sub y w2 sub w3 add m w3 0 d  0 w3 neg d w3 0 d 0 w3 d w3 0 d  0 w3 d w3 neg 0 d 0 w3 d w3 neg 0 d 0 w3 neg d w3 neg 0 d cl s } def
/m29 {mp gsave x w2 sub y w2 add w3 sub m currentpoint t 4 {side} repeat cl fill gr} def
/m30 {mp gsave x w2 sub y w2 add w3 sub m currentpoint t 4 {side} repeat cl s gr} def
/m31 {mp x y w2 sub m 0 w d x w2 sub y m w 0 d x w2 sub y w2 add m w w neg d x w2 sub y w2 sub m w w d s} def
/m32 {mp x y w2 sub m w2 w d w neg 0 d cl s} def
/m33 {mp x y w2 add m w3 neg w2 neg d w3 w2 neg d w3 w2 d cl f} def
/m34 {mp x w2 sub y w2 sub w3 add m w3 0 d  0 w3 neg d w3 0 d 0 w3 d w3 0 d  0 w3 d w3 neg 0 d 0 w3 d w3 neg 0 d 0 w3 neg d w3 neg 0 d cl f } def
/m2 {mp x y w2 sub m 0 w d x w2 sub y m w 0 d s} def
/m5 {mp x w2 sub y w2 sub m w w d x w2 sub y w2 add m w w neg d s} def
/reEncode {exch findfont dup length dict begin {1 index /FID eq  {pop pop} {def} ifelse } forall /Encoding exch def currentdict end dup /FontName get exch definefont pop } def [/Times-Bold /Times-Italic /Times-BoldItalic /Helvetica /Helvetica-Oblique
 /Helvetica-Bold /Helvetica-BoldOblique /Courier /Courier-Oblique /Courier-Bold /Courier-BoldOblique /Times-Roman /AvantGarde-Book /AvantGarde-BookOblique /AvantGarde-Demi /AvantGarde-DemiOblique /Bookman-Demi /Bookman-DemiItalic /Bookman-Light
 /Bookman-LightItalic /Helvetica-Narrow /Helvetica-Narrow-Bold /Helvetica-Narrow-BoldOblique /Helvetica-Narrow-Oblique /NewCenturySchlbk-Roman /NewCenturySchlbk-Bold /NewCenturySchlbk-BoldItalic /NewCenturySchlbk-Italic /Palatino-Bold
 /Palatino-BoldItalic /Palatino-Italic /Palatino-Roman ] {ISOLatin1Encoding reEncode } forall
%%EndProlog
%%BeginSetup
%%EndSetup
newpath  gsave  .25 .25 scale  gsave  0 0 t black[  ] 0 sd 3 lw 1 1 1 c 2268 2213 0 0 bf black 1 1 1 c 1829 1829 366 219 bf black 1829 1829 366 219 bl 1 1 1 c 1829 1829 366 219 bf black 1829 1829 366 219 bl 366 219 m 1829 X s 366 219 m 1829 Y s[ 4 8]
 0 sd 2195 219 m -1829 X s 2195 402 m -1829 X s 2195 585 m -1829 X s 2195 768 m -1829 X s 2195 951 m -1829 X s 2195 1134 m -1829 X s 2195 1317 m -1829 X s 2195 1500 m -1829 X s 2195 1682 m -1829 X s 2195 1865 m -1829 X s 2195 2048 m -1829 X s[  ] 0
 sd 366 219 m 1829 X s 503 273 m -54 Y s 554 246 m -27 Y s 606 246 m -27 Y s 658 246 m -27 Y s 710 246 m -27 Y s 762 273 m -54 Y s 814 246 m -27 Y s 865 246 m -27 Y s 917 246 m -27 Y s 969 246 m -27 Y s 1021 273 m -54 Y s 1073 246 m -27 Y s 1125 246
 m -27 Y s 1176 246 m -27 Y s 1228 246 m -27 Y s 1280 273 m -54 Y s 1332 246 m -27 Y s 1384 246 m -27 Y s 1436 246 m -27 Y s 1488 246 m -27 Y s 1539 273 m -54 Y s 1591 246 m -27 Y s 1643 246 m -27 Y s 1695 246 m -27 Y s 1747 246 m -27 Y s 1799 273 m
 -54 Y s 1850 246 m -27 Y s 1902 246 m -27 Y s 1954 246 m -27 Y s 2006 246 m -27 Y s 2058 273 m -54 Y s 503 273 m -54 Y s 451 246 m -27 Y s 399 246 m -27 Y s 2058 273 m -54 Y s 2110 246 m -27 Y s 2161 246 m -27 Y s 1 1 1 c black 1 1 1 c
 gsave  2268 2213 0 0 C 486.462 149.962 t 0 r /Helvetica findfont 73.1521 sf 0 0 m (1) show NC gr  black 1 1 1 c
 gsave  2268 2213 0 0 C 738.837 149.962 t 0 r /Helvetica findfont 73.1521 sf 0 0 m (2) show NC gr  black 1 1 1 c
 gsave  2268 2213 0 0 C 998.527 149.962 t 0 r /Helvetica findfont 73.1521 sf 0 0 m (3) show NC gr  black 1 1 1 c
 gsave  2268 2213 0 0 C 1258.22 149.962 t 0 r /Helvetica findfont 73.1521 sf 0 0 m (4) show NC gr  black 1 1 1 c
 gsave  2268 2213 0 0 C 1514.25 149.962 t 0 r /Helvetica findfont 73.1521 sf 0 0 m (5) show NC gr  black 1 1 1 c
 gsave  2268 2213 0 0 C 1773.94 149.962 t 0 r /Helvetica findfont 73.1521 sf 0 0 m (6) show NC gr  black 1 1 1 c
 gsave  2268 2213 0 0 C 2033.63 149.962 t 0 r /Helvetica findfont 73.1521 sf 0 0 m (7) show NC gr  black 366 219 m 1829 Y s
 gsave  2268 2213 0 0 C 102.413 1415.49 t 90 r /Helvetica findfont 109.728 sf 0 0 m (Hit Efficiency) show NC gr  422 219 m -56 X s 394 265 m -28 X s 394 311 m -28 X s 394 357 m -28 X s 422 402 m -56 X s 394 448 m -28 X s 394 494 m -28 X s 394 539 m
 -28 X s 422 585 m -56 X s 394 631 m -28 X s 394 677 m -28 X s 394 722 m -28 X s 422 768 m -56 X s 394 814 m -28 X s 394 860 m -28 X s 394 905 m -28 X s 422 951 m -56 X s 394 997 m -28 X s 394 1042 m -28 X s 394 1088 m -28 X s 422 1134 m -56 X s 394
 1180 m -28 X s 394 1225 m -28 X s 394 1271 m -28 X s 422 1317 m -56 X s 394 1362 m -28 X s 394 1408 m -28 X s 394 1454 m -28 X s 422 1500 m -56 X s 394 1545 m -28 X s 394 1591 m -28 X s 394 1637 m -28 X s 422 1682 m -56 X s 394 1728 m -28 X s 394
 1774 m -28 X s 394 1820 m -28 X s 422 1865 m -56 X s 394 1911 m -28 X s 394 1957 m -28 X s 394 2003 m -28 X s 422 2048 m -56 X s
 gsave  2268 2213 0 0 C 168.25 190.196 t 0 r /Helvetica findfont 73.1521 sf 0 0 m (0.980) show NC gr 
 gsave  2268 2213 0 0 C 168.25 373.076 t 0 r /Helvetica findfont 73.1521 sf 0 0 m (0.982) show NC gr 
 gsave  2268 2213 0 0 C 168.25 555.956 t 0 r /Helvetica findfont 73.1521 sf 0 0 m (0.984) show NC gr 
 gsave  2268 2213 0 0 C 168.25 738.837 t 0 r /Helvetica findfont 73.1521 sf 0 0 m (0.986) show NC gr 
 gsave  2268 2213 0 0 C 168.25 921.717 t 0 r /Helvetica findfont 73.1521 sf 0 0 m (0.988) show NC gr 
 gsave  2268 2213 0 0 C 168.25 1104.6 t 0 r /Helvetica findfont 73.1521 sf 0 0 m (0.990) show NC gr 
 gsave  2268 2213 0 0 C 168.25 1287.48 t 0 r /Helvetica findfont 73.1521 sf 0 0 m (0.992) show NC gr 
 gsave  2268 2213 0 0 C 168.25 1470.36 t 0 r /Helvetica findfont 73.1521 sf 0 0 m (0.994) show NC gr 
 gsave  2268 2213 0 0 C 168.25 1653.24 t 0 r /Helvetica findfont 73.1521 sf 0 0 m (0.996) show NC gr 
 gsave  2268 2213 0 0 C 168.25 1836.12 t 0 r /Helvetica findfont 73.1521 sf 0 0 m (0.998) show NC gr 
 gsave  2268 2213 0 0 C 168.25 2019 t 0 r /Helvetica findfont 73.1521 sf 0 0 m (1.000) show NC gr  /w 29 def /w2 {w 2 div} def /w3 {w 3 div} def 503 1847 762 1825 1021 1901 1280 1875 1539 2005 1799 1997 2058 1854 7 { m20} R 503 1861 m 187 Y s 495
 2048 m 15 X s 503 1832 m -260 Y s 495 1572 m 15 X s 762 1840 m 208 Y s 754 2048 m 15 X s 762 1810 m -259 Y s 754 1551 m 15 X s 1021 1915 m 133 Y s 1014 2048 m 14 X s 1021 1886 m -260 Y s 1014 1626 m 14 X s 1280 1890 m 158 Y s 1273 2048 m 14 X s 1280
 1861 m -260 Y s 1273 1601 m 14 X s 1539 2019 m 29 Y s 1532 2048 m 15 X s 1539 1990 m -260 Y s 1532 1730 m 15 X s 1799 2011 m 37 Y s 1791 2048 m 15 X s 1799 1982 m -260 Y s 1791 1722 m 15 X s 2058 1868 m 180 Y s 2050 2048 m 15 X s 2058 1839 m -259 Y
 s 2050 1580 m 15 X s
 gsave  2268 2213 0 0 C 395.022 95.0978 t 0 r /Helvetica findfont 65.8369 sf 0 0 m (Layer 1) show NC gr 
 gsave  2268 2213 0 0 C 651.054 95.0978 t 0 r /Helvetica findfont 65.8369 sf 0 0 m (Layer 2) show NC gr 
 gsave  2268 2213 0 0 C 910.744 95.0978 t 0 r /Helvetica findfont 65.8369 sf 0 0 m (Layer 3) show NC gr 
 gsave  2268 2213 0 0 C 1177.75 95.0978 t 0 r /Helvetica findfont 65.8369 sf 0 0 m (Disk \2552) show NC gr 
 gsave  2268 2213 0 0 C 1437.44 95.0978 t 0 r /Helvetica findfont 65.8369 sf 0 0 m (Disk \2551) show NC gr 
 gsave  2268 2213 0 0 C 1689.81 95.0978 t 0 r /Helvetica findfont 65.8369 sf 0 0 m (Disk +1) show NC gr 
 gsave  2268 2213 0 0 C 1945.85 95.0978 t 0 r /Helvetica findfont 65.8369 sf 0 0 m (Disk +2) show NC gr 
 gsave  2268 2213 0 0 C 369.418 2095.81 t 0 r /Helvetica-Bold findfont 102.413 sf 0 0 m (CMS preliminary) show NC gr  1 1 1 c black
 gsave  2268 2213 0 0 C 1558.14 2103.12 t 0 r /Helvetica findfont 95.0978 sf 0 0 m (=13 TeV \(50ns\)) show NC gr 
 gsave  2268 2213 0 0 C 1510.59 2103.12 t 0 r /Helvetica findfont 95.0978 sf 0 0 m (s) show NC gr  6 lw 1478 2158 m 11 -59 d s 0 lw 1489 2099 m 11 81 d s 1500 2180 m 58 X s
 gr  gr showpage
end
%%EOF
